%YAML 1.1
%TAG !u! tag:unity3d.com,2011:
--- !u!114 &-7463683972818228103
MonoBehaviour:
  m_ObjectHideFlags: 11
  m_CorrespondingSourceObject: {fileID: 0}
  m_PrefabInstance: {fileID: 0}
  m_PrefabAsset: {fileID: 0}
  m_GameObject: {fileID: 0}
  m_Enabled: 1
  m_EditorHideFlags: 0
  m_Script: {fileID: 11500000, guid: d0353a89b1f911e48b9e16bdc9f2e058, type: 3}
  m_Name: 
  m_EditorClassIdentifier: 
  version: 4
--- !u!21 &2100000
Material:
  serializedVersion: 6
  m_ObjectHideFlags: 0
  m_CorrespondingSourceObject: {fileID: 0}
  m_PrefabInstance: {fileID: 0}
  m_PrefabAsset: {fileID: 0}
  m_Name: FireExtinguisher_CO2
  m_Shader: {fileID: 46, guid: 0000000000000000f000000000000000, type: 0}
  m_ShaderKeywords: _DETAILSOURCE_SPECULARALPHA _ENABLETRIPLANARPROJECTION_ON _GLOSSYREFLECTIONS_OFF
    _METALLICGLOSSMAP _METALLICSPECGLOSSMAP _NORMALMAP _SOURCE_SPECULARALPHA _TRIPLANARSPACEPROJECTION_OBJECTSPACE
    _USEAOFROMMAINPROPERTIES_ON _USEEMISSIONFROMMAINPROPERTIES_ON
  m_LightmapFlags: 4
  m_EnableInstancingVariants: 0
  m_DoubleSidedGI: 0
  m_CustomRenderQueue: -1
  stringTagMap: {}
  disabledShaderPasses: []
  m_SavedProperties:
    serializedVersion: 3
    m_TexEnvs:
    - _BaseMap:
        m_Texture: {fileID: 2800000, guid: 913fd560593cdbc49b54ff286ed4e05d, type: 3}
        m_Scale: {x: 1, y: 1}
        m_Offset: {x: 0, y: 0}
    - _BumpMap:
        m_Texture: {fileID: 2800000, guid: 75d83dd6b066d3c43a51c2c5012fbfea, type: 3}
        m_Scale: {x: 1, y: 1}
        m_Offset: {x: 0, y: 0}
    - _DetailAlbedoMap:
        m_Texture: {fileID: 0}
        m_Scale: {x: 1, y: 1}
        m_Offset: {x: 0, y: 0}
    - _DetailMask:
        m_Texture: {fileID: 0}
        m_Scale: {x: 1, y: 1}
        m_Offset: {x: 0, y: 0}
    - _DetailNormalMap:
        m_Texture: {fileID: 0}
        m_Scale: {x: 1, y: 1}
        m_Offset: {x: 0, y: 0}
    - _DetailSpecGlossMap:
        m_Texture: {fileID: 0}
        m_Scale: {x: 1, y: 1}
        m_Offset: {x: 0, y: 0}
    - _EmissionMap:
        m_Texture: {fileID: 0}
        m_Scale: {x: 1, y: 1}
        m_Offset: {x: 0, y: 0}
    - _MainTex:
        m_Texture: {fileID: 2800000, guid: 913fd560593cdbc49b54ff286ed4e05d, type: 3}
        m_Scale: {x: 1, y: 1}
        m_Offset: {x: 0, y: 0}
    - _MetallicGlossMap:
        m_Texture: {fileID: 2800000, guid: 70fd3e71ecc73a34d8a4652526396617, type: 3}
        m_Scale: {x: 1, y: 1}
        m_Offset: {x: 0, y: 0}
    - _OcclusionMap:
        m_Texture: {fileID: 0}
        m_Scale: {x: 1, y: 1}
        m_Offset: {x: 0, y: 0}
    - _ParallaxMap:
        m_Texture: {fileID: 0}
        m_Scale: {x: 1, y: 1}
        m_Offset: {x: 0, y: 0}
    - _SpecGlossMap:
        m_Texture: {fileID: 0}
        m_Scale: {x: 1, y: 1}
        m_Offset: {x: 0, y: 0}
    - _texcoord:
        m_Texture: {fileID: 0}
        m_Scale: {x: 1, y: 1}
        m_Offset: {x: 0, y: 0}
    - unity_Lightmaps:
        m_Texture: {fileID: 0}
        m_Scale: {x: 1, y: 1}
        m_Offset: {x: 0, y: 0}
    - unity_LightmapsInd:
        m_Texture: {fileID: 0}
        m_Scale: {x: 1, y: 1}
        m_Offset: {x: 0, y: 0}
    - unity_ShadowMasks:
        m_Texture: {fileID: 0}
        m_Scale: {x: 1, y: 1}
        m_Offset: {x: 0, y: 0}
    m_Floats:
    - _AlphaClip: 0
    - _AoIntensity: 1
    - _Blend: 0
    - _BlendMainNormal: 0
    - _BlendmodeOverlay: 0
    - _Brightness: 1
    - _BumpScale: 1
    - _ClearCoatMask: 0
    - _ClearCoatSmoothness: 0
    - _ContrastDetailMap: 0
    - _Cull: 2
    - _Cutoff: 0.5
    - _DetailAlbedoMapScale: 1
    - _DetailBrightness: 1
    - _DetailGlossiness: 0.5
    - _DetailNormalMapScale: 1
    - _DetailSaturation: 0
    - _DetailSource: 0
    - _DetailSpecularIntensity: 0.2
    - _DstBlend: 0
    - _EmissionIntensity: 1
    - _EnableDetailMask: 0
    - _EnableTriplanarProjection: 1
    - _EnvironmentReflections: 1
    - _GlossMapScale: 0.8
    - _Glossiness: 0
    - _GlossyReflections: 0
    - _IntensityMask: 1
    - _InvertABaseColor: 0
    - _InvertMask: 0
    - _Metallic: 0
    - _Mode: 0
    - _OcclusionStrength: 1
    - _Parallax: 0.005
    - _QueueOffset: 0
    - _ReceiveShadows: 1
    - _Saturation: 0
    - _Smoothness: 1
    - _SmoothnessTextureChannel: 0
    - _Source: 0
    - _SpecularHighlights: 1
    - _SpecularIntensity: 0
    - _SpreadDetailMap: 0
    - _SrcBlend: 1
    - _Surface: 0
    - _TriplanarFalloff: 20
    - _TriplanarSpaceProjection: 0
    - _UVSec: 0
    - _UseAoFromMainProperties: 1
    - _UseEmissionFromMainProperties: 1
    - _VisualizeMask: 0
    - _WorkflowMode: 1
    - _ZTest: 4
    - _ZWrite: 1
    - __dirty: 1
    m_Colors:
    - _BaseColor: {r: 1, g: 1, b: 1, a: 1}
    - _Color: {r: 1, g: 1, b: 1, a: 1}
    - _DetailColor: {r: 1, g: 1, b: 1, a: 0}
    - _DetailSpecularColor: {r: 1, g: 1, b: 1, a: 0}
    - _EmissionColor: {r: 0, g: 0, b: 0, a: 1}
    - _GlobalXYTilingXYZWOffsetXY: {r: 1, g: 1, b: 0, a: 0}
    - _SpecColor: {r: 0.19999996, g: 0.19999996, b: 0.19999996, a: 1}
    - _SpecularColor: {r: 1, g: 1, b: 1, a: 0}
    - _TriplanarXYTilingXYZWOffsetXY: {r: 1, g: 1, b: 0, a: 0}
  m_BuildTextureStacks: []
