%YAML 1.1
%TAG !u! tag:unity3d.com,2011:
--- !u!1001 &1893517284740923775
PrefabInstance:
  m_ObjectHideFlags: 0
  serializedVersion: 2
  m_Modification:
    m_TransformParent: {fileID: 0}
    m_Modifications:
    - target: {fileID: 100000, guid: 2b64bf2de295ee145b4799d884d3bb48, type: 3}
      propertyPath: m_Name
      value: Warehouse_01_10m_02_Prefab
      objectReference: {fileID: 0}
    - target: {fileID: 100000, guid: 2b64bf2de295ee145b4799d884d3bb48, type: 3}
      propertyPath: m_StaticEditorFlags
      value: 4294967295
      objectReference: {fileID: 0}
    - target: {fileID: 100002, guid: 2b64bf2de295ee145b4799d884d3bb48, type: 3}
      propertyPath: m_IsActive
      value: 0
      objectReference: {fileID: 0}
    - target: {fileID: 100002, guid: 2b64bf2de295ee145b4799d884d3bb48, type: 3}
      propertyPath: m_StaticEditorFlags
      value: 4294967295
      objectReference: {fileID: 0}
    - target: {fileID: 100088, guid: 2b64bf2de295ee145b4799d884d3bb48, type: 3}
      propertyPath: m_IsActive
      value: 0
      objectReference: {fileID: 0}
    - target: {fileID: 100088, guid: 2b64bf2de295ee145b4799d884d3bb48, type: 3}
      propertyPath: m_StaticEditorFlags
      value: 4294967295
      objectReference: {fileID: 0}
    - target: {fileID: 100092, guid: 2b64bf2de295ee145b4799d884d3bb48, type: 3}
      propertyPath: m_IsActive
      value: 0
      objectReference: {fileID: 0}
    - target: {fileID: 100092, guid: 2b64bf2de295ee145b4799d884d3bb48, type: 3}
      propertyPath: m_StaticEditorFlags
      value: 4294967295
      objectReference: {fileID: 0}
    - target: {fileID: 100094, guid: 2b64bf2de295ee145b4799d884d3bb48, type: 3}
      propertyPath: m_StaticEditorFlags
      value: 4294967295
      objectReference: {fileID: 0}
    - target: {fileID: 100096, guid: 2b64bf2de295ee145b4799d884d3bb48, type: 3}
      propertyPath: m_IsActive
      value: 0
      objectReference: {fileID: 0}
    - target: {fileID: 100096, guid: 2b64bf2de295ee145b4799d884d3bb48, type: 3}
      propertyPath: m_StaticEditorFlags
      value: 4294967295
      objectReference: {fileID: 0}
    - target: {fileID: 100098, guid: 2b64bf2de295ee145b4799d884d3bb48, type: 3}
      propertyPath: m_StaticEditorFlags
      value: 4294967295
      objectReference: {fileID: 0}
    - target: {fileID: 400000, guid: 2b64bf2de295ee145b4799d884d3bb48, type: 3}
      propertyPath: m_RootOrder
      value: 0
      objectReference: {fileID: 0}
    - target: {fileID: 400000, guid: 2b64bf2de295ee145b4799d884d3bb48, type: 3}
      propertyPath: m_LocalPosition.x
      value: 0
      objectReference: {fileID: 0}
    - target: {fileID: 400000, guid: 2b64bf2de295ee145b4799d884d3bb48, type: 3}
      propertyPath: m_LocalPosition.y
      value: 0
      objectReference: {fileID: 0}
    - target: {fileID: 400000, guid: 2b64bf2de295ee145b4799d884d3bb48, type: 3}
      propertyPath: m_LocalPosition.z
      value: 0
      objectReference: {fileID: 0}
    - target: {fileID: 400000, guid: 2b64bf2de295ee145b4799d884d3bb48, type: 3}
      propertyPath: m_LocalRotation.w
      value: 1
      objectReference: {fileID: 0}
    - target: {fileID: 400000, guid: 2b64bf2de295ee145b4799d884d3bb48, type: 3}
      propertyPath: m_LocalRotation.x
      value: -0
      objectReference: {fileID: 0}
    - target: {fileID: 400000, guid: 2b64bf2de295ee145b4799d884d3bb48, type: 3}
      propertyPath: m_LocalRotation.y
      value: -0
      objectReference: {fileID: 0}
    - target: {fileID: 400000, guid: 2b64bf2de295ee145b4799d884d3bb48, type: 3}
      propertyPath: m_LocalRotation.z
      value: -0
      objectReference: {fileID: 0}
    - target: {fileID: 400000, guid: 2b64bf2de295ee145b4799d884d3bb48, type: 3}
      propertyPath: m_LocalEulerAnglesHint.x
      value: 0
      objectReference: {fileID: 0}
    - target: {fileID: 400000, guid: 2b64bf2de295ee145b4799d884d3bb48, type: 3}
      propertyPath: m_LocalEulerAnglesHint.y
      value: 0
      objectReference: {fileID: 0}
    - target: {fileID: 400000, guid: 2b64bf2de295ee145b4799d884d3bb48, type: 3}
      propertyPath: m_LocalEulerAnglesHint.z
      value: 0
      objectReference: {fileID: 0}
    - target: {fileID: 20500000, guid: 2b64bf2de295ee145b4799d884d3bb48, type: 3}
      propertyPath: m_Enabled
      value: 0
      objectReference: {fileID: 0}
    - target: {fileID: 20500000, guid: 2b64bf2de295ee145b4799d884d3bb48, type: 3}
      propertyPath: m_LODs.Array.data[0].screenRelativeHeight
      value: 0.80376583
      objectReference: {fileID: 0}
    - target: {fileID: 20500000, guid: 2b64bf2de295ee145b4799d884d3bb48, type: 3}
      propertyPath: m_LODs.Array.data[1].screenRelativeHeight
      value: 0.20369035
      objectReference: {fileID: 0}
    m_RemovedComponents:
    - {fileID: 3300090, guid: 2b64bf2de295ee145b4799d884d3bb48, type: 3}
    - {fileID: 2300090, guid: 2b64bf2de295ee145b4799d884d3bb48, type: 3}
  m_SourcePrefab: {fileID: 100100000, guid: 2b64bf2de295ee145b4799d884d3bb48, type: 3}
--- !u!1 &1893517284740827011 stripped
GameObject:
  m_CorrespondingSourceObject: {fileID: 100092, guid: 2b64bf2de295ee145b4799d884d3bb48, type: 3}
  m_PrefabInstance: {fileID: 1893517284740923775}
  m_PrefabAsset: {fileID: 0}
--- !u!64 &4491017079522862553
MeshCollider:
  m_ObjectHideFlags: 0
  m_CorrespondingSourceObject: {fileID: 0}
  m_PrefabInstance: {fileID: 0}
  m_PrefabAsset: {fileID: 0}
  m_GameObject: {fileID: 1893517284740827011}
  m_Material: {fileID: 0}
  m_IsTrigger: 0
  m_Enabled: 1
  serializedVersion: 4
  m_Convex: 0
  m_CookingOptions: 30
  m_Mesh: {fileID: 4300096, guid: 2b64bf2de295ee145b4799d884d3bb48, type: 3}
