%YAML 1.1
%TAG !u! tag:unity3d.com,2011:
--- !u!1001 &4167882307967714430
PrefabInstance:
  m_ObjectHideFlags: 0
  serializedVersion: 2
  m_Modification:
    m_TransformParent: {fileID: 0}
    m_Modifications:
    - target: {fileID: 100000, guid: 232a476421a6d0c439e5944775117e14, type: 3}
      propertyPath: m_StaticEditorFlags
      value: 80
      objectReference: {fileID: 0}
    - target: {fileID: 100002, guid: 232a476421a6d0c439e5944775117e14, type: 3}
      propertyPath: m_StaticEditorFlags
      value: 80
      objectReference: {fileID: 0}
    - target: {fileID: 100004, guid: 232a476421a6d0c439e5944775117e14, type: 3}
      propertyPath: m_StaticEditorFlags
      value: 80
      objectReference: {fileID: 0}
    - target: {fileID: 100006, guid: 232a476421a6d0c439e5944775117e14, type: 3}
      propertyPath: m_StaticEditorFlags
      value: 80
      objectReference: {fileID: 0}
    - target: {fileID: 100008, guid: 232a476421a6d0c439e5944775117e14, type: 3}
      propertyPath: m_StaticEditorFlags
      value: 80
      objectReference: {fileID: 0}
    - target: {fileID: 100010, guid: 232a476421a6d0c439e5944775117e14, type: 3}
      propertyPath: m_StaticEditorFlags
      value: 80
      objectReference: {fileID: 0}
    - target: {fileID: 100012, guid: 232a476421a6d0c439e5944775117e14, type: 3}
      propertyPath: m_StaticEditorFlags
      value: 80
      objectReference: {fileID: 0}
    - target: {fileID: 100014, guid: 232a476421a6d0c439e5944775117e14, type: 3}
      propertyPath: m_StaticEditorFlags
      value: 80
      objectReference: {fileID: 0}
    - target: {fileID: 100016, guid: 232a476421a6d0c439e5944775117e14, type: 3}
      propertyPath: m_StaticEditorFlags
      value: 80
      objectReference: {fileID: 0}
    - target: {fileID: 100018, guid: 232a476421a6d0c439e5944775117e14, type: 3}
      propertyPath: m_StaticEditorFlags
      value: 80
      objectReference: {fileID: 0}
    - target: {fileID: 100020, guid: 232a476421a6d0c439e5944775117e14, type: 3}
      propertyPath: m_StaticEditorFlags
      value: 80
      objectReference: {fileID: 0}
    - target: {fileID: 100022, guid: 232a476421a6d0c439e5944775117e14, type: 3}
      propertyPath: m_StaticEditorFlags
      value: 80
      objectReference: {fileID: 0}
    - target: {fileID: 100024, guid: 232a476421a6d0c439e5944775117e14, type: 3}
      propertyPath: m_StaticEditorFlags
      value: 80
      objectReference: {fileID: 0}
    - target: {fileID: 100026, guid: 232a476421a6d0c439e5944775117e14, type: 3}
      propertyPath: m_StaticEditorFlags
      value: 80
      objectReference: {fileID: 0}
    - target: {fileID: 100028, guid: 232a476421a6d0c439e5944775117e14, type: 3}
      propertyPath: m_StaticEditorFlags
      value: 80
      objectReference: {fileID: 0}
    - target: {fileID: 100030, guid: 232a476421a6d0c439e5944775117e14, type: 3}
      propertyPath: m_StaticEditorFlags
      value: 80
      objectReference: {fileID: 0}
    - target: {fileID: 100032, guid: 232a476421a6d0c439e5944775117e14, type: 3}
      propertyPath: m_StaticEditorFlags
      value: 80
      objectReference: {fileID: 0}
    - target: {fileID: 100034, guid: 232a476421a6d0c439e5944775117e14, type: 3}
      propertyPath: m_StaticEditorFlags
      value: 80
      objectReference: {fileID: 0}
    - target: {fileID: 100036, guid: 232a476421a6d0c439e5944775117e14, type: 3}
      propertyPath: m_StaticEditorFlags
      value: 80
      objectReference: {fileID: 0}
    - target: {fileID: 100038, guid: 232a476421a6d0c439e5944775117e14, type: 3}
      propertyPath: m_StaticEditorFlags
      value: 80
      objectReference: {fileID: 0}
    - target: {fileID: 100040, guid: 232a476421a6d0c439e5944775117e14, type: 3}
      propertyPath: m_StaticEditorFlags
      value: 80
      objectReference: {fileID: 0}
    - target: {fileID: 100042, guid: 232a476421a6d0c439e5944775117e14, type: 3}
      propertyPath: m_StaticEditorFlags
      value: 80
      objectReference: {fileID: 0}
    - target: {fileID: 100044, guid: 232a476421a6d0c439e5944775117e14, type: 3}
      propertyPath: m_StaticEditorFlags
      value: 80
      objectReference: {fileID: 0}
    - target: {fileID: 100046, guid: 232a476421a6d0c439e5944775117e14, type: 3}
      propertyPath: m_StaticEditorFlags
      value: 80
      objectReference: {fileID: 0}
    - target: {fileID: 100048, guid: 232a476421a6d0c439e5944775117e14, type: 3}
      propertyPath: m_StaticEditorFlags
      value: 80
      objectReference: {fileID: 0}
    - target: {fileID: 100050, guid: 232a476421a6d0c439e5944775117e14, type: 3}
      propertyPath: m_StaticEditorFlags
      value: 80
      objectReference: {fileID: 0}
    - target: {fileID: 100052, guid: 232a476421a6d0c439e5944775117e14, type: 3}
      propertyPath: m_StaticEditorFlags
      value: 80
      objectReference: {fileID: 0}
    - target: {fileID: 100054, guid: 232a476421a6d0c439e5944775117e14, type: 3}
      propertyPath: m_Name
      value: Warehouse_02_Start_02_Prefab
      objectReference: {fileID: 0}
    - target: {fileID: 100054, guid: 232a476421a6d0c439e5944775117e14, type: 3}
      propertyPath: m_StaticEditorFlags
      value: 4294967295
      objectReference: {fileID: 0}
    - target: {fileID: 100056, guid: 232a476421a6d0c439e5944775117e14, type: 3}
      propertyPath: m_IsActive
      value: 0
      objectReference: {fileID: 0}
    - target: {fileID: 100056, guid: 232a476421a6d0c439e5944775117e14, type: 3}
      propertyPath: m_StaticEditorFlags
      value: 4294967295
      objectReference: {fileID: 0}
    - target: {fileID: 100058, guid: 232a476421a6d0c439e5944775117e14, type: 3}
      propertyPath: m_IsActive
      value: 0
      objectReference: {fileID: 0}
    - target: {fileID: 100058, guid: 232a476421a6d0c439e5944775117e14, type: 3}
      propertyPath: m_StaticEditorFlags
      value: 4294967295
      objectReference: {fileID: 0}
    - target: {fileID: 100060, guid: 232a476421a6d0c439e5944775117e14, type: 3}
      propertyPath: m_IsActive
      value: 0
      objectReference: {fileID: 0}
    - target: {fileID: 100060, guid: 232a476421a6d0c439e5944775117e14, type: 3}
      propertyPath: m_StaticEditorFlags
      value: 4294967295
      objectReference: {fileID: 0}
    - target: {fileID: 100062, guid: 232a476421a6d0c439e5944775117e14, type: 3}
      propertyPath: m_StaticEditorFlags
      value: 4294967295
      objectReference: {fileID: 0}
    - target: {fileID: 100064, guid: 232a476421a6d0c439e5944775117e14, type: 3}
      propertyPath: m_IsActive
      value: 0
      objectReference: {fileID: 0}
    - target: {fileID: 100064, guid: 232a476421a6d0c439e5944775117e14, type: 3}
      propertyPath: m_StaticEditorFlags
      value: 4294967295
      objectReference: {fileID: 0}
    - target: {fileID: 100066, guid: 232a476421a6d0c439e5944775117e14, type: 3}
      propertyPath: m_StaticEditorFlags
      value: 4294967295
      objectReference: {fileID: 0}
    - target: {fileID: 400054, guid: 232a476421a6d0c439e5944775117e14, type: 3}
      propertyPath: m_RootOrder
      value: 0
      objectReference: {fileID: 0}
    - target: {fileID: 400054, guid: 232a476421a6d0c439e5944775117e14, type: 3}
      propertyPath: m_LocalPosition.x
      value: 0
      objectReference: {fileID: 0}
    - target: {fileID: 400054, guid: 232a476421a6d0c439e5944775117e14, type: 3}
      propertyPath: m_LocalPosition.y
      value: 0
      objectReference: {fileID: 0}
    - target: {fileID: 400054, guid: 232a476421a6d0c439e5944775117e14, type: 3}
      propertyPath: m_LocalPosition.z
      value: -20
      objectReference: {fileID: 0}
    - target: {fileID: 400054, guid: 232a476421a6d0c439e5944775117e14, type: 3}
      propertyPath: m_LocalRotation.w
      value: 1
      objectReference: {fileID: 0}
    - target: {fileID: 400054, guid: 232a476421a6d0c439e5944775117e14, type: 3}
      propertyPath: m_LocalRotation.x
      value: -0
      objectReference: {fileID: 0}
    - target: {fileID: 400054, guid: 232a476421a6d0c439e5944775117e14, type: 3}
      propertyPath: m_LocalRotation.y
      value: -0
      objectReference: {fileID: 0}
    - target: {fileID: 400054, guid: 232a476421a6d0c439e5944775117e14, type: 3}
      propertyPath: m_LocalRotation.z
      value: -0
      objectReference: {fileID: 0}
    - target: {fileID: 400054, guid: 232a476421a6d0c439e5944775117e14, type: 3}
      propertyPath: m_LocalEulerAnglesHint.x
      value: 0
      objectReference: {fileID: 0}
    - target: {fileID: 400054, guid: 232a476421a6d0c439e5944775117e14, type: 3}
      propertyPath: m_LocalEulerAnglesHint.y
      value: 0
      objectReference: {fileID: 0}
    - target: {fileID: 400054, guid: 232a476421a6d0c439e5944775117e14, type: 3}
      propertyPath: m_LocalEulerAnglesHint.z
      value: 0
      objectReference: {fileID: 0}
    - target: {fileID: 20500000, guid: 232a476421a6d0c439e5944775117e14, type: 3}
      propertyPath: m_Enabled
      value: 0
      objectReference: {fileID: 0}
    - target: {fileID: 20500000, guid: 232a476421a6d0c439e5944775117e14, type: 3}
      propertyPath: m_LODs.Array.data[0].screenRelativeHeight
      value: 0.7955979
      objectReference: {fileID: 0}
    - target: {fileID: 20500000, guid: 232a476421a6d0c439e5944775117e14, type: 3}
      propertyPath: m_LODs.Array.data[1].screenRelativeHeight
      value: 0.19814947
      objectReference: {fileID: 0}
    m_RemovedComponents:
    - {fileID: 3300054, guid: 232a476421a6d0c439e5944775117e14, type: 3}
    - {fileID: 2300054, guid: 232a476421a6d0c439e5944775117e14, type: 3}
  m_SourcePrefab: {fileID: 100100000, guid: 232a476421a6d0c439e5944775117e14, type: 3}
--- !u!1 &4167882307967681190 stripped
GameObject:
  m_CorrespondingSourceObject: {fileID: 100056, guid: 232a476421a6d0c439e5944775117e14, type: 3}
  m_PrefabInstance: {fileID: 4167882307967714430}
  m_PrefabAsset: {fileID: 0}
--- !u!64 &64765006392442282
MeshCollider:
  m_ObjectHideFlags: 0
  m_CorrespondingSourceObject: {fileID: 0}
  m_PrefabInstance: {fileID: 0}
  m_PrefabAsset: {fileID: 0}
  m_GameObject: {fileID: 4167882307967681190}
  m_Material: {fileID: 0}
  m_IsTrigger: 0
  m_Enabled: 1
  serializedVersion: 4
  m_Convex: 0
  m_CookingOptions: 30
  m_Mesh: {fileID: 4300054, guid: 232a476421a6d0c439e5944775117e14, type: 3}
