%YAML 1.1
%TAG !u! tag:unity3d.com,2011:
--- !u!1 &4612217843138189712
GameObject:
  m_ObjectHideFlags: 0
  m_CorrespondingSourceObject: {fileID: 0}
  m_PrefabInstance: {fileID: 0}
  m_PrefabAsset: {fileID: 0}
  serializedVersion: 6
  m_Component:
  - component: {fileID: 6139876949785444375}
  m_Layer: 0
  m_Name: ASP
  m_TagString: Untagged
  m_Icon: {fileID: 0}
  m_NavMeshLayer: 0
  m_StaticEditorFlags: 0
  m_IsActive: 1
--- !u!4 &6139876949785444375
Transform:
  m_ObjectHideFlags: 0
  m_CorrespondingSourceObject: {fileID: 0}
  m_PrefabInstance: {fileID: 0}
  m_PrefabAsset: {fileID: 0}
  m_GameObject: {fileID: 4612217843138189712}
  m_LocalRotation: {x: 0, y: 0, z: 0, w: 1}
  m_LocalPosition: {x: 0, y: 0, z: 0}
  m_LocalScale: {x: 1, y: 1, z: 1}
  m_Children:
  - {fileID: 1057812213208413011}
  - {fileID: 1057812211591011278}
  m_Father: {fileID: 0}
  m_RootOrder: 0
  m_LocalEulerAnglesHint: {x: 0, y: 0, z: 0}
--- !u!1001 &1057812211591135566
PrefabInstance:
  m_ObjectHideFlags: 0
  serializedVersion: 2
  m_Modification:
    m_TransformParent: {fileID: 6139876949785444375}
    m_Modifications:
    - target: {fileID: 100000, guid: 833c8eb1f4cd9e245b9499951cd7bbb5, type: 3}
      propertyPath: m_Name
      value: ASP-1
      objectReference: {fileID: 0}
    - target: {fileID: 100000, guid: 833c8eb1f4cd9e245b9499951cd7bbb5, type: 3}
      propertyPath: m_StaticEditorFlags
      value: 4294967295
      objectReference: {fileID: 0}
    - target: {fileID: 400000, guid: 833c8eb1f4cd9e245b9499951cd7bbb5, type: 3}
      propertyPath: m_LocalPosition.x
      value: 0
      objectReference: {fileID: 0}
    - target: {fileID: 400000, guid: 833c8eb1f4cd9e245b9499951cd7bbb5, type: 3}
      propertyPath: m_LocalPosition.y
      value: 0
      objectReference: {fileID: 0}
    - target: {fileID: 400000, guid: 833c8eb1f4cd9e245b9499951cd7bbb5, type: 3}
      propertyPath: m_LocalPosition.z
      value: 0
      objectReference: {fileID: 0}
    - target: {fileID: 400000, guid: 833c8eb1f4cd9e245b9499951cd7bbb5, type: 3}
      propertyPath: m_LocalRotation.x
      value: -0
      objectReference: {fileID: 0}
    - target: {fileID: 400000, guid: 833c8eb1f4cd9e245b9499951cd7bbb5, type: 3}
      propertyPath: m_LocalRotation.y
      value: 0.7071068
      objectReference: {fileID: 0}
    - target: {fileID: 400000, guid: 833c8eb1f4cd9e245b9499951cd7bbb5, type: 3}
      propertyPath: m_LocalRotation.z
      value: 0.7071068
      objectReference: {fileID: 0}
    - target: {fileID: 400000, guid: 833c8eb1f4cd9e245b9499951cd7bbb5, type: 3}
      propertyPath: m_LocalRotation.w
      value: 0
      objectReference: {fileID: 0}
    - target: {fileID: 400000, guid: 833c8eb1f4cd9e245b9499951cd7bbb5, type: 3}
      propertyPath: m_RootOrder
      value: 1
      objectReference: {fileID: 0}
    - target: {fileID: 400000, guid: 833c8eb1f4cd9e245b9499951cd7bbb5, type: 3}
      propertyPath: m_LocalEulerAnglesHint.x
      value: -90.00001
      objectReference: {fileID: 0}
    - target: {fileID: 400000, guid: 833c8eb1f4cd9e245b9499951cd7bbb5, type: 3}
      propertyPath: m_LocalEulerAnglesHint.y
      value: 0
      objectReference: {fileID: 0}
    - target: {fileID: 400000, guid: 833c8eb1f4cd9e245b9499951cd7bbb5, type: 3}
      propertyPath: m_LocalEulerAnglesHint.z
      value: 180
      objectReference: {fileID: 0}
    - target: {fileID: 2300000, guid: 833c8eb1f4cd9e245b9499951cd7bbb5, type: 3}
      propertyPath: m_Materials.Array.data[0]
      value: 
      objectReference: {fileID: 2100000, guid: 881f8e022f5169b4bac08c0f8539bcd2, type: 2}
    m_RemovedComponents: []
  m_SourcePrefab: {fileID: 100100000, guid: 833c8eb1f4cd9e245b9499951cd7bbb5, type: 3}
--- !u!4 &1057812211591011278 stripped
Transform:
  m_CorrespondingSourceObject: {fileID: 400000, guid: 833c8eb1f4cd9e245b9499951cd7bbb5,
    type: 3}
  m_PrefabInstance: {fileID: 1057812211591135566}
  m_PrefabAsset: {fileID: 0}
--- !u!1001 &1057812213208541651
PrefabInstance:
  m_ObjectHideFlags: 0
  serializedVersion: 2
  m_Modification:
    m_TransformParent: {fileID: 6139876949785444375}
    m_Modifications:
    - target: {fileID: 100000, guid: d8e9c243bbd1d1d4789d06e6d65beef7, type: 3}
      propertyPath: m_Name
      value: ASP-2
      objectReference: {fileID: 0}
    - target: {fileID: 100000, guid: d8e9c243bbd1d1d4789d06e6d65beef7, type: 3}
      propertyPath: m_StaticEditorFlags
      value: 4294967295
      objectReference: {fileID: 0}
    - target: {fileID: 400000, guid: d8e9c243bbd1d1d4789d06e6d65beef7, type: 3}
      propertyPath: m_LocalPosition.x
      value: -0.1177
      objectReference: {fileID: 0}
    - target: {fileID: 400000, guid: d8e9c243bbd1d1d4789d06e6d65beef7, type: 3}
      propertyPath: m_LocalPosition.y
      value: 0.0693
      objectReference: {fileID: 0}
    - target: {fileID: 400000, guid: d8e9c243bbd1d1d4789d06e6d65beef7, type: 3}
      propertyPath: m_LocalPosition.z
      value: 0
      objectReference: {fileID: 0}
    - target: {fileID: 400000, guid: d8e9c243bbd1d1d4789d06e6d65beef7, type: 3}
      propertyPath: m_LocalRotation.x
      value: -0
      objectReference: {fileID: 0}
    - target: {fileID: 400000, guid: d8e9c243bbd1d1d4789d06e6d65beef7, type: 3}
      propertyPath: m_LocalRotation.y
      value: 0.7071068
      objectReference: {fileID: 0}
    - target: {fileID: 400000, guid: d8e9c243bbd1d1d4789d06e6d65beef7, type: 3}
      propertyPath: m_LocalRotation.z
      value: 0.7071068
      objectReference: {fileID: 0}
    - target: {fileID: 400000, guid: d8e9c243bbd1d1d4789d06e6d65beef7, type: 3}
      propertyPath: m_LocalRotation.w
      value: 0
      objectReference: {fileID: 0}
    - target: {fileID: 400000, guid: d8e9c243bbd1d1d4789d06e6d65beef7, type: 3}
      propertyPath: m_RootOrder
      value: 0
      objectReference: {fileID: 0}
    - target: {fileID: 400000, guid: d8e9c243bbd1d1d4789d06e6d65beef7, type: 3}
      propertyPath: m_LocalEulerAnglesHint.x
      value: -90.00001
      objectReference: {fileID: 0}
    - target: {fileID: 400000, guid: d8e9c243bbd1d1d4789d06e6d65beef7, type: 3}
      propertyPath: m_LocalEulerAnglesHint.y
      value: 0
      objectReference: {fileID: 0}
    - target: {fileID: 400000, guid: d8e9c243bbd1d1d4789d06e6d65beef7, type: 3}
      propertyPath: m_LocalEulerAnglesHint.z
      value: 180
      objectReference: {fileID: 0}
    - target: {fileID: 2300000, guid: d8e9c243bbd1d1d4789d06e6d65beef7, type: 3}
      propertyPath: m_Materials.Array.data[0]
      value: 
      objectReference: {fileID: 2100000, guid: 881f8e022f5169b4bac08c0f8539bcd2, type: 2}
    m_RemovedComponents: []
  m_SourcePrefab: {fileID: 100100000, guid: d8e9c243bbd1d1d4789d06e6d65beef7, type: 3}
--- !u!4 &1057812213208413011 stripped
Transform:
  m_CorrespondingSourceObject: {fileID: 400000, guid: d8e9c243bbd1d1d4789d06e6d65beef7,
    type: 3}
  m_PrefabInstance: {fileID: 1057812213208541651}
  m_PrefabAsset: {fileID: 0}
