%YAML 1.1
%TAG !u! tag:unity3d.com,2011:
--- !u!1 &2278159659031606580
GameObject:
  m_ObjectHideFlags: 0
  m_CorrespondingSourceObject: {fileID: 0}
  m_PrefabInstance: {fileID: 0}
  m_PrefabAsset: {fileID: 0}
  serializedVersion: 6
  m_Component:
  - component: {fileID: 3891500213217149165}
  m_Layer: 0
  m_Name: KTV-cigarette-02
  m_TagString: Untagged
  m_Icon: {fileID: 0}
  m_NavMeshLayer: 0
  m_StaticEditorFlags: 0
  m_IsActive: 1
--- !u!4 &3891500213217149165
Transform:
  m_ObjectHideFlags: 0
  m_CorrespondingSourceObject: {fileID: 0}
  m_PrefabInstance: {fileID: 0}
  m_PrefabAsset: {fileID: 0}
  m_GameObject: {fileID: 2278159659031606580}
  m_LocalRotation: {x: 0, y: 0, z: 0, w: 1}
  m_LocalPosition: {x: 0.8384, y: 0.724693, z: -0.44593453}
  m_LocalScale: {x: 1, y: 1, z: 1}
  m_Children:
  - {fileID: 6337821070046660539}
  m_Father: {fileID: 0}
  m_RootOrder: 0
  m_LocalEulerAnglesHint: {x: 0, y: 0, z: 0}
--- !u!1001 &6337821070046272827
PrefabInstance:
  m_ObjectHideFlags: 0
  serializedVersion: 2
  m_Modification:
    m_TransformParent: {fileID: 3891500213217149165}
    m_Modifications:
    - target: {fileID: 100000, guid: 5bdefe34bdaf6f3429a99c8024336c53, type: 3}
      propertyPath: m_Name
      value: KTV-cigarette-02
      objectReference: {fileID: 0}
    - target: {fileID: 400000, guid: 5bdefe34bdaf6f3429a99c8024336c53, type: 3}
      propertyPath: m_LocalPosition.x
      value: -0.08740002
      objectReference: {fileID: 0}
    - target: {fileID: 400000, guid: 5bdefe34bdaf6f3429a99c8024336c53, type: 3}
      propertyPath: m_LocalPosition.y
      value: 0.101607025
      objectReference: {fileID: 0}
    - target: {fileID: 400000, guid: 5bdefe34bdaf6f3429a99c8024336c53, type: 3}
      propertyPath: m_LocalPosition.z
      value: -0.013065457
      objectReference: {fileID: 0}
    - target: {fileID: 400000, guid: 5bdefe34bdaf6f3429a99c8024336c53, type: 3}
      propertyPath: m_LocalRotation.x
      value: -0.7071068
      objectReference: {fileID: 0}
    - target: {fileID: 400000, guid: 5bdefe34bdaf6f3429a99c8024336c53, type: 3}
      propertyPath: m_LocalRotation.y
      value: -0
      objectReference: {fileID: 0}
    - target: {fileID: 400000, guid: 5bdefe34bdaf6f3429a99c8024336c53, type: 3}
      propertyPath: m_LocalRotation.z
      value: -0
      objectReference: {fileID: 0}
    - target: {fileID: 400000, guid: 5bdefe34bdaf6f3429a99c8024336c53, type: 3}
      propertyPath: m_LocalRotation.w
      value: 0.7071068
      objectReference: {fileID: 0}
    - target: {fileID: 400000, guid: 5bdefe34bdaf6f3429a99c8024336c53, type: 3}
      propertyPath: m_RootOrder
      value: 0
      objectReference: {fileID: 0}
    - target: {fileID: 400000, guid: 5bdefe34bdaf6f3429a99c8024336c53, type: 3}
      propertyPath: m_LocalEulerAnglesHint.x
      value: 0
      objectReference: {fileID: 0}
    - target: {fileID: 400000, guid: 5bdefe34bdaf6f3429a99c8024336c53, type: 3}
      propertyPath: m_LocalEulerAnglesHint.y
      value: 0
      objectReference: {fileID: 0}
    - target: {fileID: 400000, guid: 5bdefe34bdaf6f3429a99c8024336c53, type: 3}
      propertyPath: m_LocalEulerAnglesHint.z
      value: 0
      objectReference: {fileID: 0}
    - target: {fileID: 2300000, guid: 5bdefe34bdaf6f3429a99c8024336c53, type: 3}
      propertyPath: m_Materials.Array.data[0]
      value: 
      objectReference: {fileID: 2100000, guid: 22064868fed870743b5bac1b2585dfd0, type: 2}
    m_RemovedComponents: []
  m_SourcePrefab: {fileID: 100100000, guid: 5bdefe34bdaf6f3429a99c8024336c53, type: 3}
--- !u!4 &6337821070046660539 stripped
Transform:
  m_CorrespondingSourceObject: {fileID: 400000, guid: 5bdefe34bdaf6f3429a99c8024336c53,
    type: 3}
  m_PrefabInstance: {fileID: 6337821070046272827}
  m_PrefabAsset: {fileID: 0}
