%YAML 1.1
%TAG !u! tag:unity3d.com,2011:
--- !u!1001 &6433751468871376347
PrefabInstance:
  m_ObjectHideFlags: 0
  serializedVersion: 2
  m_Modification:
    m_TransformParent: {fileID: 0}
    m_Modifications:
    - target: {fileID: 100000, guid: 1e3989d97120c9542bdd61738d361d74, type: 3}
      propertyPath: m_Name
      value: Fence_4m_01_Prefab_snaps017
      objectReference: {fileID: 0}
    - target: {fileID: 100000, guid: 1e3989d97120c9542bdd61738d361d74, type: 3}
      propertyPath: m_StaticEditorFlags
      value: 80
      objectReference: {fileID: 0}
    - target: {fileID: 100002, guid: 1e3989d97120c9542bdd61738d361d74, type: 3}
      propertyPath: m_IsActive
      value: 0
      objectReference: {fileID: 0}
    - target: {fileID: 100002, guid: 1e3989d97120c9542bdd61738d361d74, type: 3}
      propertyPath: m_StaticEditorFlags
      value: 0
      objectReference: {fileID: 0}
    - target: {fileID: 100004, guid: 1e3989d97120c9542bdd61738d361d74, type: 3}
      propertyPath: m_IsActive
      value: 0
      objectReference: {fileID: 0}
    - target: {fileID: 100004, guid: 1e3989d97120c9542bdd61738d361d74, type: 3}
      propertyPath: m_StaticEditorFlags
      value: 80
      objectReference: {fileID: 0}
    - target: {fileID: 100006, guid: 1e3989d97120c9542bdd61738d361d74, type: 3}
      propertyPath: m_IsActive
      value: 0
      objectReference: {fileID: 0}
    - target: {fileID: 100006, guid: 1e3989d97120c9542bdd61738d361d74, type: 3}
      propertyPath: m_StaticEditorFlags
      value: 80
      objectReference: {fileID: 0}
    - target: {fileID: 100008, guid: 1e3989d97120c9542bdd61738d361d74, type: 3}
      propertyPath: m_StaticEditorFlags
      value: 80
      objectReference: {fileID: 0}
    - target: {fileID: 100010, guid: 1e3989d97120c9542bdd61738d361d74, type: 3}
      propertyPath: m_IsActive
      value: 0
      objectReference: {fileID: 0}
    - target: {fileID: 100010, guid: 1e3989d97120c9542bdd61738d361d74, type: 3}
      propertyPath: m_StaticEditorFlags
      value: 80
      objectReference: {fileID: 0}
    - target: {fileID: 400000, guid: 1e3989d97120c9542bdd61738d361d74, type: 3}
      propertyPath: m_RootOrder
      value: 0
      objectReference: {fileID: 0}
    - target: {fileID: 400000, guid: 1e3989d97120c9542bdd61738d361d74, type: 3}
      propertyPath: m_LocalPosition.x
      value: -0
      objectReference: {fileID: 0}
    - target: {fileID: 400000, guid: 1e3989d97120c9542bdd61738d361d74, type: 3}
      propertyPath: m_LocalPosition.y
      value: 0
      objectReference: {fileID: 0}
    - target: {fileID: 400000, guid: 1e3989d97120c9542bdd61738d361d74, type: 3}
      propertyPath: m_LocalPosition.z
      value: 0
      objectReference: {fileID: 0}
    - target: {fileID: 400000, guid: 1e3989d97120c9542bdd61738d361d74, type: 3}
      propertyPath: m_LocalRotation.w
      value: 1
      objectReference: {fileID: 0}
    - target: {fileID: 400000, guid: 1e3989d97120c9542bdd61738d361d74, type: 3}
      propertyPath: m_LocalRotation.x
      value: 0
      objectReference: {fileID: 0}
    - target: {fileID: 400000, guid: 1e3989d97120c9542bdd61738d361d74, type: 3}
      propertyPath: m_LocalRotation.y
      value: -0
      objectReference: {fileID: 0}
    - target: {fileID: 400000, guid: 1e3989d97120c9542bdd61738d361d74, type: 3}
      propertyPath: m_LocalRotation.z
      value: -0
      objectReference: {fileID: 0}
    - target: {fileID: 400000, guid: 1e3989d97120c9542bdd61738d361d74, type: 3}
      propertyPath: m_LocalEulerAnglesHint.x
      value: 0
      objectReference: {fileID: 0}
    - target: {fileID: 400000, guid: 1e3989d97120c9542bdd61738d361d74, type: 3}
      propertyPath: m_LocalEulerAnglesHint.y
      value: 0
      objectReference: {fileID: 0}
    - target: {fileID: 400000, guid: 1e3989d97120c9542bdd61738d361d74, type: 3}
      propertyPath: m_LocalEulerAnglesHint.z
      value: 0
      objectReference: {fileID: 0}
    - target: {fileID: 20500000, guid: 1e3989d97120c9542bdd61738d361d74, type: 3}
      propertyPath: m_Enabled
      value: 0
      objectReference: {fileID: 0}
    m_RemovedComponents:
    - {fileID: 3300000, guid: 1e3989d97120c9542bdd61738d361d74, type: 3}
    - {fileID: 2300000, guid: 1e3989d97120c9542bdd61738d361d74, type: 3}
  m_SourcePrefab: {fileID: 100100000, guid: 1e3989d97120c9542bdd61738d361d74, type: 3}
--- !u!1 &6433751468871277433 stripped
GameObject:
  m_CorrespondingSourceObject: {fileID: 100002, guid: 1e3989d97120c9542bdd61738d361d74, type: 3}
  m_PrefabInstance: {fileID: 6433751468871376347}
  m_PrefabAsset: {fileID: 0}
--- !u!64 &883577249
MeshCollider:
  m_ObjectHideFlags: 0
  m_CorrespondingSourceObject: {fileID: 0}
  m_PrefabInstance: {fileID: 0}
  m_PrefabAsset: {fileID: 0}
  m_GameObject: {fileID: 6433751468871277433}
  m_Material: {fileID: 0}
  m_IsTrigger: 0
  m_Enabled: 1
  serializedVersion: 4
  m_Convex: 0
  m_CookingOptions: 30
  m_Mesh: {fileID: 4300008, guid: 1e3989d97120c9542bdd61738d361d74, type: 3}
