%YAML 1.1
%TAG !u! tag:unity3d.com,2011:
--- !u!1001 &7706287910520332715
PrefabInstance:
  m_ObjectHideFlags: 0
  serializedVersion: 2
  m_Modification:
    m_TransformParent: {fileID: 0}
    m_Modifications:
    - target: {fileID: 100000, guid: 28b09d1368ab0414fa393086f66fd2ad, type: 3}
      propertyPath: m_Name
      value: Ground_40m_20m_01 (3)
      objectReference: {fileID: 0}
    - target: {fileID: 100000, guid: 28b09d1368ab0414fa393086f66fd2ad, type: 3}
      propertyPath: m_StaticEditorFlags
      value: 4294967295
      objectReference: {fileID: 0}
    - target: {fileID: 100002, guid: 28b09d1368ab0414fa393086f66fd2ad, type: 3}
      propertyPath: m_StaticEditorFlags
      value: 4294967295
      objectReference: {fileID: 0}
    - target: {fileID: 100004, guid: 28b09d1368ab0414fa393086f66fd2ad, type: 3}
      propertyPath: m_StaticEditorFlags
      value: 4294967295
      objectReference: {fileID: 0}
    - target: {fileID: 100006, guid: 28b09d1368ab0414fa393086f66fd2ad, type: 3}
      propertyPath: m_IsActive
      value: 0
      objectReference: {fileID: 0}
    - target: {fileID: 100006, guid: 28b09d1368ab0414fa393086f66fd2ad, type: 3}
      propertyPath: m_StaticEditorFlags
      value: 4294967295
      objectReference: {fileID: 0}
    - target: {fileID: 100008, guid: 28b09d1368ab0414fa393086f66fd2ad, type: 3}
      propertyPath: m_IsActive
      value: 0
      objectReference: {fileID: 0}
    - target: {fileID: 100008, guid: 28b09d1368ab0414fa393086f66fd2ad, type: 3}
      propertyPath: m_StaticEditorFlags
      value: 4294967295
      objectReference: {fileID: 0}
    - target: {fileID: 400000, guid: 28b09d1368ab0414fa393086f66fd2ad, type: 3}
      propertyPath: m_RootOrder
      value: 0
      objectReference: {fileID: 0}
    - target: {fileID: 400000, guid: 28b09d1368ab0414fa393086f66fd2ad, type: 3}
      propertyPath: m_LocalScale.z
      value: 0.7
      objectReference: {fileID: 0}
    - target: {fileID: 400000, guid: 28b09d1368ab0414fa393086f66fd2ad, type: 3}
      propertyPath: m_LocalPosition.x
      value: -48.158253
      objectReference: {fileID: 0}
    - target: {fileID: 400000, guid: 28b09d1368ab0414fa393086f66fd2ad, type: 3}
      propertyPath: m_LocalPosition.y
      value: -0.1750005
      objectReference: {fileID: 0}
    - target: {fileID: 400000, guid: 28b09d1368ab0414fa393086f66fd2ad, type: 3}
      propertyPath: m_LocalPosition.z
      value: 179.93
      objectReference: {fileID: 0}
    - target: {fileID: 400000, guid: 28b09d1368ab0414fa393086f66fd2ad, type: 3}
      propertyPath: m_LocalRotation.w
      value: 0.0000014603136
      objectReference: {fileID: 0}
    - target: {fileID: 400000, guid: 28b09d1368ab0414fa393086f66fd2ad, type: 3}
      propertyPath: m_LocalRotation.x
      value: -0
      objectReference: {fileID: 0}
    - target: {fileID: 400000, guid: 28b09d1368ab0414fa393086f66fd2ad, type: 3}
      propertyPath: m_LocalRotation.y
      value: -1
      objectReference: {fileID: 0}
    - target: {fileID: 400000, guid: 28b09d1368ab0414fa393086f66fd2ad, type: 3}
      propertyPath: m_LocalRotation.z
      value: -0
      objectReference: {fileID: 0}
    - target: {fileID: 400000, guid: 28b09d1368ab0414fa393086f66fd2ad, type: 3}
      propertyPath: m_LocalEulerAnglesHint.x
      value: 0
      objectReference: {fileID: 0}
    - target: {fileID: 400000, guid: 28b09d1368ab0414fa393086f66fd2ad, type: 3}
      propertyPath: m_LocalEulerAnglesHint.y
      value: -180
      objectReference: {fileID: 0}
    - target: {fileID: 400000, guid: 28b09d1368ab0414fa393086f66fd2ad, type: 3}
      propertyPath: m_LocalEulerAnglesHint.z
      value: 0
      objectReference: {fileID: 0}
    - target: {fileID: 2300002, guid: 28b09d1368ab0414fa393086f66fd2ad, type: 3}
      propertyPath: m_CastShadows
      value: 0
      objectReference: {fileID: 0}
    - target: {fileID: 20500000, guid: 28b09d1368ab0414fa393086f66fd2ad, type: 3}
      propertyPath: m_Enabled
      value: 0
      objectReference: {fileID: 0}
    m_RemovedComponents:
    - {fileID: 3300006, guid: 28b09d1368ab0414fa393086f66fd2ad, type: 3}
    - {fileID: 2300006, guid: 28b09d1368ab0414fa393086f66fd2ad, type: 3}
  m_SourcePrefab: {fileID: 100100000, guid: 28b09d1368ab0414fa393086f66fd2ad, type: 3}
--- !u!1 &7706287910520235789 stripped
GameObject:
  m_CorrespondingSourceObject: {fileID: 100006, guid: 28b09d1368ab0414fa393086f66fd2ad, type: 3}
  m_PrefabInstance: {fileID: 7706287910520332715}
  m_PrefabAsset: {fileID: 0}
--- !u!64 &1161851631949066620
MeshCollider:
  m_ObjectHideFlags: 0
  m_CorrespondingSourceObject: {fileID: 0}
  m_PrefabInstance: {fileID: 0}
  m_PrefabAsset: {fileID: 0}
  m_GameObject: {fileID: 7706287910520235789}
  m_Material: {fileID: 0}
  m_IsTrigger: 0
  m_Enabled: 1
  serializedVersion: 4
  m_Convex: 0
  m_CookingOptions: 30
  m_Mesh: {fileID: 4300006, guid: 28b09d1368ab0414fa393086f66fd2ad, type: 3}
