%YAML 1.1
%TAG !u! tag:unity3d.com,2011:
--- !u!1001 &7653544260068893011
PrefabInstance:
  m_ObjectHideFlags: 0
  serializedVersion: 2
  m_Modification:
    m_TransformParent: {fileID: 0}
    m_Modifications:
    - target: {fileID: 100000, guid: 4f11ca476d42a0b4cba7e18573f1cd54, type: 3}
      propertyPath: m_Name
      value: Wall_01_Pillar_01_Prefab_snaps017
      objectReference: {fileID: 0}
    - target: {fileID: 100002, guid: 4f11ca476d42a0b4cba7e18573f1cd54, type: 3}
      propertyPath: m_IsActive
      value: 0
      objectReference: {fileID: 0}
    - target: {fileID: 100002, guid: 4f11ca476d42a0b4cba7e18573f1cd54, type: 3}
      propertyPath: m_StaticEditorFlags
      value: 83
      objectReference: {fileID: 0}
    - target: {fileID: 100004, guid: 4f11ca476d42a0b4cba7e18573f1cd54, type: 3}
      propertyPath: m_StaticEditorFlags
      value: 82
      objectReference: {fileID: 0}
    - target: {fileID: 100006, guid: 4f11ca476d42a0b4cba7e18573f1cd54, type: 3}
      propertyPath: m_IsActive
      value: 0
      objectReference: {fileID: 0}
    - target: {fileID: 100006, guid: 4f11ca476d42a0b4cba7e18573f1cd54, type: 3}
      propertyPath: m_StaticEditorFlags
      value: 82
      objectReference: {fileID: 0}
    - target: {fileID: 100008, guid: 4f11ca476d42a0b4cba7e18573f1cd54, type: 3}
      propertyPath: m_IsActive
      value: 0
      objectReference: {fileID: 0}
    - target: {fileID: 100034, guid: 4f11ca476d42a0b4cba7e18573f1cd54, type: 3}
      propertyPath: m_IsActive
      value: 0
      objectReference: {fileID: 0}
    - target: {fileID: 400000, guid: 4f11ca476d42a0b4cba7e18573f1cd54, type: 3}
      propertyPath: m_RootOrder
      value: 0
      objectReference: {fileID: 0}
    - target: {fileID: 400000, guid: 4f11ca476d42a0b4cba7e18573f1cd54, type: 3}
      propertyPath: m_LocalPosition.x
      value: -0
      objectReference: {fileID: 0}
    - target: {fileID: 400000, guid: 4f11ca476d42a0b4cba7e18573f1cd54, type: 3}
      propertyPath: m_LocalPosition.y
      value: 0
      objectReference: {fileID: 0}
    - target: {fileID: 400000, guid: 4f11ca476d42a0b4cba7e18573f1cd54, type: 3}
      propertyPath: m_LocalPosition.z
      value: 0
      objectReference: {fileID: 0}
    - target: {fileID: 400000, guid: 4f11ca476d42a0b4cba7e18573f1cd54, type: 3}
      propertyPath: m_LocalRotation.w
      value: 1
      objectReference: {fileID: 0}
    - target: {fileID: 400000, guid: 4f11ca476d42a0b4cba7e18573f1cd54, type: 3}
      propertyPath: m_LocalRotation.x
      value: 0
      objectReference: {fileID: 0}
    - target: {fileID: 400000, guid: 4f11ca476d42a0b4cba7e18573f1cd54, type: 3}
      propertyPath: m_LocalRotation.y
      value: -0
      objectReference: {fileID: 0}
    - target: {fileID: 400000, guid: 4f11ca476d42a0b4cba7e18573f1cd54, type: 3}
      propertyPath: m_LocalRotation.z
      value: -0
      objectReference: {fileID: 0}
    - target: {fileID: 400000, guid: 4f11ca476d42a0b4cba7e18573f1cd54, type: 3}
      propertyPath: m_LocalEulerAnglesHint.x
      value: 0
      objectReference: {fileID: 0}
    - target: {fileID: 400000, guid: 4f11ca476d42a0b4cba7e18573f1cd54, type: 3}
      propertyPath: m_LocalEulerAnglesHint.y
      value: 0
      objectReference: {fileID: 0}
    - target: {fileID: 400000, guid: 4f11ca476d42a0b4cba7e18573f1cd54, type: 3}
      propertyPath: m_LocalEulerAnglesHint.z
      value: 0
      objectReference: {fileID: 0}
    - target: {fileID: 20500000, guid: 4f11ca476d42a0b4cba7e18573f1cd54, type: 3}
      propertyPath: m_Enabled
      value: 0
      objectReference: {fileID: 0}
    - target: {fileID: 20500000, guid: 4f11ca476d42a0b4cba7e18573f1cd54, type: 3}
      propertyPath: m_LODs.Array.data[0].screenRelativeHeight
      value: 0.3025519
      objectReference: {fileID: 0}
    - target: {fileID: 20500000, guid: 4f11ca476d42a0b4cba7e18573f1cd54, type: 3}
      propertyPath: m_LODs.Array.data[1].screenRelativeHeight
      value: 0.053048845
      objectReference: {fileID: 0}
    m_RemovedComponents:
    - {fileID: 3300008, guid: 4f11ca476d42a0b4cba7e18573f1cd54, type: 3}
    - {fileID: 2300008, guid: 4f11ca476d42a0b4cba7e18573f1cd54, type: 3}
    - {fileID: 9500000, guid: 4f11ca476d42a0b4cba7e18573f1cd54, type: 3}
  m_SourcePrefab: {fileID: 100100000, guid: 4f11ca476d42a0b4cba7e18573f1cd54, type: 3}
--- !u!1 &7653544260068927483 stripped
GameObject:
  m_CorrespondingSourceObject: {fileID: 100008, guid: 4f11ca476d42a0b4cba7e18573f1cd54, type: 3}
  m_PrefabInstance: {fileID: 7653544260068893011}
  m_PrefabAsset: {fileID: 0}
--- !u!64 &3306788862170932498
MeshCollider:
  m_ObjectHideFlags: 0
  m_CorrespondingSourceObject: {fileID: 0}
  m_PrefabInstance: {fileID: 0}
  m_PrefabAsset: {fileID: 0}
  m_GameObject: {fileID: 7653544260068927483}
  m_Material: {fileID: 0}
  m_IsTrigger: 0
  m_Enabled: 1
  serializedVersion: 4
  m_Convex: 0
  m_CookingOptions: 30
  m_Mesh: {fileID: 4300010, guid: 4f11ca476d42a0b4cba7e18573f1cd54, type: 3}
