%YAML 1.1
%TAG !u! tag:unity3d.com,2011:
--- !u!1001 &8498928381564830447
PrefabInstance:
  m_ObjectHideFlags: 0
  serializedVersion: 2
  m_Modification:
    m_TransformParent: {fileID: 0}
    m_Modifications:
    - target: {fileID: 100000, guid: b5a0418cc5d550344a7bc8933251cc6b, type: 3}
      propertyPath: m_Name
      value: Wall_01_20m_01_Prefab_snaps017
      objectReference: {fileID: 0}
    - target: {fileID: 100002, guid: b5a0418cc5d550344a7bc8933251cc6b, type: 3}
      propertyPath: m_IsActive
      value: 0
      objectReference: {fileID: 0}
    - target: {fileID: 100002, guid: b5a0418cc5d550344a7bc8933251cc6b, type: 3}
      propertyPath: m_StaticEditorFlags
      value: 83
      objectReference: {fileID: 0}
    - target: {fileID: 100004, guid: b5a0418cc5d550344a7bc8933251cc6b, type: 3}
      propertyPath: m_StaticEditorFlags
      value: 82
      objectReference: {fileID: 0}
    - target: {fileID: 100006, guid: b5a0418cc5d550344a7bc8933251cc6b, type: 3}
      propertyPath: m_IsActive
      value: 0
      objectReference: {fileID: 0}
    - target: {fileID: 100006, guid: b5a0418cc5d550344a7bc8933251cc6b, type: 3}
      propertyPath: m_StaticEditorFlags
      value: 82
      objectReference: {fileID: 0}
    - target: {fileID: 100008, guid: b5a0418cc5d550344a7bc8933251cc6b, type: 3}
      propertyPath: m_IsActive
      value: 0
      objectReference: {fileID: 0}
    - target: {fileID: 100072, guid: b5a0418cc5d550344a7bc8933251cc6b, type: 3}
      propertyPath: m_IsActive
      value: 0
      objectReference: {fileID: 0}
    - target: {fileID: 100074, guid: b5a0418cc5d550344a7bc8933251cc6b, type: 3}
      propertyPath: m_IsActive
      value: 0
      objectReference: {fileID: 0}
    - target: {fileID: 400000, guid: b5a0418cc5d550344a7bc8933251cc6b, type: 3}
      propertyPath: m_RootOrder
      value: 0
      objectReference: {fileID: 0}
    - target: {fileID: 400000, guid: b5a0418cc5d550344a7bc8933251cc6b, type: 3}
      propertyPath: m_LocalPosition.x
      value: 0
      objectReference: {fileID: 0}
    - target: {fileID: 400000, guid: b5a0418cc5d550344a7bc8933251cc6b, type: 3}
      propertyPath: m_LocalPosition.y
      value: 0
      objectReference: {fileID: 0}
    - target: {fileID: 400000, guid: b5a0418cc5d550344a7bc8933251cc6b, type: 3}
      propertyPath: m_LocalPosition.z
      value: 0
      objectReference: {fileID: 0}
    - target: {fileID: 400000, guid: b5a0418cc5d550344a7bc8933251cc6b, type: 3}
      propertyPath: m_LocalRotation.w
      value: 1
      objectReference: {fileID: 0}
    - target: {fileID: 400000, guid: b5a0418cc5d550344a7bc8933251cc6b, type: 3}
      propertyPath: m_LocalRotation.x
      value: 0
      objectReference: {fileID: 0}
    - target: {fileID: 400000, guid: b5a0418cc5d550344a7bc8933251cc6b, type: 3}
      propertyPath: m_LocalRotation.y
      value: 0
      objectReference: {fileID: 0}
    - target: {fileID: 400000, guid: b5a0418cc5d550344a7bc8933251cc6b, type: 3}
      propertyPath: m_LocalRotation.z
      value: 0
      objectReference: {fileID: 0}
    - target: {fileID: 400000, guid: b5a0418cc5d550344a7bc8933251cc6b, type: 3}
      propertyPath: m_LocalEulerAnglesHint.x
      value: 0
      objectReference: {fileID: 0}
    - target: {fileID: 400000, guid: b5a0418cc5d550344a7bc8933251cc6b, type: 3}
      propertyPath: m_LocalEulerAnglesHint.y
      value: 0
      objectReference: {fileID: 0}
    - target: {fileID: 400000, guid: b5a0418cc5d550344a7bc8933251cc6b, type: 3}
      propertyPath: m_LocalEulerAnglesHint.z
      value: 0
      objectReference: {fileID: 0}
    - target: {fileID: 20500000, guid: b5a0418cc5d550344a7bc8933251cc6b, type: 3}
      propertyPath: m_Enabled
      value: 0
      objectReference: {fileID: 0}
    - target: {fileID: 20500000, guid: b5a0418cc5d550344a7bc8933251cc6b, type: 3}
      propertyPath: m_LODs.Array.data[0].screenRelativeHeight
      value: 0.40064916
      objectReference: {fileID: 0}
    - target: {fileID: 20500000, guid: b5a0418cc5d550344a7bc8933251cc6b, type: 3}
      propertyPath: m_LODs.Array.data[1].screenRelativeHeight
      value: 0.12622626
      objectReference: {fileID: 0}
    m_RemovedComponents:
    - {fileID: 3300008, guid: b5a0418cc5d550344a7bc8933251cc6b, type: 3}
    - {fileID: 2300008, guid: b5a0418cc5d550344a7bc8933251cc6b, type: 3}
  m_SourcePrefab: {fileID: 100100000, guid: b5a0418cc5d550344a7bc8933251cc6b, type: 3}
--- !u!1 &8498928381564929095 stripped
GameObject:
  m_CorrespondingSourceObject: {fileID: 100008, guid: b5a0418cc5d550344a7bc8933251cc6b, type: 3}
  m_PrefabInstance: {fileID: 8498928381564830447}
  m_PrefabAsset: {fileID: 0}
--- !u!64 &3162814057236603866
MeshCollider:
  m_ObjectHideFlags: 0
  m_CorrespondingSourceObject: {fileID: 0}
  m_PrefabInstance: {fileID: 0}
  m_PrefabAsset: {fileID: 0}
  m_GameObject: {fileID: 8498928381564929095}
  m_Material: {fileID: 0}
  m_IsTrigger: 0
  m_Enabled: 1
  serializedVersion: 4
  m_Convex: 0
  m_CookingOptions: 30
  m_Mesh: {fileID: 4300008, guid: b5a0418cc5d550344a7bc8933251cc6b, type: 3}
