%YAML 1.1
%TAG !u! tag:unity3d.com,2011:
--- !u!1001 &1624056404730351332
PrefabInstance:
  m_ObjectHideFlags: 0
  serializedVersion: 2
  m_Modification:
    m_TransformParent: {fileID: 0}
    m_Modifications:
    - target: {fileID: 100006, guid: c762798b186860f4b90b6ce398772e65, type: 3}
      propertyPath: m_Name
      value: SecurityBooth_01_Prefab (2)
      objectReference: {fileID: 0}
    - target: {fileID: 100006, guid: c762798b186860f4b90b6ce398772e65, type: 3}
      propertyPath: m_StaticEditorFlags
      value: 4294967295
      objectReference: {fileID: 0}
    - target: {fileID: 100100, guid: c762798b186860f4b90b6ce398772e65, type: 3}
      propertyPath: m_StaticEditorFlags
      value: 4294967295
      objectReference: {fileID: 0}
    - target: {fileID: 100102, guid: c762798b186860f4b90b6ce398772e65, type: 3}
      propertyPath: m_IsActive
      value: 0
      objectReference: {fileID: 0}
    - target: {fileID: 100102, guid: c762798b186860f4b90b6ce398772e65, type: 3}
      propertyPath: m_StaticEditorFlags
      value: 4294967295
      objectReference: {fileID: 0}
    - target: {fileID: 100104, guid: c762798b186860f4b90b6ce398772e65, type: 3}
      propertyPath: m_IsActive
      value: 0
      objectReference: {fileID: 0}
    - target: {fileID: 100104, guid: c762798b186860f4b90b6ce398772e65, type: 3}
      propertyPath: m_StaticEditorFlags
      value: 4294967295
      objectReference: {fileID: 0}
    - target: {fileID: 100106, guid: c762798b186860f4b90b6ce398772e65, type: 3}
      propertyPath: m_IsActive
      value: 0
      objectReference: {fileID: 0}
    - target: {fileID: 100106, guid: c762798b186860f4b90b6ce398772e65, type: 3}
      propertyPath: m_StaticEditorFlags
      value: 4294967295
      objectReference: {fileID: 0}
    - target: {fileID: 100108, guid: c762798b186860f4b90b6ce398772e65, type: 3}
      propertyPath: m_IsActive
      value: 0
      objectReference: {fileID: 0}
    - target: {fileID: 100108, guid: c762798b186860f4b90b6ce398772e65, type: 3}
      propertyPath: m_StaticEditorFlags
      value: 4294967295
      objectReference: {fileID: 0}
    - target: {fileID: 100110, guid: c762798b186860f4b90b6ce398772e65, type: 3}
      propertyPath: m_IsActive
      value: 0
      objectReference: {fileID: 0}
    - target: {fileID: 100110, guid: c762798b186860f4b90b6ce398772e65, type: 3}
      propertyPath: m_StaticEditorFlags
      value: 4294967295
      objectReference: {fileID: 0}
    - target: {fileID: 100112, guid: c762798b186860f4b90b6ce398772e65, type: 3}
      propertyPath: m_StaticEditorFlags
      value: 4294967295
      objectReference: {fileID: 0}
    - target: {fileID: 100114, guid: c762798b186860f4b90b6ce398772e65, type: 3}
      propertyPath: m_IsActive
      value: 0
      objectReference: {fileID: 0}
    - target: {fileID: 100114, guid: c762798b186860f4b90b6ce398772e65, type: 3}
      propertyPath: m_StaticEditorFlags
      value: 4294967295
      objectReference: {fileID: 0}
    - target: {fileID: 400006, guid: c762798b186860f4b90b6ce398772e65, type: 3}
      propertyPath: m_RootOrder
      value: 0
      objectReference: {fileID: 0}
    - target: {fileID: 400006, guid: c762798b186860f4b90b6ce398772e65, type: 3}
      propertyPath: m_LocalPosition.x
      value: -5.1
      objectReference: {fileID: 0}
    - target: {fileID: 400006, guid: c762798b186860f4b90b6ce398772e65, type: 3}
      propertyPath: m_LocalPosition.y
      value: 0
      objectReference: {fileID: 0}
    - target: {fileID: 400006, guid: c762798b186860f4b90b6ce398772e65, type: 3}
      propertyPath: m_LocalPosition.z
      value: 145.9
      objectReference: {fileID: 0}
    - target: {fileID: 400006, guid: c762798b186860f4b90b6ce398772e65, type: 3}
      propertyPath: m_LocalRotation.w
      value: 0
      objectReference: {fileID: 0}
    - target: {fileID: 400006, guid: c762798b186860f4b90b6ce398772e65, type: 3}
      propertyPath: m_LocalRotation.x
      value: 0
      objectReference: {fileID: 0}
    - target: {fileID: 400006, guid: c762798b186860f4b90b6ce398772e65, type: 3}
      propertyPath: m_LocalRotation.y
      value: -1
      objectReference: {fileID: 0}
    - target: {fileID: 400006, guid: c762798b186860f4b90b6ce398772e65, type: 3}
      propertyPath: m_LocalRotation.z
      value: 0
      objectReference: {fileID: 0}
    - target: {fileID: 400006, guid: c762798b186860f4b90b6ce398772e65, type: 3}
      propertyPath: m_LocalEulerAnglesHint.x
      value: 0
      objectReference: {fileID: 0}
    - target: {fileID: 400006, guid: c762798b186860f4b90b6ce398772e65, type: 3}
      propertyPath: m_LocalEulerAnglesHint.y
      value: -180
      objectReference: {fileID: 0}
    - target: {fileID: 400006, guid: c762798b186860f4b90b6ce398772e65, type: 3}
      propertyPath: m_LocalEulerAnglesHint.z
      value: 0
      objectReference: {fileID: 0}
    - target: {fileID: 20500000, guid: c762798b186860f4b90b6ce398772e65, type: 3}
      propertyPath: m_Enabled
      value: 0
      objectReference: {fileID: 0}
    - target: {fileID: 20500000, guid: c762798b186860f4b90b6ce398772e65, type: 3}
      propertyPath: m_LODs.Array.data[0].screenRelativeHeight
      value: 0.7493753
      objectReference: {fileID: 0}
    - target: {fileID: 20500000, guid: c762798b186860f4b90b6ce398772e65, type: 3}
      propertyPath: m_LODs.Array.data[1].screenRelativeHeight
      value: 0.50337136
      objectReference: {fileID: 0}
    - target: {fileID: 20500000, guid: c762798b186860f4b90b6ce398772e65, type: 3}
      propertyPath: m_LODs.Array.data[2].screenRelativeHeight
      value: 0.20351133
      objectReference: {fileID: 0}
    m_RemovedComponents:
    - {fileID: 3300092, guid: c762798b186860f4b90b6ce398772e65, type: 3}
    - {fileID: 2300092, guid: c762798b186860f4b90b6ce398772e65, type: 3}
  m_SourcePrefab: {fileID: 100100000, guid: c762798b186860f4b90b6ce398772e65, type: 3}
--- !u!1 &1624056404730382816 stripped
GameObject:
  m_CorrespondingSourceObject: {fileID: 100100, guid: c762798b186860f4b90b6ce398772e65, type: 3}
  m_PrefabInstance: {fileID: 1624056404730351332}
  m_PrefabAsset: {fileID: 0}
--- !u!64 &6457533299049350015
MeshCollider:
  m_ObjectHideFlags: 0
  m_CorrespondingSourceObject: {fileID: 0}
  m_PrefabInstance: {fileID: 0}
  m_PrefabAsset: {fileID: 0}
  m_GameObject: {fileID: 1624056404730382816}
  m_Material: {fileID: 0}
  m_IsTrigger: 0
  m_Enabled: 1
  serializedVersion: 4
  m_Convex: 0
  m_CookingOptions: 30
  m_Mesh: {fileID: 4300092, guid: c762798b186860f4b90b6ce398772e65, type: 3}
