%YAML 1.1
%TAG !u! tag:unity3d.com,2011:
--- !u!64 &2252771205517017913
MeshCollider:
  m_ObjectHideFlags: 0
  m_CorrespondingSourceObject: {fileID: 0}
  m_PrefabInstance: {fileID: 0}
  m_PrefabAsset: {fileID: 0}
  m_GameObject: {fileID: 1008530531599893835}
  m_Material: {fileID: 0}
  m_IsTrigger: 0
  m_Enabled: 1
  serializedVersion: 3
  m_Convex: 0
  m_CookingOptions: 14
  m_Mesh: {fileID: 4300018, guid: c1290e2ba729c044fb1a8d8458ed79e8, type: 3}
--- !u!1001 &1008530531599795175
PrefabInstance:
  m_ObjectHideFlags: 0
  serializedVersion: 2
  m_Modification:
    m_TransformParent: {fileID: 0}
    m_Modifications:
    - target: {fileID: 100000, guid: c1290e2ba729c044fb1a8d8458ed79e8, type: 3}
      propertyPath: m_Name
      value: StreetLight_Single_01_Prefab
      objectReference: {fileID: 0}
    - target: {fileID: 100000, guid: c1290e2ba729c044fb1a8d8458ed79e8, type: 3}
      propertyPath: m_StaticEditorFlags
      value: 80
      objectReference: {fileID: 0}
    - target: {fileID: 400000, guid: c1290e2ba729c044fb1a8d8458ed79e8, type: 3}
      propertyPath: m_LocalPosition.x
      value: -0
      objectReference: {fileID: 0}
    - target: {fileID: 400000, guid: c1290e2ba729c044fb1a8d8458ed79e8, type: 3}
      propertyPath: m_LocalPosition.y
      value: 0
      objectReference: {fileID: 0}
    - target: {fileID: 400000, guid: c1290e2ba729c044fb1a8d8458ed79e8, type: 3}
      propertyPath: m_LocalPosition.z
      value: 0
      objectReference: {fileID: 0}
    - target: {fileID: 400000, guid: c1290e2ba729c044fb1a8d8458ed79e8, type: 3}
      propertyPath: m_LocalRotation.x
      value: 0
      objectReference: {fileID: 0}
    - target: {fileID: 400000, guid: c1290e2ba729c044fb1a8d8458ed79e8, type: 3}
      propertyPath: m_LocalRotation.y
      value: -0
      objectReference: {fileID: 0}
    - target: {fileID: 400000, guid: c1290e2ba729c044fb1a8d8458ed79e8, type: 3}
      propertyPath: m_LocalRotation.z
      value: -0
      objectReference: {fileID: 0}
    - target: {fileID: 400000, guid: c1290e2ba729c044fb1a8d8458ed79e8, type: 3}
      propertyPath: m_LocalRotation.w
      value: 1
      objectReference: {fileID: 0}
    - target: {fileID: 400000, guid: c1290e2ba729c044fb1a8d8458ed79e8, type: 3}
      propertyPath: m_RootOrder
      value: 0
      objectReference: {fileID: 0}
    - target: {fileID: 400000, guid: c1290e2ba729c044fb1a8d8458ed79e8, type: 3}
      propertyPath: m_LocalEulerAnglesHint.x
      value: 0
      objectReference: {fileID: 0}
    - target: {fileID: 400000, guid: c1290e2ba729c044fb1a8d8458ed79e8, type: 3}
      propertyPath: m_LocalEulerAnglesHint.y
      value: 0
      objectReference: {fileID: 0}
    - target: {fileID: 400000, guid: c1290e2ba729c044fb1a8d8458ed79e8, type: 3}
      propertyPath: m_LocalEulerAnglesHint.z
      value: 0
      objectReference: {fileID: 0}
    - target: {fileID: 20500000, guid: c1290e2ba729c044fb1a8d8458ed79e8, type: 3}
      propertyPath: m_LODs.Array.data[0].screenRelativeHeight
      value: 0.5036196
      objectReference: {fileID: 0}
    - target: {fileID: 20500000, guid: c1290e2ba729c044fb1a8d8458ed79e8, type: 3}
      propertyPath: m_LODs.Array.data[1].screenRelativeHeight
      value: 0.249
      objectReference: {fileID: 0}
    - target: {fileID: 20500000, guid: c1290e2ba729c044fb1a8d8458ed79e8, type: 3}
      propertyPath: m_LODs.Array.data[2].screenRelativeHeight
      value: 0.1005044
      objectReference: {fileID: 0}
    - target: {fileID: 100014, guid: c1290e2ba729c044fb1a8d8458ed79e8, type: 3}
      propertyPath: m_StaticEditorFlags
      value: 80
      objectReference: {fileID: 0}
    - target: {fileID: 100016, guid: c1290e2ba729c044fb1a8d8458ed79e8, type: 3}
      propertyPath: m_StaticEditorFlags
      value: 80
      objectReference: {fileID: 0}
    - target: {fileID: 100018, guid: c1290e2ba729c044fb1a8d8458ed79e8, type: 3}
      propertyPath: m_StaticEditorFlags
      value: 80
      objectReference: {fileID: 0}
    - target: {fileID: 100020, guid: c1290e2ba729c044fb1a8d8458ed79e8, type: 3}
      propertyPath: m_StaticEditorFlags
      value: 80
      objectReference: {fileID: 0}
    m_RemovedComponents:
    - {fileID: 3300010, guid: c1290e2ba729c044fb1a8d8458ed79e8, type: 3}
    - {fileID: 2300010, guid: c1290e2ba729c044fb1a8d8458ed79e8, type: 3}
  m_SourcePrefab: {fileID: 100100000, guid: c1290e2ba729c044fb1a8d8458ed79e8, type: 3}
--- !u!1 &1008530531599893835 stripped
GameObject:
  m_CorrespondingSourceObject: {fileID: 100012, guid: c1290e2ba729c044fb1a8d8458ed79e8,
    type: 3}
  m_PrefabInstance: {fileID: 1008530531599795175}
  m_PrefabAsset: {fileID: 0}
