%YAML 1.1
%TAG !u! tag:unity3d.com,2011:
--- !u!64 &3018505838188355058
MeshCollider:
  m_ObjectHideFlags: 0
  m_CorrespondingSourceObject: {fileID: 0}
  m_PrefabInstance: {fileID: 0}
  m_PrefabAsset: {fileID: 0}
  m_GameObject: {fileID: 2511895043332123414}
  m_Material: {fileID: 0}
  m_IsTrigger: 0
  m_Enabled: 1
  serializedVersion: 3
  m_Convex: 0
  m_CookingOptions: 14
  m_Mesh: {fileID: 4300046, guid: 98fb2c7492b78f247bbdec172d3e9d01, type: 3}
--- !u!1001 &2511895043332222380
PrefabInstance:
  m_ObjectHideFlags: 0
  serializedVersion: 2
  m_Modification:
    m_TransformParent: {fileID: 0}
    m_Modifications:
    - target: {fileID: 100000, guid: 98fb2c7492b78f247bbdec172d3e9d01, type: 3}
      propertyPath: m_Name
      value: StreetLight_Double_02_Prefab
      objectReference: {fileID: 0}
    - target: {fileID: 100000, guid: 98fb2c7492b78f247bbdec172d3e9d01, type: 3}
      propertyPath: m_StaticEditorFlags
      value: 80
      objectReference: {fileID: 0}
    - target: {fileID: 400000, guid: 98fb2c7492b78f247bbdec172d3e9d01, type: 3}
      propertyPath: m_LocalPosition.x
      value: -0
      objectReference: {fileID: 0}
    - target: {fileID: 400000, guid: 98fb2c7492b78f247bbdec172d3e9d01, type: 3}
      propertyPath: m_LocalPosition.y
      value: 0
      objectReference: {fileID: 0}
    - target: {fileID: 400000, guid: 98fb2c7492b78f247bbdec172d3e9d01, type: 3}
      propertyPath: m_LocalPosition.z
      value: 0
      objectReference: {fileID: 0}
    - target: {fileID: 400000, guid: 98fb2c7492b78f247bbdec172d3e9d01, type: 3}
      propertyPath: m_LocalRotation.x
      value: 0
      objectReference: {fileID: 0}
    - target: {fileID: 400000, guid: 98fb2c7492b78f247bbdec172d3e9d01, type: 3}
      propertyPath: m_LocalRotation.y
      value: -0
      objectReference: {fileID: 0}
    - target: {fileID: 400000, guid: 98fb2c7492b78f247bbdec172d3e9d01, type: 3}
      propertyPath: m_LocalRotation.z
      value: -0
      objectReference: {fileID: 0}
    - target: {fileID: 400000, guid: 98fb2c7492b78f247bbdec172d3e9d01, type: 3}
      propertyPath: m_LocalRotation.w
      value: 1
      objectReference: {fileID: 0}
    - target: {fileID: 400000, guid: 98fb2c7492b78f247bbdec172d3e9d01, type: 3}
      propertyPath: m_RootOrder
      value: 0
      objectReference: {fileID: 0}
    - target: {fileID: 400000, guid: 98fb2c7492b78f247bbdec172d3e9d01, type: 3}
      propertyPath: m_LocalEulerAnglesHint.x
      value: 0
      objectReference: {fileID: 0}
    - target: {fileID: 400000, guid: 98fb2c7492b78f247bbdec172d3e9d01, type: 3}
      propertyPath: m_LocalEulerAnglesHint.y
      value: 0
      objectReference: {fileID: 0}
    - target: {fileID: 400000, guid: 98fb2c7492b78f247bbdec172d3e9d01, type: 3}
      propertyPath: m_LocalEulerAnglesHint.z
      value: 0
      objectReference: {fileID: 0}
    - target: {fileID: 100028, guid: 98fb2c7492b78f247bbdec172d3e9d01, type: 3}
      propertyPath: m_StaticEditorFlags
      value: 80
      objectReference: {fileID: 0}
    - target: {fileID: 100030, guid: 98fb2c7492b78f247bbdec172d3e9d01, type: 3}
      propertyPath: m_StaticEditorFlags
      value: 80
      objectReference: {fileID: 0}
    - target: {fileID: 100032, guid: 98fb2c7492b78f247bbdec172d3e9d01, type: 3}
      propertyPath: m_StaticEditorFlags
      value: 80
      objectReference: {fileID: 0}
    - target: {fileID: 100034, guid: 98fb2c7492b78f247bbdec172d3e9d01, type: 3}
      propertyPath: m_StaticEditorFlags
      value: 80
      objectReference: {fileID: 0}
    - target: {fileID: 100036, guid: 98fb2c7492b78f247bbdec172d3e9d01, type: 3}
      propertyPath: m_StaticEditorFlags
      value: 80
      objectReference: {fileID: 0}
    - target: {fileID: 100038, guid: 98fb2c7492b78f247bbdec172d3e9d01, type: 3}
      propertyPath: m_StaticEditorFlags
      value: 80
      objectReference: {fileID: 0}
    - target: {fileID: 100040, guid: 98fb2c7492b78f247bbdec172d3e9d01, type: 3}
      propertyPath: m_StaticEditorFlags
      value: 80
      objectReference: {fileID: 0}
    - target: {fileID: 100042, guid: 98fb2c7492b78f247bbdec172d3e9d01, type: 3}
      propertyPath: m_StaticEditorFlags
      value: 80
      objectReference: {fileID: 0}
    - target: {fileID: 100044, guid: 98fb2c7492b78f247bbdec172d3e9d01, type: 3}
      propertyPath: m_StaticEditorFlags
      value: 80
      objectReference: {fileID: 0}
    - target: {fileID: 100046, guid: 98fb2c7492b78f247bbdec172d3e9d01, type: 3}
      propertyPath: m_StaticEditorFlags
      value: 80
      objectReference: {fileID: 0}
    - target: {fileID: 100048, guid: 98fb2c7492b78f247bbdec172d3e9d01, type: 3}
      propertyPath: m_StaticEditorFlags
      value: 80
      objectReference: {fileID: 0}
    - target: {fileID: 2300026, guid: 98fb2c7492b78f247bbdec172d3e9d01, type: 3}
      propertyPath: m_CastShadows
      value: 0
      objectReference: {fileID: 0}
    - target: {fileID: 2300028, guid: 98fb2c7492b78f247bbdec172d3e9d01, type: 3}
      propertyPath: m_CastShadows
      value: 0
      objectReference: {fileID: 0}
    - target: {fileID: 2300030, guid: 98fb2c7492b78f247bbdec172d3e9d01, type: 3}
      propertyPath: m_CastShadows
      value: 0
      objectReference: {fileID: 0}
    - target: {fileID: 2300032, guid: 98fb2c7492b78f247bbdec172d3e9d01, type: 3}
      propertyPath: m_CastShadows
      value: 0
      objectReference: {fileID: 0}
    - target: {fileID: 2300034, guid: 98fb2c7492b78f247bbdec172d3e9d01, type: 3}
      propertyPath: m_CastShadows
      value: 0
      objectReference: {fileID: 0}
    m_RemovedComponents:
    - {fileID: 3300024, guid: 98fb2c7492b78f247bbdec172d3e9d01, type: 3}
    - {fileID: 2300024, guid: 98fb2c7492b78f247bbdec172d3e9d01, type: 3}
  m_SourcePrefab: {fileID: 100100000, guid: 98fb2c7492b78f247bbdec172d3e9d01, type: 3}
--- !u!1 &2511895043332123414 stripped
GameObject:
  m_CorrespondingSourceObject: {fileID: 100026, guid: 98fb2c7492b78f247bbdec172d3e9d01,
    type: 3}
  m_PrefabInstance: {fileID: 2511895043332222380}
  m_PrefabAsset: {fileID: 0}
