%YAML 1.1
%TAG !u! tag:unity3d.com,2011:
--- !u!64 &2729783399264606437
MeshCollider:
  m_ObjectHideFlags: 0
  m_CorrespondingSourceObject: {fileID: 0}
  m_PrefabInstance: {fileID: 0}
  m_PrefabAsset: {fileID: 0}
  m_GameObject: {fileID: 8069638646027051215}
  m_Material: {fileID: 0}
  m_IsTrigger: 0
  m_Enabled: 1
  serializedVersion: 3
  m_Convex: 0
  m_CookingOptions: 14
  m_Mesh: {fileID: 4300018, guid: bf9ef643a243dcf40975907124b4464e, type: 3}
--- !u!1001 &8069638646027085411
PrefabInstance:
  m_ObjectHideFlags: 0
  serializedVersion: 2
  m_Modification:
    m_TransformParent: {fileID: 0}
    m_Modifications:
    - target: {fileID: 100000, guid: bf9ef643a243dcf40975907124b4464e, type: 3}
      propertyPath: m_Name
      value: StreetLight_Pole_20m_01_Prefab
      objectReference: {fileID: 0}
    - target: {fileID: 100000, guid: bf9ef643a243dcf40975907124b4464e, type: 3}
      propertyPath: m_StaticEditorFlags
      value: 80
      objectReference: {fileID: 0}
    - target: {fileID: 400000, guid: bf9ef643a243dcf40975907124b4464e, type: 3}
      propertyPath: m_LocalPosition.x
      value: -0
      objectReference: {fileID: 0}
    - target: {fileID: 400000, guid: bf9ef643a243dcf40975907124b4464e, type: 3}
      propertyPath: m_LocalPosition.y
      value: 0
      objectReference: {fileID: 0}
    - target: {fileID: 400000, guid: bf9ef643a243dcf40975907124b4464e, type: 3}
      propertyPath: m_LocalPosition.z
      value: 0
      objectReference: {fileID: 0}
    - target: {fileID: 400000, guid: bf9ef643a243dcf40975907124b4464e, type: 3}
      propertyPath: m_LocalRotation.x
      value: 0
      objectReference: {fileID: 0}
    - target: {fileID: 400000, guid: bf9ef643a243dcf40975907124b4464e, type: 3}
      propertyPath: m_LocalRotation.y
      value: -0
      objectReference: {fileID: 0}
    - target: {fileID: 400000, guid: bf9ef643a243dcf40975907124b4464e, type: 3}
      propertyPath: m_LocalRotation.z
      value: -0
      objectReference: {fileID: 0}
    - target: {fileID: 400000, guid: bf9ef643a243dcf40975907124b4464e, type: 3}
      propertyPath: m_LocalRotation.w
      value: 1
      objectReference: {fileID: 0}
    - target: {fileID: 400000, guid: bf9ef643a243dcf40975907124b4464e, type: 3}
      propertyPath: m_RootOrder
      value: 0
      objectReference: {fileID: 0}
    - target: {fileID: 400000, guid: bf9ef643a243dcf40975907124b4464e, type: 3}
      propertyPath: m_LocalEulerAnglesHint.x
      value: 0
      objectReference: {fileID: 0}
    - target: {fileID: 400000, guid: bf9ef643a243dcf40975907124b4464e, type: 3}
      propertyPath: m_LocalEulerAnglesHint.y
      value: 0
      objectReference: {fileID: 0}
    - target: {fileID: 400000, guid: bf9ef643a243dcf40975907124b4464e, type: 3}
      propertyPath: m_LocalEulerAnglesHint.z
      value: 0
      objectReference: {fileID: 0}
    - target: {fileID: 20500000, guid: bf9ef643a243dcf40975907124b4464e, type: 3}
      propertyPath: m_LODs.Array.data[0].screenRelativeHeight
      value: 0.94784236
      objectReference: {fileID: 0}
    - target: {fileID: 20500000, guid: bf9ef643a243dcf40975907124b4464e, type: 3}
      propertyPath: m_LODs.Array.data[1].screenRelativeHeight
      value: 0.8467469
      objectReference: {fileID: 0}
    - target: {fileID: 20500000, guid: bf9ef643a243dcf40975907124b4464e, type: 3}
      propertyPath: m_LODs.Array.data[2].screenRelativeHeight
      value: 0.7539915
      objectReference: {fileID: 0}
    - target: {fileID: 100014, guid: bf9ef643a243dcf40975907124b4464e, type: 3}
      propertyPath: m_StaticEditorFlags
      value: 80
      objectReference: {fileID: 0}
    - target: {fileID: 100016, guid: bf9ef643a243dcf40975907124b4464e, type: 3}
      propertyPath: m_StaticEditorFlags
      value: 80
      objectReference: {fileID: 0}
    - target: {fileID: 100018, guid: bf9ef643a243dcf40975907124b4464e, type: 3}
      propertyPath: m_StaticEditorFlags
      value: 80
      objectReference: {fileID: 0}
    - target: {fileID: 100020, guid: bf9ef643a243dcf40975907124b4464e, type: 3}
      propertyPath: m_StaticEditorFlags
      value: 80
      objectReference: {fileID: 0}
    m_RemovedComponents:
    - {fileID: 3300010, guid: bf9ef643a243dcf40975907124b4464e, type: 3}
    - {fileID: 2300010, guid: bf9ef643a243dcf40975907124b4464e, type: 3}
  m_SourcePrefab: {fileID: 100100000, guid: bf9ef643a243dcf40975907124b4464e, type: 3}
--- !u!1 &8069638646027051215 stripped
GameObject:
  m_CorrespondingSourceObject: {fileID: 100012, guid: bf9ef643a243dcf40975907124b4464e,
    type: 3}
  m_PrefabInstance: {fileID: 8069638646027085411}
  m_PrefabAsset: {fileID: 0}
