%YAML 1.1
%TAG !u! tag:unity3d.com,2011:
--- !u!64 &8152871380666216551
MeshCollider:
  m_ObjectHideFlags: 0
  m_CorrespondingSourceObject: {fileID: 0}
  m_PrefabInstance: {fileID: 0}
  m_PrefabAsset: {fileID: 0}
  m_GameObject: {fileID: 8258000410132946748}
  m_Material: {fileID: 0}
  m_IsTrigger: 0
  m_Enabled: 1
  serializedVersion: 3
  m_Convex: 0
  m_CookingOptions: 14
  m_Mesh: {fileID: 4300010, guid: e4009ae73f8da8d418e566b12d48cfd6, type: 3}
--- !u!1001 &8258000410132912528
PrefabInstance:
  m_ObjectHideFlags: 0
  serializedVersion: 2
  m_Modification:
    m_TransformParent: {fileID: 0}
    m_Modifications:
    - target: {fileID: 100002, guid: e4009ae73f8da8d418e566b12d48cfd6, type: 3}
      propertyPath: m_Name
      value: StreetLight_WallMounted_01_Prefab
      objectReference: {fileID: 0}
    - target: {fileID: 100002, guid: e4009ae73f8da8d418e566b12d48cfd6, type: 3}
      propertyPath: m_StaticEditorFlags
      value: 80
      objectReference: {fileID: 0}
    - target: {fileID: 100004, guid: e4009ae73f8da8d418e566b12d48cfd6, type: 3}
      propertyPath: m_StaticEditorFlags
      value: 80
      objectReference: {fileID: 0}
    - target: {fileID: 100006, guid: e4009ae73f8da8d418e566b12d48cfd6, type: 3}
      propertyPath: m_StaticEditorFlags
      value: 80
      objectReference: {fileID: 0}
    - target: {fileID: 100008, guid: e4009ae73f8da8d418e566b12d48cfd6, type: 3}
      propertyPath: m_StaticEditorFlags
      value: 80
      objectReference: {fileID: 0}
    - target: {fileID: 100010, guid: e4009ae73f8da8d418e566b12d48cfd6, type: 3}
      propertyPath: m_StaticEditorFlags
      value: 80
      objectReference: {fileID: 0}
    - target: {fileID: 400002, guid: e4009ae73f8da8d418e566b12d48cfd6, type: 3}
      propertyPath: m_LocalPosition.x
      value: -0
      objectReference: {fileID: 0}
    - target: {fileID: 400002, guid: e4009ae73f8da8d418e566b12d48cfd6, type: 3}
      propertyPath: m_LocalPosition.y
      value: 0
      objectReference: {fileID: 0}
    - target: {fileID: 400002, guid: e4009ae73f8da8d418e566b12d48cfd6, type: 3}
      propertyPath: m_LocalPosition.z
      value: 0
      objectReference: {fileID: 0}
    - target: {fileID: 400002, guid: e4009ae73f8da8d418e566b12d48cfd6, type: 3}
      propertyPath: m_LocalRotation.x
      value: 0
      objectReference: {fileID: 0}
    - target: {fileID: 400002, guid: e4009ae73f8da8d418e566b12d48cfd6, type: 3}
      propertyPath: m_LocalRotation.y
      value: -0
      objectReference: {fileID: 0}
    - target: {fileID: 400002, guid: e4009ae73f8da8d418e566b12d48cfd6, type: 3}
      propertyPath: m_LocalRotation.z
      value: -0
      objectReference: {fileID: 0}
    - target: {fileID: 400002, guid: e4009ae73f8da8d418e566b12d48cfd6, type: 3}
      propertyPath: m_LocalRotation.w
      value: 1
      objectReference: {fileID: 0}
    - target: {fileID: 400002, guid: e4009ae73f8da8d418e566b12d48cfd6, type: 3}
      propertyPath: m_RootOrder
      value: 0
      objectReference: {fileID: 0}
    - target: {fileID: 400002, guid: e4009ae73f8da8d418e566b12d48cfd6, type: 3}
      propertyPath: m_LocalEulerAnglesHint.x
      value: 0
      objectReference: {fileID: 0}
    - target: {fileID: 400002, guid: e4009ae73f8da8d418e566b12d48cfd6, type: 3}
      propertyPath: m_LocalEulerAnglesHint.y
      value: 0
      objectReference: {fileID: 0}
    - target: {fileID: 400002, guid: e4009ae73f8da8d418e566b12d48cfd6, type: 3}
      propertyPath: m_LocalEulerAnglesHint.z
      value: 0
      objectReference: {fileID: 0}
    - target: {fileID: 20500000, guid: e4009ae73f8da8d418e566b12d48cfd6, type: 3}
      propertyPath: m_LODs.Array.data[0].screenRelativeHeight
      value: 0.29848927
      objectReference: {fileID: 0}
    - target: {fileID: 20500000, guid: e4009ae73f8da8d418e566b12d48cfd6, type: 3}
      propertyPath: m_LODs.Array.data[1].screenRelativeHeight
      value: 0.1465684
      objectReference: {fileID: 0}
    - target: {fileID: 20500000, guid: e4009ae73f8da8d418e566b12d48cfd6, type: 3}
      propertyPath: m_LODs.Array.data[2].screenRelativeHeight
      value: 0.054110426
      objectReference: {fileID: 0}
    m_RemovedComponents:
    - {fileID: 3300010, guid: e4009ae73f8da8d418e566b12d48cfd6, type: 3}
    - {fileID: 2300010, guid: e4009ae73f8da8d418e566b12d48cfd6, type: 3}
  m_SourcePrefab: {fileID: 100100000, guid: e4009ae73f8da8d418e566b12d48cfd6, type: 3}
--- !u!1 &8258000410132946748 stripped
GameObject:
  m_CorrespondingSourceObject: {fileID: 100012, guid: e4009ae73f8da8d418e566b12d48cfd6,
    type: 3}
  m_PrefabInstance: {fileID: 8258000410132912528}
  m_PrefabAsset: {fileID: 0}
