%YAML 1.1
%TAG !u! tag:unity3d.com,2011:
--- !u!1001 &7313203480836865182
PrefabInstance:
  m_ObjectHideFlags: 0
  serializedVersion: 2
  m_Modification:
    m_TransformParent: {fileID: 0}
    m_Modifications:
    - target: {fileID: 100000, guid: 7c9ca87d03c5dc741b38bdc23b4a4ecd, type: 3}
      propertyPath: m_Name
      value: IndustrialUnit_01_End_01_Prefab_snaps017
      objectReference: {fileID: 0}
    - target: {fileID: 100000, guid: 7c9ca87d03c5dc741b38bdc23b4a4ecd, type: 3}
      propertyPath: m_StaticEditorFlags
      value: 4294967295
      objectReference: {fileID: 0}
    - target: {fileID: 100024, guid: 7c9ca87d03c5dc741b38bdc23b4a4ecd, type: 3}
      propertyPath: m_IsActive
      value: 0
      objectReference: {fileID: 0}
    - target: {fileID: 100024, guid: 7c9ca87d03c5dc741b38bdc23b4a4ecd, type: 3}
      propertyPath: m_StaticEditorFlags
      value: 4294967295
      objectReference: {fileID: 0}
    - target: {fileID: 100028, guid: 7c9ca87d03c5dc741b38bdc23b4a4ecd, type: 3}
      propertyPath: m_IsActive
      value: 1
      objectReference: {fileID: 0}
    - target: {fileID: 100028, guid: 7c9ca87d03c5dc741b38bdc23b4a4ecd, type: 3}
      propertyPath: m_StaticEditorFlags
      value: 4294967295
      objectReference: {fileID: 0}
    - target: {fileID: 100032, guid: 7c9ca87d03c5dc741b38bdc23b4a4ecd, type: 3}
      propertyPath: m_IsActive
      value: 0
      objectReference: {fileID: 0}
    - target: {fileID: 100032, guid: 7c9ca87d03c5dc741b38bdc23b4a4ecd, type: 3}
      propertyPath: m_StaticEditorFlags
      value: 4294967295
      objectReference: {fileID: 0}
    - target: {fileID: 100034, guid: 7c9ca87d03c5dc741b38bdc23b4a4ecd, type: 3}
      propertyPath: m_IsActive
      value: 0
      objectReference: {fileID: 0}
    - target: {fileID: 100034, guid: 7c9ca87d03c5dc741b38bdc23b4a4ecd, type: 3}
      propertyPath: m_StaticEditorFlags
      value: 4294967295
      objectReference: {fileID: 0}
    - target: {fileID: 100036, guid: 7c9ca87d03c5dc741b38bdc23b4a4ecd, type: 3}
      propertyPath: m_IsActive
      value: 0
      objectReference: {fileID: 0}
    - target: {fileID: 100036, guid: 7c9ca87d03c5dc741b38bdc23b4a4ecd, type: 3}
      propertyPath: m_StaticEditorFlags
      value: 4294967295
      objectReference: {fileID: 0}
    - target: {fileID: 100038, guid: 7c9ca87d03c5dc741b38bdc23b4a4ecd, type: 3}
      propertyPath: m_IsActive
      value: 0
      objectReference: {fileID: 0}
    - target: {fileID: 100038, guid: 7c9ca87d03c5dc741b38bdc23b4a4ecd, type: 3}
      propertyPath: m_StaticEditorFlags
      value: 4294967295
      objectReference: {fileID: 0}
    - target: {fileID: 100040, guid: 7c9ca87d03c5dc741b38bdc23b4a4ecd, type: 3}
      propertyPath: m_StaticEditorFlags
      value: 4294967295
      objectReference: {fileID: 0}
    - target: {fileID: 100042, guid: 7c9ca87d03c5dc741b38bdc23b4a4ecd, type: 3}
      propertyPath: m_IsActive
      value: 0
      objectReference: {fileID: 0}
    - target: {fileID: 100042, guid: 7c9ca87d03c5dc741b38bdc23b4a4ecd, type: 3}
      propertyPath: m_StaticEditorFlags
      value: 4294967295
      objectReference: {fileID: 0}
    - target: {fileID: 100044, guid: 7c9ca87d03c5dc741b38bdc23b4a4ecd, type: 3}
      propertyPath: m_IsActive
      value: 1
      objectReference: {fileID: 0}
    - target: {fileID: 100044, guid: 7c9ca87d03c5dc741b38bdc23b4a4ecd, type: 3}
      propertyPath: m_StaticEditorFlags
      value: 4294967295
      objectReference: {fileID: 0}
    - target: {fileID: 400002, guid: 7c9ca87d03c5dc741b38bdc23b4a4ecd, type: 3}
      propertyPath: m_RootOrder
      value: 0
      objectReference: {fileID: 0}
    - target: {fileID: 400002, guid: 7c9ca87d03c5dc741b38bdc23b4a4ecd, type: 3}
      propertyPath: m_LocalPosition.x
      value: 0.00000023841858
      objectReference: {fileID: 0}
    - target: {fileID: 400002, guid: 7c9ca87d03c5dc741b38bdc23b4a4ecd, type: 3}
      propertyPath: m_LocalPosition.y
      value: -0.00000333786
      objectReference: {fileID: 0}
    - target: {fileID: 400002, guid: 7c9ca87d03c5dc741b38bdc23b4a4ecd, type: 3}
      propertyPath: m_LocalPosition.z
      value: -10.003194
      objectReference: {fileID: 0}
    - target: {fileID: 400002, guid: 7c9ca87d03c5dc741b38bdc23b4a4ecd, type: 3}
      propertyPath: m_LocalRotation.w
      value: 1
      objectReference: {fileID: 0}
    - target: {fileID: 400002, guid: 7c9ca87d03c5dc741b38bdc23b4a4ecd, type: 3}
      propertyPath: m_LocalRotation.x
      value: -0
      objectReference: {fileID: 0}
    - target: {fileID: 400002, guid: 7c9ca87d03c5dc741b38bdc23b4a4ecd, type: 3}
      propertyPath: m_LocalRotation.y
      value: -0
      objectReference: {fileID: 0}
    - target: {fileID: 400002, guid: 7c9ca87d03c5dc741b38bdc23b4a4ecd, type: 3}
      propertyPath: m_LocalRotation.z
      value: -0
      objectReference: {fileID: 0}
    - target: {fileID: 400002, guid: 7c9ca87d03c5dc741b38bdc23b4a4ecd, type: 3}
      propertyPath: m_LocalEulerAnglesHint.x
      value: 0
      objectReference: {fileID: 0}
    - target: {fileID: 400002, guid: 7c9ca87d03c5dc741b38bdc23b4a4ecd, type: 3}
      propertyPath: m_LocalEulerAnglesHint.y
      value: 0
      objectReference: {fileID: 0}
    - target: {fileID: 400002, guid: 7c9ca87d03c5dc741b38bdc23b4a4ecd, type: 3}
      propertyPath: m_LocalEulerAnglesHint.z
      value: 0
      objectReference: {fileID: 0}
    - target: {fileID: 20500000, guid: 7c9ca87d03c5dc741b38bdc23b4a4ecd, type: 3}
      propertyPath: m_Enabled
      value: 0
      objectReference: {fileID: 0}
    - target: {fileID: 20500000, guid: 7c9ca87d03c5dc741b38bdc23b4a4ecd, type: 3}
      propertyPath: m_LODs.Array.data[0].screenRelativeHeight
      value: 0.40326825
      objectReference: {fileID: 0}
    - target: {fileID: 20500000, guid: 7c9ca87d03c5dc741b38bdc23b4a4ecd, type: 3}
      propertyPath: m_LODs.Array.data[1].screenRelativeHeight
      value: 0.102934055
      objectReference: {fileID: 0}
    m_RemovedComponents:
    - {fileID: 3300030, guid: 7c9ca87d03c5dc741b38bdc23b4a4ecd, type: 3}
    - {fileID: 2300030, guid: 7c9ca87d03c5dc741b38bdc23b4a4ecd, type: 3}
  m_SourcePrefab: {fileID: 100100000, guid: 7c9ca87d03c5dc741b38bdc23b4a4ecd, type: 3}
--- !u!1 &7313203480836962910 stripped
GameObject:
  m_CorrespondingSourceObject: {fileID: 100032, guid: 7c9ca87d03c5dc741b38bdc23b4a4ecd, type: 3}
  m_PrefabInstance: {fileID: 7313203480836865182}
  m_PrefabAsset: {fileID: 0}
--- !u!64 &8663261511672818614
MeshCollider:
  m_ObjectHideFlags: 0
  m_CorrespondingSourceObject: {fileID: 0}
  m_PrefabInstance: {fileID: 0}
  m_PrefabAsset: {fileID: 0}
  m_GameObject: {fileID: 7313203480836962910}
  m_Material: {fileID: 0}
  m_IsTrigger: 0
  m_Enabled: 1
  serializedVersion: 4
  m_Convex: 0
  m_CookingOptions: 30
  m_Mesh: {fileID: 4300030, guid: 7c9ca87d03c5dc741b38bdc23b4a4ecd, type: 3}
