%YAML 1.1
%TAG !u! tag:unity3d.com,2011:
--- !u!64 &8319112434643970864
MeshCollider:
  m_ObjectHideFlags: 0
  m_CorrespondingSourceObject: {fileID: 0}
  m_PrefabInstance: {fileID: 0}
  m_PrefabAsset: {fileID: 0}
  m_GameObject: {fileID: 3312206709465020095}
  m_Material: {fileID: 0}
  m_IsTrigger: 0
  m_Enabled: 1
  serializedVersion: 3
  m_Convex: 0
  m_CookingOptions: 14
  m_Mesh: {fileID: 4300018, guid: 9cc375e419cd38d4abac3718141d5cc2, type: 3}
--- !u!1001 &3312206709464920073
PrefabInstance:
  m_ObjectHideFlags: 0
  serializedVersion: 2
  m_Modification:
    m_TransformParent: {fileID: 0}
    m_Modifications:
    - target: {fileID: 100004, guid: 9cc375e419cd38d4abac3718141d5cc2, type: 3}
      propertyPath: m_Name
      value: IndustrialUnit_02_Start_01_Prefab
      objectReference: {fileID: 0}
    - target: {fileID: 100014, guid: 9cc375e419cd38d4abac3718141d5cc2, type: 3}
      propertyPath: m_StaticEditorFlags
      value: 66
      objectReference: {fileID: 0}
    - target: {fileID: 100016, guid: 9cc375e419cd38d4abac3718141d5cc2, type: 3}
      propertyPath: m_StaticEditorFlags
      value: 66
      objectReference: {fileID: 0}
    - target: {fileID: 100018, guid: 9cc375e419cd38d4abac3718141d5cc2, type: 3}
      propertyPath: m_StaticEditorFlags
      value: 67
      objectReference: {fileID: 0}
    - target: {fileID: 100026, guid: 9cc375e419cd38d4abac3718141d5cc2, type: 3}
      propertyPath: m_StaticEditorFlags
      value: 80
      objectReference: {fileID: 0}
    - target: {fileID: 100028, guid: 9cc375e419cd38d4abac3718141d5cc2, type: 3}
      propertyPath: m_StaticEditorFlags
      value: 80
      objectReference: {fileID: 0}
    - target: {fileID: 400004, guid: 9cc375e419cd38d4abac3718141d5cc2, type: 3}
      propertyPath: m_LocalPosition.x
      value: 0
      objectReference: {fileID: 0}
    - target: {fileID: 400004, guid: 9cc375e419cd38d4abac3718141d5cc2, type: 3}
      propertyPath: m_LocalPosition.y
      value: 0
      objectReference: {fileID: 0}
    - target: {fileID: 400004, guid: 9cc375e419cd38d4abac3718141d5cc2, type: 3}
      propertyPath: m_LocalPosition.z
      value: 0
      objectReference: {fileID: 0}
    - target: {fileID: 400004, guid: 9cc375e419cd38d4abac3718141d5cc2, type: 3}
      propertyPath: m_LocalRotation.x
      value: 0
      objectReference: {fileID: 0}
    - target: {fileID: 400004, guid: 9cc375e419cd38d4abac3718141d5cc2, type: 3}
      propertyPath: m_LocalRotation.y
      value: 0
      objectReference: {fileID: 0}
    - target: {fileID: 400004, guid: 9cc375e419cd38d4abac3718141d5cc2, type: 3}
      propertyPath: m_LocalRotation.z
      value: 0
      objectReference: {fileID: 0}
    - target: {fileID: 400004, guid: 9cc375e419cd38d4abac3718141d5cc2, type: 3}
      propertyPath: m_LocalRotation.w
      value: 1
      objectReference: {fileID: 0}
    - target: {fileID: 400004, guid: 9cc375e419cd38d4abac3718141d5cc2, type: 3}
      propertyPath: m_RootOrder
      value: 0
      objectReference: {fileID: 0}
    - target: {fileID: 400004, guid: 9cc375e419cd38d4abac3718141d5cc2, type: 3}
      propertyPath: m_LocalEulerAnglesHint.x
      value: 0
      objectReference: {fileID: 0}
    - target: {fileID: 400004, guid: 9cc375e419cd38d4abac3718141d5cc2, type: 3}
      propertyPath: m_LocalEulerAnglesHint.y
      value: 0
      objectReference: {fileID: 0}
    - target: {fileID: 400004, guid: 9cc375e419cd38d4abac3718141d5cc2, type: 3}
      propertyPath: m_LocalEulerAnglesHint.z
      value: 0
      objectReference: {fileID: 0}
    - target: {fileID: 20500000, guid: 9cc375e419cd38d4abac3718141d5cc2, type: 3}
      propertyPath: m_LODs.Array.data[0].screenRelativeHeight
      value: 0.80181605
      objectReference: {fileID: 0}
    - target: {fileID: 20500000, guid: 9cc375e419cd38d4abac3718141d5cc2, type: 3}
      propertyPath: m_LODs.Array.data[1].screenRelativeHeight
      value: 0.101399995
      objectReference: {fileID: 0}
    m_RemovedComponents:
    - {fileID: 3300018, guid: 9cc375e419cd38d4abac3718141d5cc2, type: 3}
    - {fileID: 2300018, guid: 9cc375e419cd38d4abac3718141d5cc2, type: 3}
  m_SourcePrefab: {fileID: 100100000, guid: 9cc375e419cd38d4abac3718141d5cc2, type: 3}
--- !u!1 &3312206709465020095 stripped
GameObject:
  m_CorrespondingSourceObject: {fileID: 100022, guid: 9cc375e419cd38d4abac3718141d5cc2,
    type: 3}
  m_PrefabInstance: {fileID: 3312206709464920073}
  m_PrefabAsset: {fileID: 0}
