%YAML 1.1
%TAG !u! tag:unity3d.com,2011:
--- !u!1001 &3959498701553032474
PrefabInstance:
  m_ObjectHideFlags: 0
  serializedVersion: 2
  m_Modification:
    m_TransformParent: {fileID: 0}
    m_Modifications:
    - target: {fileID: 100002, guid: f7468d8c1df794947b5e039f1caba4b5, type: 3}
      propertyPath: m_Name
      value: IndustrialUnit_Platform_End_01_Prefab
      objectReference: {fileID: 0}
    - target: {fileID: 100002, guid: f7468d8c1df794947b5e039f1caba4b5, type: 3}
      propertyPath: m_StaticEditorFlags
      value: 4294967295
      objectReference: {fileID: 0}
    - target: {fileID: 100004, guid: f7468d8c1df794947b5e039f1caba4b5, type: 3}
      propertyPath: m_StaticEditorFlags
      value: 4294967295
      objectReference: {fileID: 0}
    - target: {fileID: 100008, guid: f7468d8c1df794947b5e039f1caba4b5, type: 3}
      propertyPath: m_StaticEditorFlags
      value: 4294967295
      objectReference: {fileID: 0}
    - target: {fileID: 400002, guid: f7468d8c1df794947b5e039f1caba4b5, type: 3}
      propertyPath: m_RootOrder
      value: 0
      objectReference: {fileID: 0}
    - target: {fileID: 400002, guid: f7468d8c1df794947b5e039f1caba4b5, type: 3}
      propertyPath: m_LocalPosition.x
      value: 0
      objectReference: {fileID: 0}
    - target: {fileID: 400002, guid: f7468d8c1df794947b5e039f1caba4b5, type: 3}
      propertyPath: m_LocalPosition.y
      value: 0
      objectReference: {fileID: 0}
    - target: {fileID: 400002, guid: f7468d8c1df794947b5e039f1caba4b5, type: 3}
      propertyPath: m_LocalPosition.z
      value: 0
      objectReference: {fileID: 0}
    - target: {fileID: 400002, guid: f7468d8c1df794947b5e039f1caba4b5, type: 3}
      propertyPath: m_LocalRotation.w
      value: 1
      objectReference: {fileID: 0}
    - target: {fileID: 400002, guid: f7468d8c1df794947b5e039f1caba4b5, type: 3}
      propertyPath: m_LocalRotation.x
      value: -0
      objectReference: {fileID: 0}
    - target: {fileID: 400002, guid: f7468d8c1df794947b5e039f1caba4b5, type: 3}
      propertyPath: m_LocalRotation.y
      value: -0
      objectReference: {fileID: 0}
    - target: {fileID: 400002, guid: f7468d8c1df794947b5e039f1caba4b5, type: 3}
      propertyPath: m_LocalRotation.z
      value: -0
      objectReference: {fileID: 0}
    - target: {fileID: 400002, guid: f7468d8c1df794947b5e039f1caba4b5, type: 3}
      propertyPath: m_LocalEulerAnglesHint.x
      value: 0
      objectReference: {fileID: 0}
    - target: {fileID: 400002, guid: f7468d8c1df794947b5e039f1caba4b5, type: 3}
      propertyPath: m_LocalEulerAnglesHint.y
      value: 0
      objectReference: {fileID: 0}
    - target: {fileID: 400002, guid: f7468d8c1df794947b5e039f1caba4b5, type: 3}
      propertyPath: m_LocalEulerAnglesHint.z
      value: 0
      objectReference: {fileID: 0}
    m_RemovedComponents:
    - {fileID: 3300006, guid: f7468d8c1df794947b5e039f1caba4b5, type: 3}
    - {fileID: 2300006, guid: f7468d8c1df794947b5e039f1caba4b5, type: 3}
  m_SourcePrefab: {fileID: 100100000, guid: f7468d8c1df794947b5e039f1caba4b5, type: 3}
--- !u!1 &3959498701553130424 stripped
GameObject:
  m_CorrespondingSourceObject: {fileID: 100002, guid: f7468d8c1df794947b5e039f1caba4b5, type: 3}
  m_PrefabInstance: {fileID: 3959498701553032474}
  m_PrefabAsset: {fileID: 0}
--- !u!1 &3959498701553130418 stripped
GameObject:
  m_CorrespondingSourceObject: {fileID: 100008, guid: f7468d8c1df794947b5e039f1caba4b5, type: 3}
  m_PrefabInstance: {fileID: 3959498701553032474}
  m_PrefabAsset: {fileID: 0}
--- !u!23 &3959498701551125880 stripped
MeshRenderer:
  m_CorrespondingSourceObject: {fileID: 2300002, guid: f7468d8c1df794947b5e039f1caba4b5, type: 3}
  m_PrefabInstance: {fileID: 3959498701553032474}
  m_PrefabAsset: {fileID: 0}
--- !u!64 &4903439328630709646
MeshCollider:
  m_ObjectHideFlags: 0
  m_CorrespondingSourceObject: {fileID: 0}
  m_PrefabInstance: {fileID: 0}
  m_PrefabAsset: {fileID: 0}
  m_GameObject: {fileID: 3959498701553130418}
  m_Material: {fileID: 0}
  m_IsTrigger: 0
  m_Enabled: 1
  serializedVersion: 4
  m_Convex: 0
  m_CookingOptions: 30
  m_Mesh: {fileID: 4300006, guid: f7468d8c1df794947b5e039f1caba4b5, type: 3}
--- !u!205 &2504918428964667864
LODGroup:
  m_ObjectHideFlags: 0
  m_CorrespondingSourceObject: {fileID: 0}
  m_PrefabInstance: {fileID: 0}
  m_PrefabAsset: {fileID: 0}
  m_GameObject: {fileID: 3959498701553130424}
  serializedVersion: 2
  m_LocalReferencePoint: {x: -1, y: 0.25, z: 0.34999752}
  m_Size: 2
  m_FadeMode: 0
  m_AnimateCrossFading: 0
  m_LastLODIsBillboard: 0
  m_LODs:
  - screenRelativeHeight: 0.028162995
    fadeTransitionWidth: 0
    renderers:
    - renderer: {fileID: 3959498701551125880}
  m_Enabled: 0
