%YAML 1.1
%TAG !u! tag:unity3d.com,2011:
--- !u!1001 &8689694626367913898
PrefabInstance:
  m_ObjectHideFlags: 0
  serializedVersion: 2
  m_Modification:
    m_TransformParent: {fileID: 0}
    m_Modifications:
    - target: {fileID: 100002, guid: 7a165ce545c24b6468b2847585ee2c8d, type: 3}
      propertyPath: m_Name
      value: IndustrialUnit_GarageDoor_02_Prefab
      objectReference: {fileID: 0}
    - target: {fileID: 100002, guid: 7a165ce545c24b6468b2847585ee2c8d, type: 3}
      propertyPath: m_StaticEditorFlags
      value: 4294967295
      objectReference: {fileID: 0}
    - target: {fileID: 100016, guid: 7a165ce545c24b6468b2847585ee2c8d, type: 3}
      propertyPath: m_IsActive
      value: 0
      objectReference: {fileID: 0}
    - target: {fileID: 100016, guid: 7a165ce545c24b6468b2847585ee2c8d, type: 3}
      propertyPath: m_StaticEditorFlags
      value: 4294967295
      objectReference: {fileID: 0}
    - target: {fileID: 100018, guid: 7a165ce545c24b6468b2847585ee2c8d, type: 3}
      propertyPath: m_IsActive
      value: 0
      objectReference: {fileID: 0}
    - target: {fileID: 100018, guid: 7a165ce545c24b6468b2847585ee2c8d, type: 3}
      propertyPath: m_StaticEditorFlags
      value: 4294967295
      objectReference: {fileID: 0}
    - target: {fileID: 100020, guid: 7a165ce545c24b6468b2847585ee2c8d, type: 3}
      propertyPath: m_IsActive
      value: 0
      objectReference: {fileID: 0}
    - target: {fileID: 100020, guid: 7a165ce545c24b6468b2847585ee2c8d, type: 3}
      propertyPath: m_StaticEditorFlags
      value: 4294967295
      objectReference: {fileID: 0}
    - target: {fileID: 100022, guid: 7a165ce545c24b6468b2847585ee2c8d, type: 3}
      propertyPath: m_StaticEditorFlags
      value: 4294967295
      objectReference: {fileID: 0}
    - target: {fileID: 100024, guid: 7a165ce545c24b6468b2847585ee2c8d, type: 3}
      propertyPath: m_IsActive
      value: 0
      objectReference: {fileID: 0}
    - target: {fileID: 100024, guid: 7a165ce545c24b6468b2847585ee2c8d, type: 3}
      propertyPath: m_StaticEditorFlags
      value: 4294967295
      objectReference: {fileID: 0}
    - target: {fileID: 100026, guid: 7a165ce545c24b6468b2847585ee2c8d, type: 3}
      propertyPath: m_IsActive
      value: 0
      objectReference: {fileID: 0}
    - target: {fileID: 100026, guid: 7a165ce545c24b6468b2847585ee2c8d, type: 3}
      propertyPath: m_StaticEditorFlags
      value: 4294967295
      objectReference: {fileID: 0}
    - target: {fileID: 100028, guid: 7a165ce545c24b6468b2847585ee2c8d, type: 3}
      propertyPath: m_StaticEditorFlags
      value: 4294967295
      objectReference: {fileID: 0}
    - target: {fileID: 400002, guid: 7a165ce545c24b6468b2847585ee2c8d, type: 3}
      propertyPath: m_RootOrder
      value: 0
      objectReference: {fileID: 0}
    - target: {fileID: 400002, guid: 7a165ce545c24b6468b2847585ee2c8d, type: 3}
      propertyPath: m_LocalPosition.x
      value: 0.0000019073486
      objectReference: {fileID: 0}
    - target: {fileID: 400002, guid: 7a165ce545c24b6468b2847585ee2c8d, type: 3}
      propertyPath: m_LocalPosition.y
      value: 2.25
      objectReference: {fileID: 0}
    - target: {fileID: 400002, guid: 7a165ce545c24b6468b2847585ee2c8d, type: 3}
      propertyPath: m_LocalPosition.z
      value: -26.25
      objectReference: {fileID: 0}
    - target: {fileID: 400002, guid: 7a165ce545c24b6468b2847585ee2c8d, type: 3}
      propertyPath: m_LocalRotation.w
      value: 1
      objectReference: {fileID: 0}
    - target: {fileID: 400002, guid: 7a165ce545c24b6468b2847585ee2c8d, type: 3}
      propertyPath: m_LocalRotation.x
      value: -0
      objectReference: {fileID: 0}
    - target: {fileID: 400002, guid: 7a165ce545c24b6468b2847585ee2c8d, type: 3}
      propertyPath: m_LocalRotation.y
      value: -0
      objectReference: {fileID: 0}
    - target: {fileID: 400002, guid: 7a165ce545c24b6468b2847585ee2c8d, type: 3}
      propertyPath: m_LocalRotation.z
      value: -0
      objectReference: {fileID: 0}
    - target: {fileID: 400002, guid: 7a165ce545c24b6468b2847585ee2c8d, type: 3}
      propertyPath: m_LocalEulerAnglesHint.x
      value: 0
      objectReference: {fileID: 0}
    - target: {fileID: 400002, guid: 7a165ce545c24b6468b2847585ee2c8d, type: 3}
      propertyPath: m_LocalEulerAnglesHint.y
      value: 0
      objectReference: {fileID: 0}
    - target: {fileID: 400002, guid: 7a165ce545c24b6468b2847585ee2c8d, type: 3}
      propertyPath: m_LocalEulerAnglesHint.z
      value: 0
      objectReference: {fileID: 0}
    - target: {fileID: 20500000, guid: 7a165ce545c24b6468b2847585ee2c8d, type: 3}
      propertyPath: m_Enabled
      value: 0
      objectReference: {fileID: 0}
    - target: {fileID: 20500000, guid: 7a165ce545c24b6468b2847585ee2c8d, type: 3}
      propertyPath: m_LODs.Array.data[0].screenRelativeHeight
      value: 0.49950343
      objectReference: {fileID: 0}
    - target: {fileID: 20500000, guid: 7a165ce545c24b6468b2847585ee2c8d, type: 3}
      propertyPath: m_LODs.Array.data[1].screenRelativeHeight
      value: 0.20487215
      objectReference: {fileID: 0}
    m_RemovedComponents:
    - {fileID: 3300014, guid: 7a165ce545c24b6468b2847585ee2c8d, type: 3}
    - {fileID: 2300014, guid: 7a165ce545c24b6468b2847585ee2c8d, type: 3}
  m_SourcePrefab: {fileID: 100100000, guid: 7a165ce545c24b6468b2847585ee2c8d, type: 3}
--- !u!1 &8689694626367813914 stripped
GameObject:
  m_CorrespondingSourceObject: {fileID: 100016, guid: 7a165ce545c24b6468b2847585ee2c8d, type: 3}
  m_PrefabInstance: {fileID: 8689694626367913898}
  m_PrefabAsset: {fileID: 0}
--- !u!64 &2375387212676796287
MeshCollider:
  m_ObjectHideFlags: 0
  m_CorrespondingSourceObject: {fileID: 0}
  m_PrefabInstance: {fileID: 0}
  m_PrefabAsset: {fileID: 0}
  m_GameObject: {fileID: 8689694626367813914}
  m_Material: {fileID: 0}
  m_IsTrigger: 0
  m_Enabled: 1
  serializedVersion: 4
  m_Convex: 0
  m_CookingOptions: 30
  m_Mesh: {fileID: 4300014, guid: 7a165ce545c24b6468b2847585ee2c8d, type: 3}
--- !u!64 &2489110916986779509
MeshCollider:
  m_ObjectHideFlags: 0
  m_CorrespondingSourceObject: {fileID: 0}
  m_PrefabInstance: {fileID: 0}
  m_PrefabAsset: {fileID: 0}
  m_GameObject: {fileID: 8689694626367813914}
  m_Material: {fileID: 0}
  m_IsTrigger: 0
  m_Enabled: 1
  serializedVersion: 4
  m_Convex: 0
  m_CookingOptions: 30
  m_Mesh: {fileID: 4300014, guid: 7a165ce545c24b6468b2847585ee2c8d, type: 3}
--- !u!64 &6757660109331967518
MeshCollider:
  m_ObjectHideFlags: 0
  m_CorrespondingSourceObject: {fileID: 0}
  m_PrefabInstance: {fileID: 0}
  m_PrefabAsset: {fileID: 0}
  m_GameObject: {fileID: 8689694626367813914}
  m_Material: {fileID: 0}
  m_IsTrigger: 0
  m_Enabled: 1
  serializedVersion: 4
  m_Convex: 0
  m_CookingOptions: 30
  m_Mesh: {fileID: 4300014, guid: 7a165ce545c24b6468b2847585ee2c8d, type: 3}
--- !u!64 &7883205908801794619
MeshCollider:
  m_ObjectHideFlags: 0
  m_CorrespondingSourceObject: {fileID: 0}
  m_PrefabInstance: {fileID: 0}
  m_PrefabAsset: {fileID: 0}
  m_GameObject: {fileID: 8689694626367813914}
  m_Material: {fileID: 0}
  m_IsTrigger: 0
  m_Enabled: 1
  serializedVersion: 4
  m_Convex: 0
  m_CookingOptions: 30
  m_Mesh: {fileID: 4300014, guid: 7a165ce545c24b6468b2847585ee2c8d, type: 3}
