%YAML 1.1
%TAG !u! tag:unity3d.com,2011:
--- !u!1001 &7806679162211915499
PrefabInstance:
  m_ObjectHideFlags: 0
  serializedVersion: 2
  m_Modification:
    m_TransformParent: {fileID: 0}
    m_Modifications:
    - target: {fileID: 100002, guid: 8df3b6ceb4ea69245a8c064e9adf6542, type: 3}
      propertyPath: m_Name
      value: IndustrialUnit_01_Start_02_Prefab
      objectReference: {fileID: 0}
    - target: {fileID: 100002, guid: 8df3b6ceb4ea69245a8c064e9adf6542, type: 3}
      propertyPath: m_StaticEditorFlags
      value: 4294967295
      objectReference: {fileID: 0}
    - target: {fileID: 100020, guid: 8df3b6ceb4ea69245a8c064e9adf6542, type: 3}
      propertyPath: m_IsActive
      value: 0
      objectReference: {fileID: 0}
    - target: {fileID: 100020, guid: 8df3b6ceb4ea69245a8c064e9adf6542, type: 3}
      propertyPath: m_StaticEditorFlags
      value: 4294967295
      objectReference: {fileID: 0}
    - target: {fileID: 100022, guid: 8df3b6ceb4ea69245a8c064e9adf6542, type: 3}
      propertyPath: m_IsActive
      value: 0
      objectReference: {fileID: 0}
    - target: {fileID: 100022, guid: 8df3b6ceb4ea69245a8c064e9adf6542, type: 3}
      propertyPath: m_StaticEditorFlags
      value: 4294967295
      objectReference: {fileID: 0}
    - target: {fileID: 100024, guid: 8df3b6ceb4ea69245a8c064e9adf6542, type: 3}
      propertyPath: m_StaticEditorFlags
      value: 4294967295
      objectReference: {fileID: 0}
    - target: {fileID: 100030, guid: 8df3b6ceb4ea69245a8c064e9adf6542, type: 3}
      propertyPath: m_IsActive
      value: 0
      objectReference: {fileID: 0}
    - target: {fileID: 100030, guid: 8df3b6ceb4ea69245a8c064e9adf6542, type: 3}
      propertyPath: m_StaticEditorFlags
      value: 4294967295
      objectReference: {fileID: 0}
    - target: {fileID: 100092, guid: 8df3b6ceb4ea69245a8c064e9adf6542, type: 3}
      propertyPath: m_IsActive
      value: 0
      objectReference: {fileID: 0}
    - target: {fileID: 100092, guid: 8df3b6ceb4ea69245a8c064e9adf6542, type: 3}
      propertyPath: m_StaticEditorFlags
      value: 4294967295
      objectReference: {fileID: 0}
    - target: {fileID: 100094, guid: 8df3b6ceb4ea69245a8c064e9adf6542, type: 3}
      propertyPath: m_IsActive
      value: 0
      objectReference: {fileID: 0}
    - target: {fileID: 100094, guid: 8df3b6ceb4ea69245a8c064e9adf6542, type: 3}
      propertyPath: m_StaticEditorFlags
      value: 4294967295
      objectReference: {fileID: 0}
    - target: {fileID: 100096, guid: 8df3b6ceb4ea69245a8c064e9adf6542, type: 3}
      propertyPath: m_IsActive
      value: 0
      objectReference: {fileID: 0}
    - target: {fileID: 100096, guid: 8df3b6ceb4ea69245a8c064e9adf6542, type: 3}
      propertyPath: m_StaticEditorFlags
      value: 4294967295
      objectReference: {fileID: 0}
    - target: {fileID: 100098, guid: 8df3b6ceb4ea69245a8c064e9adf6542, type: 3}
      propertyPath: m_StaticEditorFlags
      value: 4294967295
      objectReference: {fileID: 0}
    - target: {fileID: 100100, guid: 8df3b6ceb4ea69245a8c064e9adf6542, type: 3}
      propertyPath: m_StaticEditorFlags
      value: 4294967295
      objectReference: {fileID: 0}
    - target: {fileID: 400004, guid: 8df3b6ceb4ea69245a8c064e9adf6542, type: 3}
      propertyPath: m_RootOrder
      value: 0
      objectReference: {fileID: 0}
    - target: {fileID: 400004, guid: 8df3b6ceb4ea69245a8c064e9adf6542, type: 3}
      propertyPath: m_LocalPosition.x
      value: 0.0000019073486
      objectReference: {fileID: 0}
    - target: {fileID: 400004, guid: 8df3b6ceb4ea69245a8c064e9adf6542, type: 3}
      propertyPath: m_LocalPosition.y
      value: 0
      objectReference: {fileID: 0}
    - target: {fileID: 400004, guid: 8df3b6ceb4ea69245a8c064e9adf6542, type: 3}
      propertyPath: m_LocalPosition.z
      value: -30.000004
      objectReference: {fileID: 0}
    - target: {fileID: 400004, guid: 8df3b6ceb4ea69245a8c064e9adf6542, type: 3}
      propertyPath: m_LocalRotation.w
      value: 1
      objectReference: {fileID: 0}
    - target: {fileID: 400004, guid: 8df3b6ceb4ea69245a8c064e9adf6542, type: 3}
      propertyPath: m_LocalRotation.x
      value: -0
      objectReference: {fileID: 0}
    - target: {fileID: 400004, guid: 8df3b6ceb4ea69245a8c064e9adf6542, type: 3}
      propertyPath: m_LocalRotation.y
      value: -0
      objectReference: {fileID: 0}
    - target: {fileID: 400004, guid: 8df3b6ceb4ea69245a8c064e9adf6542, type: 3}
      propertyPath: m_LocalRotation.z
      value: -0
      objectReference: {fileID: 0}
    - target: {fileID: 400004, guid: 8df3b6ceb4ea69245a8c064e9adf6542, type: 3}
      propertyPath: m_LocalEulerAnglesHint.x
      value: 0
      objectReference: {fileID: 0}
    - target: {fileID: 400004, guid: 8df3b6ceb4ea69245a8c064e9adf6542, type: 3}
      propertyPath: m_LocalEulerAnglesHint.y
      value: 0
      objectReference: {fileID: 0}
    - target: {fileID: 400004, guid: 8df3b6ceb4ea69245a8c064e9adf6542, type: 3}
      propertyPath: m_LocalEulerAnglesHint.z
      value: 0
      objectReference: {fileID: 0}
    - target: {fileID: 20500000, guid: 8df3b6ceb4ea69245a8c064e9adf6542, type: 3}
      propertyPath: m_Enabled
      value: 0
      objectReference: {fileID: 0}
    - target: {fileID: 20500000, guid: 8df3b6ceb4ea69245a8c064e9adf6542, type: 3}
      propertyPath: m_LODs.Array.data[0].screenRelativeHeight
      value: 0.39948118
      objectReference: {fileID: 0}
    - target: {fileID: 20500000, guid: 8df3b6ceb4ea69245a8c064e9adf6542, type: 3}
      propertyPath: m_LODs.Array.data[1].screenRelativeHeight
      value: 0.102934055
      objectReference: {fileID: 0}
    m_RemovedComponents:
    - {fileID: 3300028, guid: 8df3b6ceb4ea69245a8c064e9adf6542, type: 3}
    - {fileID: 2300028, guid: 8df3b6ceb4ea69245a8c064e9adf6542, type: 3}
  m_SourcePrefab: {fileID: 100100000, guid: 8df3b6ceb4ea69245a8c064e9adf6542, type: 3}
--- !u!1 &7806679162211815509 stripped
GameObject:
  m_CorrespondingSourceObject: {fileID: 100030, guid: 8df3b6ceb4ea69245a8c064e9adf6542, type: 3}
  m_PrefabInstance: {fileID: 7806679162211915499}
  m_PrefabAsset: {fileID: 0}
--- !u!64 &7685425755522140000
MeshCollider:
  m_ObjectHideFlags: 0
  m_CorrespondingSourceObject: {fileID: 0}
  m_PrefabInstance: {fileID: 0}
  m_PrefabAsset: {fileID: 0}
  m_GameObject: {fileID: 7806679162211815509}
  m_Material: {fileID: 0}
  m_IsTrigger: 0
  m_Enabled: 1
  serializedVersion: 4
  m_Convex: 0
  m_CookingOptions: 30
  m_Mesh: {fileID: 4300030, guid: 8df3b6ceb4ea69245a8c064e9adf6542, type: 3}
