%YAML 1.1
%TAG !u! tag:unity3d.com,2011:
--- !u!64 &5290765380631746324
MeshCollider:
  m_ObjectHideFlags: 0
  m_CorrespondingSourceObject: {fileID: 0}
  m_PrefabInstance: {fileID: 0}
  m_PrefabAsset: {fileID: 0}
  m_GameObject: {fileID: 539238876864673556}
  m_Material: {fileID: 0}
  m_IsTrigger: 0
  m_Enabled: 1
  serializedVersion: 3
  m_Convex: 0
  m_CookingOptions: 14
  m_Mesh: {fileID: 4300042, guid: 52895adf5adfaf647ace0b0b6dd20178, type: 3}
--- !u!64 &7186226574662031498
MeshCollider:
  m_ObjectHideFlags: 0
  m_CorrespondingSourceObject: {fileID: 0}
  m_PrefabInstance: {fileID: 0}
  m_PrefabAsset: {fileID: 0}
  m_GameObject: {fileID: 539238876864673556}
  m_Material: {fileID: 0}
  m_IsTrigger: 0
  m_Enabled: 1
  serializedVersion: 3
  m_Convex: 0
  m_CookingOptions: 14
  m_Mesh: {fileID: 4300042, guid: 52895adf5adfaf647ace0b0b6dd20178, type: 3}
--- !u!1001 &539238876864639448
PrefabInstance:
  m_ObjectHideFlags: 0
  serializedVersion: 2
  m_Modification:
    m_TransformParent: {fileID: 0}
    m_Modifications:
    - target: {fileID: 100014, guid: 52895adf5adfaf647ace0b0b6dd20178, type: 3}
      propertyPath: m_Name
      value: IndustrialUnit_01_5m_01_Prefab
      objectReference: {fileID: 0}
    - target: {fileID: 100036, guid: 52895adf5adfaf647ace0b0b6dd20178, type: 3}
      propertyPath: m_StaticEditorFlags
      value: 80
      objectReference: {fileID: 0}
    - target: {fileID: 100038, guid: 52895adf5adfaf647ace0b0b6dd20178, type: 3}
      propertyPath: m_StaticEditorFlags
      value: 67
      objectReference: {fileID: 0}
    - target: {fileID: 100040, guid: 52895adf5adfaf647ace0b0b6dd20178, type: 3}
      propertyPath: m_StaticEditorFlags
      value: 80
      objectReference: {fileID: 0}
    - target: {fileID: 100042, guid: 52895adf5adfaf647ace0b0b6dd20178, type: 3}
      propertyPath: m_StaticEditorFlags
      value: 66
      objectReference: {fileID: 0}
    - target: {fileID: 100048, guid: 52895adf5adfaf647ace0b0b6dd20178, type: 3}
      propertyPath: m_StaticEditorFlags
      value: 66
      objectReference: {fileID: 0}
    - target: {fileID: 100098, guid: 52895adf5adfaf647ace0b0b6dd20178, type: 3}
      propertyPath: m_StaticEditorFlags
      value: 80
      objectReference: {fileID: 0}
    - target: {fileID: 100100, guid: 52895adf5adfaf647ace0b0b6dd20178, type: 3}
      propertyPath: m_StaticEditorFlags
      value: 80
      objectReference: {fileID: 0}
    - target: {fileID: 100102, guid: 52895adf5adfaf647ace0b0b6dd20178, type: 3}
      propertyPath: m_StaticEditorFlags
      value: 80
      objectReference: {fileID: 0}
    - target: {fileID: 400012, guid: 52895adf5adfaf647ace0b0b6dd20178, type: 3}
      propertyPath: m_LocalPosition.x
      value: 0
      objectReference: {fileID: 0}
    - target: {fileID: 400012, guid: 52895adf5adfaf647ace0b0b6dd20178, type: 3}
      propertyPath: m_LocalPosition.y
      value: 0
      objectReference: {fileID: 0}
    - target: {fileID: 400012, guid: 52895adf5adfaf647ace0b0b6dd20178, type: 3}
      propertyPath: m_LocalPosition.z
      value: 0
      objectReference: {fileID: 0}
    - target: {fileID: 400012, guid: 52895adf5adfaf647ace0b0b6dd20178, type: 3}
      propertyPath: m_LocalRotation.x
      value: 0
      objectReference: {fileID: 0}
    - target: {fileID: 400012, guid: 52895adf5adfaf647ace0b0b6dd20178, type: 3}
      propertyPath: m_LocalRotation.y
      value: 0
      objectReference: {fileID: 0}
    - target: {fileID: 400012, guid: 52895adf5adfaf647ace0b0b6dd20178, type: 3}
      propertyPath: m_LocalRotation.z
      value: 0
      objectReference: {fileID: 0}
    - target: {fileID: 400012, guid: 52895adf5adfaf647ace0b0b6dd20178, type: 3}
      propertyPath: m_LocalRotation.w
      value: 1
      objectReference: {fileID: 0}
    - target: {fileID: 400012, guid: 52895adf5adfaf647ace0b0b6dd20178, type: 3}
      propertyPath: m_RootOrder
      value: 0
      objectReference: {fileID: 0}
    - target: {fileID: 400012, guid: 52895adf5adfaf647ace0b0b6dd20178, type: 3}
      propertyPath: m_LocalEulerAnglesHint.x
      value: 0
      objectReference: {fileID: 0}
    - target: {fileID: 400012, guid: 52895adf5adfaf647ace0b0b6dd20178, type: 3}
      propertyPath: m_LocalEulerAnglesHint.y
      value: 0
      objectReference: {fileID: 0}
    - target: {fileID: 400012, guid: 52895adf5adfaf647ace0b0b6dd20178, type: 3}
      propertyPath: m_LocalEulerAnglesHint.z
      value: 0
      objectReference: {fileID: 0}
    - target: {fileID: 20500000, guid: 52895adf5adfaf647ace0b0b6dd20178, type: 3}
      propertyPath: m_LODs.Array.data[0].screenRelativeHeight
      value: 0.40326825
      objectReference: {fileID: 0}
    - target: {fileID: 20500000, guid: 52895adf5adfaf647ace0b0b6dd20178, type: 3}
      propertyPath: m_LODs.Array.data[1].screenRelativeHeight
      value: 0.09912029
      objectReference: {fileID: 0}
    m_RemovedComponents:
    - {fileID: 3300042, guid: 52895adf5adfaf647ace0b0b6dd20178, type: 3}
    - {fileID: 2300042, guid: 52895adf5adfaf647ace0b0b6dd20178, type: 3}
  m_SourcePrefab: {fileID: 100100000, guid: 52895adf5adfaf647ace0b0b6dd20178, type: 3}
--- !u!1 &539238876864673556 stripped
GameObject:
  m_CorrespondingSourceObject: {fileID: 100044, guid: 52895adf5adfaf647ace0b0b6dd20178,
    type: 3}
  m_PrefabInstance: {fileID: 539238876864639448}
  m_PrefabAsset: {fileID: 0}
