%YAML 1.1
%TAG !u! tag:unity3d.com,2011:
--- !u!1001 &1008837274104039457
PrefabInstance:
  m_ObjectHideFlags: 0
  serializedVersion: 2
  m_Modification:
    m_TransformParent: {fileID: 0}
    m_Modifications:
    - target: {fileID: 100000, guid: 1e5d4f21ade47044ab1429c659c0bfce, type: 3}
      propertyPath: m_Name
      value: PortFront_CornerClose_10m_01_Prefab_snaps017 (41)
      objectReference: {fileID: 0}
    - target: {fileID: 100000, guid: 1e5d4f21ade47044ab1429c659c0bfce, type: 3}
      propertyPath: m_StaticEditorFlags
      value: 4294967295
      objectReference: {fileID: 0}
    - target: {fileID: 100032, guid: 1e5d4f21ade47044ab1429c659c0bfce, type: 3}
      propertyPath: m_StaticEditorFlags
      value: 4294967295
      objectReference: {fileID: 0}
    - target: {fileID: 100046, guid: 1e5d4f21ade47044ab1429c659c0bfce, type: 3}
      propertyPath: m_IsActive
      value: 0
      objectReference: {fileID: 0}
    - target: {fileID: 100046, guid: 1e5d4f21ade47044ab1429c659c0bfce, type: 3}
      propertyPath: m_StaticEditorFlags
      value: 4294967295
      objectReference: {fileID: 0}
    - target: {fileID: 100050, guid: 1e5d4f21ade47044ab1429c659c0bfce, type: 3}
      propertyPath: m_IsActive
      value: 0
      objectReference: {fileID: 0}
    - target: {fileID: 100050, guid: 1e5d4f21ade47044ab1429c659c0bfce, type: 3}
      propertyPath: m_StaticEditorFlags
      value: 4294967295
      objectReference: {fileID: 0}
    - target: {fileID: 100052, guid: 1e5d4f21ade47044ab1429c659c0bfce, type: 3}
      propertyPath: m_IsActive
      value: 0
      objectReference: {fileID: 0}
    - target: {fileID: 100052, guid: 1e5d4f21ade47044ab1429c659c0bfce, type: 3}
      propertyPath: m_StaticEditorFlags
      value: 4294967295
      objectReference: {fileID: 0}
    - target: {fileID: 400000, guid: 1e5d4f21ade47044ab1429c659c0bfce, type: 3}
      propertyPath: m_RootOrder
      value: 0
      objectReference: {fileID: 0}
    - target: {fileID: 400000, guid: 1e5d4f21ade47044ab1429c659c0bfce, type: 3}
      propertyPath: m_LocalScale.x
      value: 0.25
      objectReference: {fileID: 0}
    - target: {fileID: 400000, guid: 1e5d4f21ade47044ab1429c659c0bfce, type: 3}
      propertyPath: m_LocalScale.y
      value: 0.25
      objectReference: {fileID: 0}
    - target: {fileID: 400000, guid: 1e5d4f21ade47044ab1429c659c0bfce, type: 3}
      propertyPath: m_LocalScale.z
      value: 0.25
      objectReference: {fileID: 0}
    - target: {fileID: 400000, guid: 1e5d4f21ade47044ab1429c659c0bfce, type: 3}
      propertyPath: m_LocalPosition.x
      value: 15.876729
      objectReference: {fileID: 0}
    - target: {fileID: 400000, guid: 1e5d4f21ade47044ab1429c659c0bfce, type: 3}
      propertyPath: m_LocalPosition.y
      value: -0.16999996
      objectReference: {fileID: 0}
    - target: {fileID: 400000, guid: 1e5d4f21ade47044ab1429c659c0bfce, type: 3}
      propertyPath: m_LocalPosition.z
      value: 102.218994
      objectReference: {fileID: 0}
    - target: {fileID: 400000, guid: 1e5d4f21ade47044ab1429c659c0bfce, type: 3}
      propertyPath: m_LocalRotation.w
      value: -1
      objectReference: {fileID: 0}
    - target: {fileID: 400000, guid: 1e5d4f21ade47044ab1429c659c0bfce, type: 3}
      propertyPath: m_LocalRotation.x
      value: -0
      objectReference: {fileID: 0}
    - target: {fileID: 400000, guid: 1e5d4f21ade47044ab1429c659c0bfce, type: 3}
      propertyPath: m_LocalRotation.y
      value: -0.0000059604645
      objectReference: {fileID: 0}
    - target: {fileID: 400000, guid: 1e5d4f21ade47044ab1429c659c0bfce, type: 3}
      propertyPath: m_LocalRotation.z
      value: -0
      objectReference: {fileID: 0}
    - target: {fileID: 400000, guid: 1e5d4f21ade47044ab1429c659c0bfce, type: 3}
      propertyPath: m_LocalEulerAnglesHint.x
      value: 0
      objectReference: {fileID: 0}
    - target: {fileID: 400000, guid: 1e5d4f21ade47044ab1429c659c0bfce, type: 3}
      propertyPath: m_LocalEulerAnglesHint.y
      value: -359.999
      objectReference: {fileID: 0}
    - target: {fileID: 400000, guid: 1e5d4f21ade47044ab1429c659c0bfce, type: 3}
      propertyPath: m_LocalEulerAnglesHint.z
      value: 0
      objectReference: {fileID: 0}
    - target: {fileID: 2300052, guid: 1e5d4f21ade47044ab1429c659c0bfce, type: 3}
      propertyPath: m_CastShadows
      value: 0
      objectReference: {fileID: 0}
    - target: {fileID: 20500000, guid: 1e5d4f21ade47044ab1429c659c0bfce, type: 3}
      propertyPath: m_Enabled
      value: 0
      objectReference: {fileID: 0}
    - target: {fileID: 20500000, guid: 1e5d4f21ade47044ab1429c659c0bfce, type: 3}
      propertyPath: m_LODs.Array.data[0].screenRelativeHeight
      value: 0.054473884
      objectReference: {fileID: 0}
    m_RemovedComponents:
    - {fileID: 3300050, guid: 1e5d4f21ade47044ab1429c659c0bfce, type: 3}
    - {fileID: 2300050, guid: 1e5d4f21ade47044ab1429c659c0bfce, type: 3}
  m_SourcePrefab: {fileID: 100100000, guid: 1e5d4f21ade47044ab1429c659c0bfce, type: 3}
--- !u!1 &1008837274104008435 stripped
GameObject:
  m_CorrespondingSourceObject: {fileID: 100050, guid: 1e5d4f21ade47044ab1429c659c0bfce, type: 3}
  m_PrefabInstance: {fileID: 1008837274104039457}
  m_PrefabAsset: {fileID: 0}
--- !u!64 &4549633372867783443
MeshCollider:
  m_ObjectHideFlags: 0
  m_CorrespondingSourceObject: {fileID: 0}
  m_PrefabInstance: {fileID: 0}
  m_PrefabAsset: {fileID: 0}
  m_GameObject: {fileID: 1008837274104008435}
  m_Material: {fileID: 0}
  m_IsTrigger: 0
  m_Enabled: 1
  serializedVersion: 4
  m_Convex: 0
  m_CookingOptions: 30
  m_Mesh: {fileID: 4300052, guid: 1e5d4f21ade47044ab1429c659c0bfce, type: 3}
