%YAML 1.1
%TAG !u! tag:unity3d.com,2011:
--- !u!64 &6564526612549995563
MeshCollider:
  m_ObjectHideFlags: 0
  m_CorrespondingSourceObject: {fileID: 0}
  m_PrefabInstance: {fileID: 0}
  m_PrefabAsset: {fileID: 0}
  m_GameObject: {fileID: 4937814159882087510}
  m_Material: {fileID: 0}
  m_IsTrigger: 0
  m_Enabled: 1
  serializedVersion: 3
  m_Convex: 0
  m_CookingOptions: 14
  m_Mesh: {fileID: 4300068, guid: bff8f39c47407c44d86b1a9025fb71b1, type: 3}
--- !u!1001 &4937814159882185392
PrefabInstance:
  m_ObjectHideFlags: 0
  serializedVersion: 2
  m_Modification:
    m_TransformParent: {fileID: 0}
    m_Modifications:
    - target: {fileID: 100000, guid: bff8f39c47407c44d86b1a9025fb71b1, type: 3}
      propertyPath: m_Name
      value: PortFront_CornerOpen_20m_02_Prefab
      objectReference: {fileID: 0}
    - target: {fileID: 100072, guid: bff8f39c47407c44d86b1a9025fb71b1, type: 3}
      propertyPath: m_StaticEditorFlags
      value: 80
      objectReference: {fileID: 0}
    - target: {fileID: 100040, guid: bff8f39c47407c44d86b1a9025fb71b1, type: 3}
      propertyPath: m_StaticEditorFlags
      value: 67
      objectReference: {fileID: 0}
    - target: {fileID: 100042, guid: bff8f39c47407c44d86b1a9025fb71b1, type: 3}
      propertyPath: m_StaticEditorFlags
      value: 66
      objectReference: {fileID: 0}
    - target: {fileID: 400000, guid: bff8f39c47407c44d86b1a9025fb71b1, type: 3}
      propertyPath: m_LocalPosition.x
      value: 0
      objectReference: {fileID: 0}
    - target: {fileID: 400000, guid: bff8f39c47407c44d86b1a9025fb71b1, type: 3}
      propertyPath: m_LocalPosition.y
      value: 0
      objectReference: {fileID: 0}
    - target: {fileID: 400000, guid: bff8f39c47407c44d86b1a9025fb71b1, type: 3}
      propertyPath: m_LocalPosition.z
      value: 0
      objectReference: {fileID: 0}
    - target: {fileID: 400000, guid: bff8f39c47407c44d86b1a9025fb71b1, type: 3}
      propertyPath: m_LocalRotation.x
      value: 0
      objectReference: {fileID: 0}
    - target: {fileID: 400000, guid: bff8f39c47407c44d86b1a9025fb71b1, type: 3}
      propertyPath: m_LocalRotation.y
      value: 0
      objectReference: {fileID: 0}
    - target: {fileID: 400000, guid: bff8f39c47407c44d86b1a9025fb71b1, type: 3}
      propertyPath: m_LocalRotation.z
      value: 0
      objectReference: {fileID: 0}
    - target: {fileID: 400000, guid: bff8f39c47407c44d86b1a9025fb71b1, type: 3}
      propertyPath: m_LocalRotation.w
      value: 1
      objectReference: {fileID: 0}
    - target: {fileID: 400000, guid: bff8f39c47407c44d86b1a9025fb71b1, type: 3}
      propertyPath: m_RootOrder
      value: 0
      objectReference: {fileID: 0}
    - target: {fileID: 400000, guid: bff8f39c47407c44d86b1a9025fb71b1, type: 3}
      propertyPath: m_LocalEulerAnglesHint.x
      value: 0
      objectReference: {fileID: 0}
    - target: {fileID: 400000, guid: bff8f39c47407c44d86b1a9025fb71b1, type: 3}
      propertyPath: m_LocalEulerAnglesHint.y
      value: 0
      objectReference: {fileID: 0}
    - target: {fileID: 400000, guid: bff8f39c47407c44d86b1a9025fb71b1, type: 3}
      propertyPath: m_LocalEulerAnglesHint.z
      value: 0
      objectReference: {fileID: 0}
    - target: {fileID: 20500000, guid: bff8f39c47407c44d86b1a9025fb71b1, type: 3}
      propertyPath: m_LODs.Array.data[0].screenRelativeHeight
      value: 0.15049341
      objectReference: {fileID: 0}
    - target: {fileID: 2300068, guid: bff8f39c47407c44d86b1a9025fb71b1, type: 3}
      propertyPath: m_CastShadows
      value: 0
      objectReference: {fileID: 0}
    m_RemovedComponents:
    - {fileID: 3300066, guid: bff8f39c47407c44d86b1a9025fb71b1, type: 3}
    - {fileID: 2300066, guid: bff8f39c47407c44d86b1a9025fb71b1, type: 3}
  m_SourcePrefab: {fileID: 100100000, guid: bff8f39c47407c44d86b1a9025fb71b1, type: 3}
--- !u!1 &4937814159882087510 stripped
GameObject:
  m_CorrespondingSourceObject: {fileID: 100070, guid: bff8f39c47407c44d86b1a9025fb71b1,
    type: 3}
  m_PrefabInstance: {fileID: 4937814159882185392}
  m_PrefabAsset: {fileID: 0}
