%YAML 1.1
%TAG !u! tag:unity3d.com,2011:
--- !u!64 &1000172309865178345
MeshCollider:
  m_ObjectHideFlags: 0
  m_CorrespondingSourceObject: {fileID: 0}
  m_PrefabInstance: {fileID: 0}
  m_PrefabAsset: {fileID: 0}
  m_GameObject: {fileID: 8129849079299440807}
  m_Material: {fileID: 0}
  m_IsTrigger: 0
  m_Enabled: 1
  serializedVersion: 3
  m_Convex: 0
  m_CookingOptions: 14
  m_Mesh: {fileID: 4300012, guid: b25628df5eebcfe479a83aae6721dc13, type: 3}
--- !u!1001 &8129849079299540489
PrefabInstance:
  m_ObjectHideFlags: 0
  serializedVersion: 2
  m_Modification:
    m_TransformParent: {fileID: 0}
    m_Modifications:
    - target: {fileID: 100012, guid: b25628df5eebcfe479a83aae6721dc13, type: 3}
      propertyPath: m_Name
      value: Container_Cargo_12m_Stack_4x4_02_Prefab
      objectReference: {fileID: 0}
    - target: {fileID: 100012, guid: b25628df5eebcfe479a83aae6721dc13, type: 3}
      propertyPath: m_StaticEditorFlags
      value: 66
      objectReference: {fileID: 0}
    - target: {fileID: 100016, guid: b25628df5eebcfe479a83aae6721dc13, type: 3}
      propertyPath: m_StaticEditorFlags
      value: 67
      objectReference: {fileID: 0}
    - target: {fileID: 100018, guid: b25628df5eebcfe479a83aae6721dc13, type: 3}
      propertyPath: m_StaticEditorFlags
      value: 66
      objectReference: {fileID: 0}
    - target: {fileID: 100020, guid: b25628df5eebcfe479a83aae6721dc13, type: 3}
      propertyPath: m_StaticEditorFlags
      value: 66
      objectReference: {fileID: 0}
    - target: {fileID: 100022, guid: b25628df5eebcfe479a83aae6721dc13, type: 3}
      propertyPath: m_StaticEditorFlags
      value: 66
      objectReference: {fileID: 0}
    - target: {fileID: 100024, guid: b25628df5eebcfe479a83aae6721dc13, type: 3}
      propertyPath: m_StaticEditorFlags
      value: 66
      objectReference: {fileID: 0}
    - target: {fileID: 400012, guid: b25628df5eebcfe479a83aae6721dc13, type: 3}
      propertyPath: m_LocalPosition.x
      value: -0
      objectReference: {fileID: 0}
    - target: {fileID: 400012, guid: b25628df5eebcfe479a83aae6721dc13, type: 3}
      propertyPath: m_LocalPosition.y
      value: 0
      objectReference: {fileID: 0}
    - target: {fileID: 400012, guid: b25628df5eebcfe479a83aae6721dc13, type: 3}
      propertyPath: m_LocalPosition.z
      value: 0
      objectReference: {fileID: 0}
    - target: {fileID: 400012, guid: b25628df5eebcfe479a83aae6721dc13, type: 3}
      propertyPath: m_LocalRotation.x
      value: 0
      objectReference: {fileID: 0}
    - target: {fileID: 400012, guid: b25628df5eebcfe479a83aae6721dc13, type: 3}
      propertyPath: m_LocalRotation.y
      value: -0
      objectReference: {fileID: 0}
    - target: {fileID: 400012, guid: b25628df5eebcfe479a83aae6721dc13, type: 3}
      propertyPath: m_LocalRotation.z
      value: -0
      objectReference: {fileID: 0}
    - target: {fileID: 400012, guid: b25628df5eebcfe479a83aae6721dc13, type: 3}
      propertyPath: m_LocalRotation.w
      value: 1
      objectReference: {fileID: 0}
    - target: {fileID: 400012, guid: b25628df5eebcfe479a83aae6721dc13, type: 3}
      propertyPath: m_RootOrder
      value: 0
      objectReference: {fileID: 0}
    - target: {fileID: 400012, guid: b25628df5eebcfe479a83aae6721dc13, type: 3}
      propertyPath: m_LocalEulerAnglesHint.x
      value: 0
      objectReference: {fileID: 0}
    - target: {fileID: 400012, guid: b25628df5eebcfe479a83aae6721dc13, type: 3}
      propertyPath: m_LocalEulerAnglesHint.y
      value: 0
      objectReference: {fileID: 0}
    - target: {fileID: 400012, guid: b25628df5eebcfe479a83aae6721dc13, type: 3}
      propertyPath: m_LocalEulerAnglesHint.z
      value: 0
      objectReference: {fileID: 0}
    - target: {fileID: 20500000, guid: b25628df5eebcfe479a83aae6721dc13, type: 3}
      propertyPath: m_LODs.Array.data[0].screenRelativeHeight
      value: 0.7974449
      objectReference: {fileID: 0}
    - target: {fileID: 20500000, guid: b25628df5eebcfe479a83aae6721dc13, type: 3}
      propertyPath: m_LODs.Array.data[1].screenRelativeHeight
      value: 0.49726993
      objectReference: {fileID: 0}
    - target: {fileID: 20500000, guid: b25628df5eebcfe479a83aae6721dc13, type: 3}
      propertyPath: m_LODs.Array.data[2].screenRelativeHeight
      value: 0.29735467
      objectReference: {fileID: 0}
    - target: {fileID: 20500000, guid: b25628df5eebcfe479a83aae6721dc13, type: 3}
      propertyPath: m_LODs.Array.data[3].screenRelativeHeight
      value: 0.14842448
      objectReference: {fileID: 0}
    - target: {fileID: 100002, guid: b25628df5eebcfe479a83aae6721dc13, type: 3}
      propertyPath: m_StaticEditorFlags
      value: 66
      objectReference: {fileID: 0}
    - target: {fileID: 100004, guid: b25628df5eebcfe479a83aae6721dc13, type: 3}
      propertyPath: m_StaticEditorFlags
      value: 66
      objectReference: {fileID: 0}
    - target: {fileID: 100006, guid: b25628df5eebcfe479a83aae6721dc13, type: 3}
      propertyPath: m_StaticEditorFlags
      value: 66
      objectReference: {fileID: 0}
    - target: {fileID: 100008, guid: b25628df5eebcfe479a83aae6721dc13, type: 3}
      propertyPath: m_StaticEditorFlags
      value: 66
      objectReference: {fileID: 0}
    - target: {fileID: 100010, guid: b25628df5eebcfe479a83aae6721dc13, type: 3}
      propertyPath: m_StaticEditorFlags
      value: 66
      objectReference: {fileID: 0}
    m_RemovedComponents:
    - {fileID: 3300000, guid: b25628df5eebcfe479a83aae6721dc13, type: 3}
    - {fileID: 2300000, guid: b25628df5eebcfe479a83aae6721dc13, type: 3}
    - {fileID: 3300012, guid: b25628df5eebcfe479a83aae6721dc13, type: 3}
    - {fileID: 2300012, guid: b25628df5eebcfe479a83aae6721dc13, type: 3}
  m_SourcePrefab: {fileID: 100100000, guid: b25628df5eebcfe479a83aae6721dc13, type: 3}
--- !u!1 &8129849079299440807 stripped
GameObject:
  m_CorrespondingSourceObject: {fileID: 100014, guid: b25628df5eebcfe479a83aae6721dc13,
    type: 3}
  m_PrefabInstance: {fileID: 8129849079299540489}
  m_PrefabAsset: {fileID: 0}
