%YAML 1.1
%TAG !u! tag:unity3d.com,2011:
--- !u!64 &6705317729037019771
MeshCollider:
  m_ObjectHideFlags: 0
  m_CorrespondingSourceObject: {fileID: 0}
  m_PrefabInstance: {fileID: 0}
  m_PrefabAsset: {fileID: 0}
  m_GameObject: {fileID: 3934540468373963070}
  m_Material: {fileID: 0}
  m_IsTrigger: 0
  m_Enabled: 1
  serializedVersion: 3
  m_Convex: 0
  m_CookingOptions: 14
  m_Mesh: {fileID: 4300000, guid: 6c9e1e81ac04fc34a9468b7f8095cf86, type: 3}
--- !u!1001 &3934540468374063004
PrefabInstance:
  m_ObjectHideFlags: 0
  serializedVersion: 2
  m_Modification:
    m_TransformParent: {fileID: 0}
    m_Modifications:
    - target: {fileID: 100000, guid: 6c9e1e81ac04fc34a9468b7f8095cf86, type: 3}
      propertyPath: m_Name
      value: Container_Cargo_12m_01_Prefab
      objectReference: {fileID: 0}
    - target: {fileID: 100000, guid: 6c9e1e81ac04fc34a9468b7f8095cf86, type: 3}
      propertyPath: m_StaticEditorFlags
      value: 66
      objectReference: {fileID: 0}
    - target: {fileID: 100004, guid: 6c9e1e81ac04fc34a9468b7f8095cf86, type: 3}
      propertyPath: m_StaticEditorFlags
      value: 67
      objectReference: {fileID: 0}
    - target: {fileID: 100006, guid: 6c9e1e81ac04fc34a9468b7f8095cf86, type: 3}
      propertyPath: m_StaticEditorFlags
      value: 66
      objectReference: {fileID: 0}
    - target: {fileID: 100008, guid: 6c9e1e81ac04fc34a9468b7f8095cf86, type: 3}
      propertyPath: m_StaticEditorFlags
      value: 66
      objectReference: {fileID: 0}
    - target: {fileID: 100010, guid: 6c9e1e81ac04fc34a9468b7f8095cf86, type: 3}
      propertyPath: m_StaticEditorFlags
      value: 66
      objectReference: {fileID: 0}
    - target: {fileID: 100012, guid: 6c9e1e81ac04fc34a9468b7f8095cf86, type: 3}
      propertyPath: m_StaticEditorFlags
      value: 66
      objectReference: {fileID: 0}
    - target: {fileID: 400000, guid: 6c9e1e81ac04fc34a9468b7f8095cf86, type: 3}
      propertyPath: m_LocalPosition.x
      value: 0
      objectReference: {fileID: 0}
    - target: {fileID: 400000, guid: 6c9e1e81ac04fc34a9468b7f8095cf86, type: 3}
      propertyPath: m_LocalPosition.y
      value: 0
      objectReference: {fileID: 0}
    - target: {fileID: 400000, guid: 6c9e1e81ac04fc34a9468b7f8095cf86, type: 3}
      propertyPath: m_LocalPosition.z
      value: 0
      objectReference: {fileID: 0}
    - target: {fileID: 400000, guid: 6c9e1e81ac04fc34a9468b7f8095cf86, type: 3}
      propertyPath: m_LocalRotation.x
      value: 0
      objectReference: {fileID: 0}
    - target: {fileID: 400000, guid: 6c9e1e81ac04fc34a9468b7f8095cf86, type: 3}
      propertyPath: m_LocalRotation.y
      value: 0
      objectReference: {fileID: 0}
    - target: {fileID: 400000, guid: 6c9e1e81ac04fc34a9468b7f8095cf86, type: 3}
      propertyPath: m_LocalRotation.z
      value: 0
      objectReference: {fileID: 0}
    - target: {fileID: 400000, guid: 6c9e1e81ac04fc34a9468b7f8095cf86, type: 3}
      propertyPath: m_LocalRotation.w
      value: 1
      objectReference: {fileID: 0}
    - target: {fileID: 400000, guid: 6c9e1e81ac04fc34a9468b7f8095cf86, type: 3}
      propertyPath: m_RootOrder
      value: 0
      objectReference: {fileID: 0}
    - target: {fileID: 400000, guid: 6c9e1e81ac04fc34a9468b7f8095cf86, type: 3}
      propertyPath: m_LocalEulerAnglesHint.x
      value: 0
      objectReference: {fileID: 0}
    - target: {fileID: 400000, guid: 6c9e1e81ac04fc34a9468b7f8095cf86, type: 3}
      propertyPath: m_LocalEulerAnglesHint.y
      value: 0
      objectReference: {fileID: 0}
    - target: {fileID: 400000, guid: 6c9e1e81ac04fc34a9468b7f8095cf86, type: 3}
      propertyPath: m_LocalEulerAnglesHint.z
      value: 0
      objectReference: {fileID: 0}
    - target: {fileID: 20500000, guid: 6c9e1e81ac04fc34a9468b7f8095cf86, type: 3}
      propertyPath: m_LODs.Array.data[0].screenRelativeHeight
      value: 0.7996976
      objectReference: {fileID: 0}
    - target: {fileID: 20500000, guid: 6c9e1e81ac04fc34a9468b7f8095cf86, type: 3}
      propertyPath: m_LODs.Array.data[1].screenRelativeHeight
      value: 0.49929744
      objectReference: {fileID: 0}
    - target: {fileID: 20500000, guid: 6c9e1e81ac04fc34a9468b7f8095cf86, type: 3}
      propertyPath: m_LODs.Array.data[2].screenRelativeHeight
      value: 0.29848927
      objectReference: {fileID: 0}
    - target: {fileID: 20500000, guid: 6c9e1e81ac04fc34a9468b7f8095cf86, type: 3}
      propertyPath: m_LODs.Array.data[3].screenRelativeHeight
      value: 0.1477419
      objectReference: {fileID: 0}
    m_RemovedComponents:
    - {fileID: 3300000, guid: 6c9e1e81ac04fc34a9468b7f8095cf86, type: 3}
    - {fileID: 2300000, guid: 6c9e1e81ac04fc34a9468b7f8095cf86, type: 3}
  m_SourcePrefab: {fileID: 100100000, guid: 6c9e1e81ac04fc34a9468b7f8095cf86, type: 3}
--- !u!1 &3934540468373963070 stripped
GameObject:
  m_CorrespondingSourceObject: {fileID: 100002, guid: 6c9e1e81ac04fc34a9468b7f8095cf86,
    type: 3}
  m_PrefabInstance: {fileID: 3934540468374063004}
  m_PrefabAsset: {fileID: 0}
