%YAML 1.1
%TAG !u! tag:unity3d.com,2011:
--- !u!1 &647497131901585936
GameObject:
  m_ObjectHideFlags: 0
  m_CorrespondingSourceObject: {fileID: 0}
  m_PrefabInstance: {fileID: 0}
  m_PrefabAsset: {fileID: 0}
  serializedVersion: 6
  m_Component:
  - component: {fileID: 584485893899655899}
  m_Layer: 0
  m_Name: FireExtinguisher_Powder_group
  m_TagString: Untagged
  m_Icon: {fileID: 0}
  m_NavMeshLayer: 0
  m_StaticEditorFlags: 0
  m_IsActive: 1
--- !u!4 &584485893899655899
Transform:
  m_ObjectHideFlags: 0
  m_CorrespondingSourceObject: {fileID: 0}
  m_PrefabInstance: {fileID: 0}
  m_PrefabAsset: {fileID: 0}
  m_GameObject: {fileID: 647497131901585936}
  m_LocalRotation: {x: 0, y: 0, z: 0, w: 1}
  m_LocalPosition: {x: 0, y: 0, z: 0}
  m_LocalScale: {x: 1, y: 1, z: 1}
  m_Children:
  - {fileID: 326738849982200748}
  - {fileID: 326738849858279003}
  m_Father: {fileID: 0}
  m_RootOrder: 0
  m_LocalEulerAnglesHint: {x: 0, y: 0, z: 0}
--- !u!1001 &216865739674442823
PrefabInstance:
  m_ObjectHideFlags: 0
  serializedVersion: 2
  m_Modification:
    m_TransformParent: {fileID: 584485893899655899}
    m_Modifications:
    - target: {fileID: -8679921383154817045, guid: 055245beb968f2040b3817c91dfa1b97, type: 3}
      propertyPath: m_RootOrder
      value: 0
      objectReference: {fileID: 0}
    - target: {fileID: -8679921383154817045, guid: 055245beb968f2040b3817c91dfa1b97, type: 3}
      propertyPath: m_LocalPosition.x
      value: -0.00006550996
      objectReference: {fileID: 0}
    - target: {fileID: -8679921383154817045, guid: 055245beb968f2040b3817c91dfa1b97, type: 3}
      propertyPath: m_LocalPosition.y
      value: 0.09923331
      objectReference: {fileID: 0}
    - target: {fileID: -8679921383154817045, guid: 055245beb968f2040b3817c91dfa1b97, type: 3}
      propertyPath: m_LocalPosition.z
      value: 0.0909286
      objectReference: {fileID: 0}
    - target: {fileID: -8679921383154817045, guid: 055245beb968f2040b3817c91dfa1b97, type: 3}
      propertyPath: m_LocalRotation.w
      value: 0.7071068
      objectReference: {fileID: 0}
    - target: {fileID: -8679921383154817045, guid: 055245beb968f2040b3817c91dfa1b97, type: 3}
      propertyPath: m_LocalRotation.x
      value: -0.7071068
      objectReference: {fileID: 0}
    - target: {fileID: -8679921383154817045, guid: 055245beb968f2040b3817c91dfa1b97, type: 3}
      propertyPath: m_LocalRotation.y
      value: -0
      objectReference: {fileID: 0}
    - target: {fileID: -8679921383154817045, guid: 055245beb968f2040b3817c91dfa1b97, type: 3}
      propertyPath: m_LocalRotation.z
      value: -0
      objectReference: {fileID: 0}
    - target: {fileID: -8679921383154817045, guid: 055245beb968f2040b3817c91dfa1b97, type: 3}
      propertyPath: m_LocalEulerAnglesHint.x
      value: 0
      objectReference: {fileID: 0}
    - target: {fileID: -8679921383154817045, guid: 055245beb968f2040b3817c91dfa1b97, type: 3}
      propertyPath: m_LocalEulerAnglesHint.y
      value: 0
      objectReference: {fileID: 0}
    - target: {fileID: -8679921383154817045, guid: 055245beb968f2040b3817c91dfa1b97, type: 3}
      propertyPath: m_LocalEulerAnglesHint.z
      value: 0
      objectReference: {fileID: 0}
    - target: {fileID: -7511558181221131132, guid: 055245beb968f2040b3817c91dfa1b97, type: 3}
      propertyPath: m_Materials.Array.data[0]
      value: 
      objectReference: {fileID: 2100000, guid: 999e607ad2eacd948ae8718a60e4ce8b, type: 2}
    - target: {fileID: 919132149155446097, guid: 055245beb968f2040b3817c91dfa1b97, type: 3}
      propertyPath: m_Name
      value: FireExtinguisher_Powder_nozzle
      objectReference: {fileID: 0}
    - target: {fileID: 919132149155446097, guid: 055245beb968f2040b3817c91dfa1b97, type: 3}
      propertyPath: m_IsActive
      value: 1
      objectReference: {fileID: 0}
    m_RemovedComponents: []
  m_SourcePrefab: {fileID: 100100000, guid: 055245beb968f2040b3817c91dfa1b97, type: 3}
--- !u!4 &326738849982200748 stripped
Transform:
  m_CorrespondingSourceObject: {fileID: -8679921383154817045, guid: 055245beb968f2040b3817c91dfa1b97, type: 3}
  m_PrefabInstance: {fileID: 216865739674442823}
  m_PrefabAsset: {fileID: 0}
--- !u!1001 &216865739764806064
PrefabInstance:
  m_ObjectHideFlags: 0
  serializedVersion: 2
  m_Modification:
    m_TransformParent: {fileID: 584485893899655899}
    m_Modifications:
    - target: {fileID: -8679921383154817045, guid: d0b2b3cafb91c6f49bcbd393f4307b7e, type: 3}
      propertyPath: m_RootOrder
      value: 1
      objectReference: {fileID: 0}
    - target: {fileID: -8679921383154817045, guid: d0b2b3cafb91c6f49bcbd393f4307b7e, type: 3}
      propertyPath: m_LocalPosition.x
      value: 0
      objectReference: {fileID: 0}
    - target: {fileID: -8679921383154817045, guid: d0b2b3cafb91c6f49bcbd393f4307b7e, type: 3}
      propertyPath: m_LocalPosition.y
      value: 0
      objectReference: {fileID: 0}
    - target: {fileID: -8679921383154817045, guid: d0b2b3cafb91c6f49bcbd393f4307b7e, type: 3}
      propertyPath: m_LocalPosition.z
      value: 0
      objectReference: {fileID: 0}
    - target: {fileID: -8679921383154817045, guid: d0b2b3cafb91c6f49bcbd393f4307b7e, type: 3}
      propertyPath: m_LocalRotation.w
      value: 0.7071068
      objectReference: {fileID: 0}
    - target: {fileID: -8679921383154817045, guid: d0b2b3cafb91c6f49bcbd393f4307b7e, type: 3}
      propertyPath: m_LocalRotation.x
      value: -0.7071068
      objectReference: {fileID: 0}
    - target: {fileID: -8679921383154817045, guid: d0b2b3cafb91c6f49bcbd393f4307b7e, type: 3}
      propertyPath: m_LocalRotation.y
      value: -0
      objectReference: {fileID: 0}
    - target: {fileID: -8679921383154817045, guid: d0b2b3cafb91c6f49bcbd393f4307b7e, type: 3}
      propertyPath: m_LocalRotation.z
      value: -0
      objectReference: {fileID: 0}
    - target: {fileID: -8679921383154817045, guid: d0b2b3cafb91c6f49bcbd393f4307b7e, type: 3}
      propertyPath: m_LocalEulerAnglesHint.x
      value: 0
      objectReference: {fileID: 0}
    - target: {fileID: -8679921383154817045, guid: d0b2b3cafb91c6f49bcbd393f4307b7e, type: 3}
      propertyPath: m_LocalEulerAnglesHint.y
      value: 0
      objectReference: {fileID: 0}
    - target: {fileID: -8679921383154817045, guid: d0b2b3cafb91c6f49bcbd393f4307b7e, type: 3}
      propertyPath: m_LocalEulerAnglesHint.z
      value: 0
      objectReference: {fileID: 0}
    - target: {fileID: -7511558181221131132, guid: d0b2b3cafb91c6f49bcbd393f4307b7e, type: 3}
      propertyPath: m_Materials.Array.data[0]
      value: 
      objectReference: {fileID: 2100000, guid: e7f38689a0b5b96488570042b6018c05, type: 2}
    - target: {fileID: 919132149155446097, guid: d0b2b3cafb91c6f49bcbd393f4307b7e, type: 3}
      propertyPath: m_Name
      value: FireExtinguisher_Powder
      objectReference: {fileID: 0}
    - target: {fileID: 919132149155446097, guid: d0b2b3cafb91c6f49bcbd393f4307b7e, type: 3}
      propertyPath: m_IsActive
      value: 1
      objectReference: {fileID: 0}
    m_RemovedComponents: []
  m_SourcePrefab: {fileID: 100100000, guid: d0b2b3cafb91c6f49bcbd393f4307b7e, type: 3}
--- !u!4 &326738849858279003 stripped
Transform:
  m_CorrespondingSourceObject: {fileID: -8679921383154817045, guid: d0b2b3cafb91c6f49bcbd393f4307b7e, type: 3}
  m_PrefabInstance: {fileID: 216865739764806064}
  m_PrefabAsset: {fileID: 0}
