%YAML 1.1
%TAG !u! tag:unity3d.com,2011:
--- !u!64 &8495465870989383808
MeshCollider:
  m_ObjectHideFlags: 0
  m_CorrespondingSourceObject: {fileID: 0}
  m_PrefabInstance: {fileID: 0}
  m_PrefabAsset: {fileID: 0}
  m_GameObject: {fileID: 6353955112654358986}
  m_Material: {fileID: 0}
  m_IsTrigger: 0
  m_Enabled: 1
  serializedVersion: 3
  m_Convex: 0
  m_CookingOptions: 14
  m_Mesh: {fileID: 4300010, guid: febf30423dcbd5e4ca0b4429be24101f, type: 3}
--- !u!1001 &6353955112654458720
PrefabInstance:
  m_ObjectHideFlags: 0
  serializedVersion: 2
  m_Modification:
    m_TransformParent: {fileID: 0}
    m_Modifications:
    - target: {fileID: 100000, guid: febf30423dcbd5e4ca0b4429be24101f, type: 3}
      propertyPath: m_Name
      value: CraneRail_20m_01_Prefab
      objectReference: {fileID: 0}
    - target: {fileID: 400000, guid: febf30423dcbd5e4ca0b4429be24101f, type: 3}
      propertyPath: m_LocalPosition.x
      value: -0
      objectReference: {fileID: 0}
    - target: {fileID: 400000, guid: febf30423dcbd5e4ca0b4429be24101f, type: 3}
      propertyPath: m_LocalPosition.y
      value: 0
      objectReference: {fileID: 0}
    - target: {fileID: 400000, guid: febf30423dcbd5e4ca0b4429be24101f, type: 3}
      propertyPath: m_LocalPosition.z
      value: 0
      objectReference: {fileID: 0}
    - target: {fileID: 400000, guid: febf30423dcbd5e4ca0b4429be24101f, type: 3}
      propertyPath: m_LocalRotation.x
      value: 0
      objectReference: {fileID: 0}
    - target: {fileID: 400000, guid: febf30423dcbd5e4ca0b4429be24101f, type: 3}
      propertyPath: m_LocalRotation.y
      value: -0
      objectReference: {fileID: 0}
    - target: {fileID: 400000, guid: febf30423dcbd5e4ca0b4429be24101f, type: 3}
      propertyPath: m_LocalRotation.z
      value: -0
      objectReference: {fileID: 0}
    - target: {fileID: 400000, guid: febf30423dcbd5e4ca0b4429be24101f, type: 3}
      propertyPath: m_LocalRotation.w
      value: 1
      objectReference: {fileID: 0}
    - target: {fileID: 400000, guid: febf30423dcbd5e4ca0b4429be24101f, type: 3}
      propertyPath: m_RootOrder
      value: 0
      objectReference: {fileID: 0}
    - target: {fileID: 400000, guid: febf30423dcbd5e4ca0b4429be24101f, type: 3}
      propertyPath: m_LocalEulerAnglesHint.x
      value: 0
      objectReference: {fileID: 0}
    - target: {fileID: 400000, guid: febf30423dcbd5e4ca0b4429be24101f, type: 3}
      propertyPath: m_LocalEulerAnglesHint.y
      value: 0
      objectReference: {fileID: 0}
    - target: {fileID: 400000, guid: febf30423dcbd5e4ca0b4429be24101f, type: 3}
      propertyPath: m_LocalEulerAnglesHint.z
      value: 0
      objectReference: {fileID: 0}
    - target: {fileID: 20500000, guid: febf30423dcbd5e4ca0b4429be24101f, type: 3}
      propertyPath: m_LODs.Array.data[0].screenRelativeHeight
      value: 0.99291176
      objectReference: {fileID: 0}
    - target: {fileID: 20500000, guid: febf30423dcbd5e4ca0b4429be24101f, type: 3}
      propertyPath: m_LODs.Array.data[1].screenRelativeHeight
      value: 0.5986802
      objectReference: {fileID: 0}
    - target: {fileID: 20500000, guid: febf30423dcbd5e4ca0b4429be24101f, type: 3}
      propertyPath: m_LODs.Array.data[2].screenRelativeHeight
      value: 0.30016005
      objectReference: {fileID: 0}
    m_RemovedComponents:
    - {fileID: 3300008, guid: febf30423dcbd5e4ca0b4429be24101f, type: 3}
    - {fileID: 2300008, guid: febf30423dcbd5e4ca0b4429be24101f, type: 3}
  m_SourcePrefab: {fileID: 100100000, guid: febf30423dcbd5e4ca0b4429be24101f, type: 3}
--- !u!1 &6353955112654358986 stripped
GameObject:
  m_CorrespondingSourceObject: {fileID: 100010, guid: febf30423dcbd5e4ca0b4429be24101f,
    type: 3}
  m_PrefabInstance: {fileID: 6353955112654458720}
  m_PrefabAsset: {fileID: 0}
