%YAML 1.1
%TAG !u! tag:unity3d.com,2011:
--- !u!64 &823401673307390110
MeshCollider:
  m_ObjectHideFlags: 0
  m_CorrespondingSourceObject: {fileID: 0}
  m_PrefabInstance: {fileID: 0}
  m_PrefabAsset: {fileID: 0}
  m_GameObject: {fileID: 9171288420069762013}
  m_Material: {fileID: 0}
  m_IsTrigger: 0
  m_Enabled: 1
  serializedVersion: 3
  m_Convex: 0
  m_CookingOptions: 14
  m_Mesh: {fileID: 4300044, guid: 15f74de2d634d82458d4ca4f8a06f050, type: 3}
--- !u!1001 &9171288420069729545
PrefabInstance:
  m_ObjectHideFlags: 0
  serializedVersion: 2
  m_Modification:
    m_TransformParent: {fileID: 0}
    m_Modifications:
    - target: {fileID: 100002, guid: 15f74de2d634d82458d4ca4f8a06f050, type: 3}
      propertyPath: m_Name
      value: OfficeContainer_Catwalk_1m_01_Prefab
      objectReference: {fileID: 0}
    - target: {fileID: 100002, guid: 15f74de2d634d82458d4ca4f8a06f050, type: 3}
      propertyPath: m_StaticEditorFlags
      value: 66
      objectReference: {fileID: 0}
    - target: {fileID: 100046, guid: 15f74de2d634d82458d4ca4f8a06f050, type: 3}
      propertyPath: m_StaticEditorFlags
      value: 66
      objectReference: {fileID: 0}
    - target: {fileID: 400002, guid: 15f74de2d634d82458d4ca4f8a06f050, type: 3}
      propertyPath: m_LocalPosition.x
      value: -0
      objectReference: {fileID: 0}
    - target: {fileID: 400002, guid: 15f74de2d634d82458d4ca4f8a06f050, type: 3}
      propertyPath: m_LocalPosition.y
      value: 0
      objectReference: {fileID: 0}
    - target: {fileID: 400002, guid: 15f74de2d634d82458d4ca4f8a06f050, type: 3}
      propertyPath: m_LocalPosition.z
      value: 0
      objectReference: {fileID: 0}
    - target: {fileID: 400002, guid: 15f74de2d634d82458d4ca4f8a06f050, type: 3}
      propertyPath: m_LocalRotation.x
      value: 0
      objectReference: {fileID: 0}
    - target: {fileID: 400002, guid: 15f74de2d634d82458d4ca4f8a06f050, type: 3}
      propertyPath: m_LocalRotation.y
      value: -0
      objectReference: {fileID: 0}
    - target: {fileID: 400002, guid: 15f74de2d634d82458d4ca4f8a06f050, type: 3}
      propertyPath: m_LocalRotation.z
      value: -0
      objectReference: {fileID: 0}
    - target: {fileID: 400002, guid: 15f74de2d634d82458d4ca4f8a06f050, type: 3}
      propertyPath: m_LocalRotation.w
      value: 1
      objectReference: {fileID: 0}
    - target: {fileID: 400002, guid: 15f74de2d634d82458d4ca4f8a06f050, type: 3}
      propertyPath: m_RootOrder
      value: 0
      objectReference: {fileID: 0}
    - target: {fileID: 400002, guid: 15f74de2d634d82458d4ca4f8a06f050, type: 3}
      propertyPath: m_LocalEulerAnglesHint.x
      value: 0
      objectReference: {fileID: 0}
    - target: {fileID: 400002, guid: 15f74de2d634d82458d4ca4f8a06f050, type: 3}
      propertyPath: m_LocalEulerAnglesHint.y
      value: 0
      objectReference: {fileID: 0}
    - target: {fileID: 400002, guid: 15f74de2d634d82458d4ca4f8a06f050, type: 3}
      propertyPath: m_LocalEulerAnglesHint.z
      value: 0
      objectReference: {fileID: 0}
    - target: {fileID: 20500000, guid: 15f74de2d634d82458d4ca4f8a06f050, type: 3}
      propertyPath: m_LODs.Array.data[0].screenRelativeHeight
      value: 0.30256888
      objectReference: {fileID: 0}
    - target: {fileID: 20500000, guid: 15f74de2d634d82458d4ca4f8a06f050, type: 3}
      propertyPath: m_LODs.Array.data[1].screenRelativeHeight
      value: 0.03484221
      objectReference: {fileID: 0}
    - target: {fileID: 100048, guid: 15f74de2d634d82458d4ca4f8a06f050, type: 3}
      propertyPath: m_StaticEditorFlags
      value: 66
      objectReference: {fileID: 0}
    - target: {fileID: 100050, guid: 15f74de2d634d82458d4ca4f8a06f050, type: 3}
      propertyPath: m_StaticEditorFlags
      value: 66
      objectReference: {fileID: 0}
    m_RemovedComponents:
    - {fileID: 3300044, guid: 15f74de2d634d82458d4ca4f8a06f050, type: 3}
    - {fileID: 2300044, guid: 15f74de2d634d82458d4ca4f8a06f050, type: 3}
  m_SourcePrefab: {fileID: 100100000, guid: 15f74de2d634d82458d4ca4f8a06f050, type: 3}
--- !u!1 &9171288420069762013 stripped
GameObject:
  m_CorrespondingSourceObject: {fileID: 100052, guid: 15f74de2d634d82458d4ca4f8a06f050,
    type: 3}
  m_PrefabInstance: {fileID: 9171288420069729545}
  m_PrefabAsset: {fileID: 0}
