%YAML 1.1
%TAG !u! tag:unity3d.com,2011:
--- !u!64 &4756807028244529384
MeshCollider:
  m_ObjectHideFlags: 0
  m_CorrespondingSourceObject: {fileID: 0}
  m_PrefabInstance: {fileID: 0}
  m_PrefabAsset: {fileID: 0}
  m_GameObject: {fileID: 2721566649771859661}
  m_Material: {fileID: 0}
  m_IsTrigger: 0
  m_Enabled: 1
  serializedVersion: 3
  m_Convex: 0
  m_CookingOptions: 14
  m_Mesh: {fileID: 4300110, guid: b52841d9d95d6ab44911ea96569b232f, type: 3}
--- !u!1001 &2721566649771760081
PrefabInstance:
  m_ObjectHideFlags: 0
  serializedVersion: 2
  m_Modification:
    m_TransformParent: {fileID: 0}
    m_Modifications:
    - target: {fileID: 100002, guid: b52841d9d95d6ab44911ea96569b232f, type: 3}
      propertyPath: m_Name
      value: OfficeContainer_6m_04_Prefab
      objectReference: {fileID: 0}
    - target: {fileID: 100002, guid: b52841d9d95d6ab44911ea96569b232f, type: 3}
      propertyPath: m_StaticEditorFlags
      value: 64
      objectReference: {fileID: 0}
    - target: {fileID: 100114, guid: b52841d9d95d6ab44911ea96569b232f, type: 3}
      propertyPath: m_StaticEditorFlags
      value: 67
      objectReference: {fileID: 0}
    - target: {fileID: 100116, guid: b52841d9d95d6ab44911ea96569b232f, type: 3}
      propertyPath: m_StaticEditorFlags
      value: 66
      objectReference: {fileID: 0}
    - target: {fileID: 100118, guid: b52841d9d95d6ab44911ea96569b232f, type: 3}
      propertyPath: m_StaticEditorFlags
      value: 66
      objectReference: {fileID: 0}
    - target: {fileID: 100120, guid: b52841d9d95d6ab44911ea96569b232f, type: 3}
      propertyPath: m_StaticEditorFlags
      value: 66
      objectReference: {fileID: 0}
    - target: {fileID: 100122, guid: b52841d9d95d6ab44911ea96569b232f, type: 3}
      propertyPath: m_StaticEditorFlags
      value: 66
      objectReference: {fileID: 0}
    - target: {fileID: 400002, guid: b52841d9d95d6ab44911ea96569b232f, type: 3}
      propertyPath: m_LocalPosition.x
      value: -0
      objectReference: {fileID: 0}
    - target: {fileID: 400002, guid: b52841d9d95d6ab44911ea96569b232f, type: 3}
      propertyPath: m_LocalPosition.y
      value: 0
      objectReference: {fileID: 0}
    - target: {fileID: 400002, guid: b52841d9d95d6ab44911ea96569b232f, type: 3}
      propertyPath: m_LocalPosition.z
      value: 0
      objectReference: {fileID: 0}
    - target: {fileID: 400002, guid: b52841d9d95d6ab44911ea96569b232f, type: 3}
      propertyPath: m_LocalRotation.x
      value: 0
      objectReference: {fileID: 0}
    - target: {fileID: 400002, guid: b52841d9d95d6ab44911ea96569b232f, type: 3}
      propertyPath: m_LocalRotation.y
      value: -0
      objectReference: {fileID: 0}
    - target: {fileID: 400002, guid: b52841d9d95d6ab44911ea96569b232f, type: 3}
      propertyPath: m_LocalRotation.z
      value: -0
      objectReference: {fileID: 0}
    - target: {fileID: 400002, guid: b52841d9d95d6ab44911ea96569b232f, type: 3}
      propertyPath: m_LocalRotation.w
      value: 1
      objectReference: {fileID: 0}
    - target: {fileID: 400002, guid: b52841d9d95d6ab44911ea96569b232f, type: 3}
      propertyPath: m_RootOrder
      value: 0
      objectReference: {fileID: 0}
    - target: {fileID: 400002, guid: b52841d9d95d6ab44911ea96569b232f, type: 3}
      propertyPath: m_LocalEulerAnglesHint.x
      value: 0
      objectReference: {fileID: 0}
    - target: {fileID: 400002, guid: b52841d9d95d6ab44911ea96569b232f, type: 3}
      propertyPath: m_LocalEulerAnglesHint.y
      value: 0
      objectReference: {fileID: 0}
    - target: {fileID: 400002, guid: b52841d9d95d6ab44911ea96569b232f, type: 3}
      propertyPath: m_LocalEulerAnglesHint.z
      value: 0
      objectReference: {fileID: 0}
    - target: {fileID: 20500000, guid: b52841d9d95d6ab44911ea96569b232f, type: 3}
      propertyPath: m_LODs.Array.data[0].screenRelativeHeight
      value: 0.70020294
      objectReference: {fileID: 0}
    - target: {fileID: 20500000, guid: b52841d9d95d6ab44911ea96569b232f, type: 3}
      propertyPath: m_LODs.Array.data[1].screenRelativeHeight
      value: 0.40031612
      objectReference: {fileID: 0}
    - target: {fileID: 20500000, guid: b52841d9d95d6ab44911ea96569b232f, type: 3}
      propertyPath: m_LODs.Array.data[2].screenRelativeHeight
      value: 0.20281279
      objectReference: {fileID: 0}
    - target: {fileID: 20500000, guid: b52841d9d95d6ab44911ea96569b232f, type: 3}
      propertyPath: m_LODs.Array.data[3].screenRelativeHeight
      value: 0.09552182
      objectReference: {fileID: 0}
    m_RemovedComponents:
    - {fileID: 3300110, guid: b52841d9d95d6ab44911ea96569b232f, type: 3}
    - {fileID: 2300110, guid: b52841d9d95d6ab44911ea96569b232f, type: 3}
  m_SourcePrefab: {fileID: 100100000, guid: b52841d9d95d6ab44911ea96569b232f, type: 3}
--- !u!1 &2721566649771859661 stripped
GameObject:
  m_CorrespondingSourceObject: {fileID: 100124, guid: b52841d9d95d6ab44911ea96569b232f,
    type: 3}
  m_PrefabInstance: {fileID: 2721566649771760081}
  m_PrefabAsset: {fileID: 0}
