%YAML 1.1
%TAG !u! tag:unity3d.com,2011:
--- !u!64 &3866918406748935684
MeshCollider:
  m_ObjectHideFlags: 0
  m_CorrespondingSourceObject: {fileID: 0}
  m_PrefabInstance: {fileID: 0}
  m_PrefabAsset: {fileID: 0}
  m_GameObject: {fileID: 8062291869754218886}
  m_Material: {fileID: 0}
  m_IsTrigger: 0
  m_Enabled: 1
  serializedVersion: 3
  m_Convex: 0
  m_CookingOptions: 14
  m_Mesh: {fileID: 4300124, guid: 7c7b05c9c1cc9cf4db0defe71e99c367, type: 3}
--- !u!1001 &8062291869754318508
PrefabInstance:
  m_ObjectHideFlags: 0
  serializedVersion: 2
  m_Modification:
    m_TransformParent: {fileID: 0}
    m_Modifications:
    - target: {fileID: 100002, guid: 7c7b05c9c1cc9cf4db0defe71e99c367, type: 3}
      propertyPath: m_Name
      value: OfficeContainer_6m_03_Prefab
      objectReference: {fileID: 0}
    - target: {fileID: 100002, guid: 7c7b05c9c1cc9cf4db0defe71e99c367, type: 3}
      propertyPath: m_StaticEditorFlags
      value: 66
      objectReference: {fileID: 0}
    - target: {fileID: 100128, guid: 7c7b05c9c1cc9cf4db0defe71e99c367, type: 3}
      propertyPath: m_StaticEditorFlags
      value: 67
      objectReference: {fileID: 0}
    - target: {fileID: 100130, guid: 7c7b05c9c1cc9cf4db0defe71e99c367, type: 3}
      propertyPath: m_StaticEditorFlags
      value: 66
      objectReference: {fileID: 0}
    - target: {fileID: 100132, guid: 7c7b05c9c1cc9cf4db0defe71e99c367, type: 3}
      propertyPath: m_StaticEditorFlags
      value: 66
      objectReference: {fileID: 0}
    - target: {fileID: 100134, guid: 7c7b05c9c1cc9cf4db0defe71e99c367, type: 3}
      propertyPath: m_StaticEditorFlags
      value: 66
      objectReference: {fileID: 0}
    - target: {fileID: 100136, guid: 7c7b05c9c1cc9cf4db0defe71e99c367, type: 3}
      propertyPath: m_StaticEditorFlags
      value: 66
      objectReference: {fileID: 0}
    - target: {fileID: 400002, guid: 7c7b05c9c1cc9cf4db0defe71e99c367, type: 3}
      propertyPath: m_LocalPosition.x
      value: -0
      objectReference: {fileID: 0}
    - target: {fileID: 400002, guid: 7c7b05c9c1cc9cf4db0defe71e99c367, type: 3}
      propertyPath: m_LocalPosition.y
      value: 0
      objectReference: {fileID: 0}
    - target: {fileID: 400002, guid: 7c7b05c9c1cc9cf4db0defe71e99c367, type: 3}
      propertyPath: m_LocalPosition.z
      value: 0
      objectReference: {fileID: 0}
    - target: {fileID: 400002, guid: 7c7b05c9c1cc9cf4db0defe71e99c367, type: 3}
      propertyPath: m_LocalRotation.x
      value: 0
      objectReference: {fileID: 0}
    - target: {fileID: 400002, guid: 7c7b05c9c1cc9cf4db0defe71e99c367, type: 3}
      propertyPath: m_LocalRotation.y
      value: -0
      objectReference: {fileID: 0}
    - target: {fileID: 400002, guid: 7c7b05c9c1cc9cf4db0defe71e99c367, type: 3}
      propertyPath: m_LocalRotation.z
      value: -0
      objectReference: {fileID: 0}
    - target: {fileID: 400002, guid: 7c7b05c9c1cc9cf4db0defe71e99c367, type: 3}
      propertyPath: m_LocalRotation.w
      value: 1
      objectReference: {fileID: 0}
    - target: {fileID: 400002, guid: 7c7b05c9c1cc9cf4db0defe71e99c367, type: 3}
      propertyPath: m_RootOrder
      value: 0
      objectReference: {fileID: 0}
    - target: {fileID: 400002, guid: 7c7b05c9c1cc9cf4db0defe71e99c367, type: 3}
      propertyPath: m_LocalEulerAnglesHint.x
      value: 0
      objectReference: {fileID: 0}
    - target: {fileID: 400002, guid: 7c7b05c9c1cc9cf4db0defe71e99c367, type: 3}
      propertyPath: m_LocalEulerAnglesHint.y
      value: 0
      objectReference: {fileID: 0}
    - target: {fileID: 400002, guid: 7c7b05c9c1cc9cf4db0defe71e99c367, type: 3}
      propertyPath: m_LocalEulerAnglesHint.z
      value: 0
      objectReference: {fileID: 0}
    - target: {fileID: 20500000, guid: 7c7b05c9c1cc9cf4db0defe71e99c367, type: 3}
      propertyPath: m_LODs.Array.data[0].screenRelativeHeight
      value: 0.6961439
      objectReference: {fileID: 0}
    - target: {fileID: 20500000, guid: 7c7b05c9c1cc9cf4db0defe71e99c367, type: 3}
      propertyPath: m_LODs.Array.data[1].screenRelativeHeight
      value: 0.40031612
      objectReference: {fileID: 0}
    - target: {fileID: 20500000, guid: 7c7b05c9c1cc9cf4db0defe71e99c367, type: 3}
      propertyPath: m_LODs.Array.data[2].screenRelativeHeight
      value: 0.19629122
      objectReference: {fileID: 0}
    - target: {fileID: 20500000, guid: 7c7b05c9c1cc9cf4db0defe71e99c367, type: 3}
      propertyPath: m_LODs.Array.data[3].screenRelativeHeight
      value: 0.09856168
      objectReference: {fileID: 0}
    m_RemovedComponents:
    - {fileID: 3300124, guid: 7c7b05c9c1cc9cf4db0defe71e99c367, type: 3}
    - {fileID: 2300124, guid: 7c7b05c9c1cc9cf4db0defe71e99c367, type: 3}
  m_SourcePrefab: {fileID: 100100000, guid: 7c7b05c9c1cc9cf4db0defe71e99c367, type: 3}
--- !u!1 &8062291869754218886 stripped
GameObject:
  m_CorrespondingSourceObject: {fileID: 100138, guid: 7c7b05c9c1cc9cf4db0defe71e99c367,
    type: 3}
  m_PrefabInstance: {fileID: 8062291869754318508}
  m_PrefabAsset: {fileID: 0}
