%YAML 1.1
%TAG !u! tag:unity3d.com,2011:
--- !u!64 &245749112153819854
MeshCollider:
  m_ObjectHideFlags: 0
  m_CorrespondingSourceObject: {fileID: 0}
  m_PrefabInstance: {fileID: 0}
  m_PrefabAsset: {fileID: 0}
  m_GameObject: {fileID: 4613427651866514711}
  m_Material: {fileID: 0}
  m_IsTrigger: 0
  m_Enabled: 1
  serializedVersion: 3
  m_Convex: 0
  m_CookingOptions: 14
  m_Mesh: {fileID: 4300154, guid: 1c51bff598b099f41ad590f914b035ab, type: 3}
--- !u!1001 &4613427651866415707
PrefabInstance:
  m_ObjectHideFlags: 0
  serializedVersion: 2
  m_Modification:
    m_TransformParent: {fileID: 0}
    m_Modifications:
    - target: {fileID: 100002, guid: 1c51bff598b099f41ad590f914b035ab, type: 3}
      propertyPath: m_Name
      value: OfficeContainer_Stairs_Base_01_Prefab
      objectReference: {fileID: 0}
    - target: {fileID: 100002, guid: 1c51bff598b099f41ad590f914b035ab, type: 3}
      propertyPath: m_StaticEditorFlags
      value: 66
      objectReference: {fileID: 0}
    - target: {fileID: 100162, guid: 1c51bff598b099f41ad590f914b035ab, type: 3}
      propertyPath: m_StaticEditorFlags
      value: 66
      objectReference: {fileID: 0}
    - target: {fileID: 400002, guid: 1c51bff598b099f41ad590f914b035ab, type: 3}
      propertyPath: m_LocalPosition.x
      value: -0
      objectReference: {fileID: 0}
    - target: {fileID: 400002, guid: 1c51bff598b099f41ad590f914b035ab, type: 3}
      propertyPath: m_LocalPosition.y
      value: 0
      objectReference: {fileID: 0}
    - target: {fileID: 400002, guid: 1c51bff598b099f41ad590f914b035ab, type: 3}
      propertyPath: m_LocalPosition.z
      value: 0
      objectReference: {fileID: 0}
    - target: {fileID: 400002, guid: 1c51bff598b099f41ad590f914b035ab, type: 3}
      propertyPath: m_LocalRotation.x
      value: 0
      objectReference: {fileID: 0}
    - target: {fileID: 400002, guid: 1c51bff598b099f41ad590f914b035ab, type: 3}
      propertyPath: m_LocalRotation.y
      value: -0
      objectReference: {fileID: 0}
    - target: {fileID: 400002, guid: 1c51bff598b099f41ad590f914b035ab, type: 3}
      propertyPath: m_LocalRotation.z
      value: -0
      objectReference: {fileID: 0}
    - target: {fileID: 400002, guid: 1c51bff598b099f41ad590f914b035ab, type: 3}
      propertyPath: m_LocalRotation.w
      value: 1
      objectReference: {fileID: 0}
    - target: {fileID: 400002, guid: 1c51bff598b099f41ad590f914b035ab, type: 3}
      propertyPath: m_RootOrder
      value: 0
      objectReference: {fileID: 0}
    - target: {fileID: 400002, guid: 1c51bff598b099f41ad590f914b035ab, type: 3}
      propertyPath: m_LocalEulerAnglesHint.x
      value: 0
      objectReference: {fileID: 0}
    - target: {fileID: 400002, guid: 1c51bff598b099f41ad590f914b035ab, type: 3}
      propertyPath: m_LocalEulerAnglesHint.y
      value: 0
      objectReference: {fileID: 0}
    - target: {fileID: 400002, guid: 1c51bff598b099f41ad590f914b035ab, type: 3}
      propertyPath: m_LocalEulerAnglesHint.z
      value: 0
      objectReference: {fileID: 0}
    - target: {fileID: 20500000, guid: 1c51bff598b099f41ad590f914b035ab, type: 3}
      propertyPath: m_LODs.Array.data[0].screenRelativeHeight
      value: 0.39724675
      objectReference: {fileID: 0}
    - target: {fileID: 20500000, guid: 1c51bff598b099f41ad590f914b035ab, type: 3}
      propertyPath: m_LODs.Array.data[1].screenRelativeHeight
      value: 0.19845328
      objectReference: {fileID: 0}
    - target: {fileID: 20500000, guid: 1c51bff598b099f41ad590f914b035ab, type: 3}
      propertyPath: m_LODs.Array.data[2].screenRelativeHeight
      value: 0.05105486
      objectReference: {fileID: 0}
    - target: {fileID: 20500000, guid: 1c51bff598b099f41ad590f914b035ab, type: 3}
      propertyPath: m_LODs.Array.data[3].screenRelativeHeight
      value: 0.023130456
      objectReference: {fileID: 0}
    - target: {fileID: 100164, guid: 1c51bff598b099f41ad590f914b035ab, type: 3}
      propertyPath: m_StaticEditorFlags
      value: 66
      objectReference: {fileID: 0}
    - target: {fileID: 100166, guid: 1c51bff598b099f41ad590f914b035ab, type: 3}
      propertyPath: m_StaticEditorFlags
      value: 66
      objectReference: {fileID: 0}
    - target: {fileID: 100168, guid: 1c51bff598b099f41ad590f914b035ab, type: 3}
      propertyPath: m_StaticEditorFlags
      value: 66
      objectReference: {fileID: 0}
    - target: {fileID: 100170, guid: 1c51bff598b099f41ad590f914b035ab, type: 3}
      propertyPath: m_StaticEditorFlags
      value: 66
      objectReference: {fileID: 0}
    m_RemovedComponents:
    - {fileID: 3300154, guid: 1c51bff598b099f41ad590f914b035ab, type: 3}
    - {fileID: 2300154, guid: 1c51bff598b099f41ad590f914b035ab, type: 3}
  m_SourcePrefab: {fileID: 100100000, guid: 1c51bff598b099f41ad590f914b035ab, type: 3}
--- !u!1 &4613427651866514711 stripped
GameObject:
  m_CorrespondingSourceObject: {fileID: 100172, guid: 1c51bff598b099f41ad590f914b035ab,
    type: 3}
  m_PrefabInstance: {fileID: 4613427651866415707}
  m_PrefabAsset: {fileID: 0}
