%YAML 1.1
%TAG !u! tag:unity3d.com,2011:
--- !u!1001 &3097246983729871002
PrefabInstance:
  m_ObjectHideFlags: 0
  serializedVersion: 2
  m_Modification:
    m_TransformParent: {fileID: 0}
    m_Modifications:
    - target: {fileID: 100002, guid: a68e79b1e8582544ab31ee4388173bdc, type: 3}
      propertyPath: m_Name
      value: OfficeContainer_12m_02_Prefab_snaps017
      objectReference: {fileID: 0}
    - target: {fileID: 100002, guid: a68e79b1e8582544ab31ee4388173bdc, type: 3}
      propertyPath: m_StaticEditorFlags
      value: 66
      objectReference: {fileID: 0}
    - target: {fileID: 100164, guid: a68e79b1e8582544ab31ee4388173bdc, type: 3}
      propertyPath: m_IsActive
      value: 0
      objectReference: {fileID: 0}
    - target: {fileID: 100164, guid: a68e79b1e8582544ab31ee4388173bdc, type: 3}
      propertyPath: m_StaticEditorFlags
      value: 66
      objectReference: {fileID: 0}
    - target: {fileID: 100166, guid: a68e79b1e8582544ab31ee4388173bdc, type: 3}
      propertyPath: m_IsActive
      value: 0
      objectReference: {fileID: 0}
    - target: {fileID: 100166, guid: a68e79b1e8582544ab31ee4388173bdc, type: 3}
      propertyPath: m_StaticEditorFlags
      value: 66
      objectReference: {fileID: 0}
    - target: {fileID: 100168, guid: a68e79b1e8582544ab31ee4388173bdc, type: 3}
      propertyPath: m_IsActive
      value: 0
      objectReference: {fileID: 0}
    - target: {fileID: 100168, guid: a68e79b1e8582544ab31ee4388173bdc, type: 3}
      propertyPath: m_StaticEditorFlags
      value: 66
      objectReference: {fileID: 0}
    - target: {fileID: 100170, guid: a68e79b1e8582544ab31ee4388173bdc, type: 3}
      propertyPath: m_StaticEditorFlags
      value: 66
      objectReference: {fileID: 0}
    - target: {fileID: 100172, guid: a68e79b1e8582544ab31ee4388173bdc, type: 3}
      propertyPath: m_IsActive
      value: 0
      objectReference: {fileID: 0}
    - target: {fileID: 100172, guid: a68e79b1e8582544ab31ee4388173bdc, type: 3}
      propertyPath: m_StaticEditorFlags
      value: 66
      objectReference: {fileID: 0}
    - target: {fileID: 100174, guid: a68e79b1e8582544ab31ee4388173bdc, type: 3}
      propertyPath: m_IsActive
      value: 0
      objectReference: {fileID: 0}
    - target: {fileID: 400002, guid: a68e79b1e8582544ab31ee4388173bdc, type: 3}
      propertyPath: m_RootOrder
      value: 0
      objectReference: {fileID: 0}
    - target: {fileID: 400002, guid: a68e79b1e8582544ab31ee4388173bdc, type: 3}
      propertyPath: m_LocalPosition.x
      value: 7.73
      objectReference: {fileID: 0}
    - target: {fileID: 400002, guid: a68e79b1e8582544ab31ee4388173bdc, type: 3}
      propertyPath: m_LocalPosition.y
      value: 0
      objectReference: {fileID: 0}
    - target: {fileID: 400002, guid: a68e79b1e8582544ab31ee4388173bdc, type: 3}
      propertyPath: m_LocalPosition.z
      value: 8.36
      objectReference: {fileID: 0}
    - target: {fileID: 400002, guid: a68e79b1e8582544ab31ee4388173bdc, type: 3}
      propertyPath: m_LocalRotation.w
      value: 1
      objectReference: {fileID: 0}
    - target: {fileID: 400002, guid: a68e79b1e8582544ab31ee4388173bdc, type: 3}
      propertyPath: m_LocalRotation.x
      value: 0
      objectReference: {fileID: 0}
    - target: {fileID: 400002, guid: a68e79b1e8582544ab31ee4388173bdc, type: 3}
      propertyPath: m_LocalRotation.y
      value: -0
      objectReference: {fileID: 0}
    - target: {fileID: 400002, guid: a68e79b1e8582544ab31ee4388173bdc, type: 3}
      propertyPath: m_LocalRotation.z
      value: -0
      objectReference: {fileID: 0}
    - target: {fileID: 400002, guid: a68e79b1e8582544ab31ee4388173bdc, type: 3}
      propertyPath: m_LocalEulerAnglesHint.x
      value: 0
      objectReference: {fileID: 0}
    - target: {fileID: 400002, guid: a68e79b1e8582544ab31ee4388173bdc, type: 3}
      propertyPath: m_LocalEulerAnglesHint.y
      value: 0
      objectReference: {fileID: 0}
    - target: {fileID: 400002, guid: a68e79b1e8582544ab31ee4388173bdc, type: 3}
      propertyPath: m_LocalEulerAnglesHint.z
      value: 0
      objectReference: {fileID: 0}
    - target: {fileID: 20500000, guid: a68e79b1e8582544ab31ee4388173bdc, type: 3}
      propertyPath: m_Enabled
      value: 0
      objectReference: {fileID: 0}
    - target: {fileID: 20500000, guid: a68e79b1e8582544ab31ee4388173bdc, type: 3}
      propertyPath: m_LODs.Array.data[0].screenRelativeHeight
      value: 0.7042739
      objectReference: {fileID: 0}
    - target: {fileID: 20500000, guid: a68e79b1e8582544ab31ee4388173bdc, type: 3}
      propertyPath: m_LODs.Array.data[1].screenRelativeHeight
      value: 0.4033972
      objectReference: {fileID: 0}
    - target: {fileID: 20500000, guid: a68e79b1e8582544ab31ee4388173bdc, type: 3}
      propertyPath: m_LODs.Array.data[2].screenRelativeHeight
      value: 0.19845328
      objectReference: {fileID: 0}
    - target: {fileID: 20500000, guid: a68e79b1e8582544ab31ee4388173bdc, type: 3}
      propertyPath: m_LODs.Array.data[3].screenRelativeHeight
      value: 0.09703587
      objectReference: {fileID: 0}
    m_RemovedComponents:
    - {fileID: 3300154, guid: a68e79b1e8582544ab31ee4388173bdc, type: 3}
    - {fileID: 2300154, guid: a68e79b1e8582544ab31ee4388173bdc, type: 3}
  m_SourcePrefab: {fileID: 100100000, guid: a68e79b1e8582544ab31ee4388173bdc, type: 3}
--- !u!1 &3097246983729971156 stripped
GameObject:
  m_CorrespondingSourceObject: {fileID: 100174, guid: a68e79b1e8582544ab31ee4388173bdc, type: 3}
  m_PrefabInstance: {fileID: 3097246983729871002}
  m_PrefabAsset: {fileID: 0}
--- !u!64 &665304132344965603
MeshCollider:
  m_ObjectHideFlags: 0
  m_CorrespondingSourceObject: {fileID: 0}
  m_PrefabInstance: {fileID: 0}
  m_PrefabAsset: {fileID: 0}
  m_GameObject: {fileID: 3097246983729971156}
  m_Material: {fileID: 0}
  m_IsTrigger: 0
  m_Enabled: 1
  serializedVersion: 4
  m_Convex: 0
  m_CookingOptions: 30
  m_Mesh: {fileID: 4300154, guid: a68e79b1e8582544ab31ee4388173bdc, type: 3}
