%YAML 1.1
%TAG !u! tag:unity3d.com,2011:
--- !u!1045 &1
EditorBuildSettings:
  m_ObjectHideFlags: 0
  serializedVersion: 2
  m_Scenes:
  - enabled: 0
    path: Assets/xScene/Client_Quest2.unity
    guid: 6ccf85d85c5844345835e46816262889
  - enabled: 1
    path: Assets/xScene/Server_Pad.unity
    guid: b7edf93aa18ead147b52605df661fcfd
  - enabled: 0
    path: Assets/xScene/Scenes/Scene_House.unity
    guid: 68ee362db93af7f41a771a9244f7893c
  - enabled: 0
    path: Assets/xScene/Scenes/Scene_Office.unity
    guid: 87b53f33fd05d484f8be82bc5540d265
  - enabled: 0
    path: Assets/xScene/Scenes/Scene_TinHouse.unity
    guid: ea0e5081e325cbd45bc4e8dda96e0035
  - enabled: 0
    path: Assets/xScene/Scenes/Scene_Pier.unity
    guid: fe323f2030eb8af41af5ef8cbad35c2f
  - enabled: 0
    path: Assets/xScene/Scenes/Scene_Factory.unity
    guid: f2ac428efbba4674b9ed4c9c9b2f0be4
  m_configObjects:
    Unity.XR.Oculus.Settings: {fileID: 11400000, guid: 4400c9552394fe944a5c84a832b65b12, type: 2}
    com.unity.xr.management.loader_settings: {fileID: 11400000, guid: 2577a66b7a1e5034682508018384c4ae, type: 2}
