%YAML 1.1
%TAG !u! tag:unity3d.com,2011:
--- !u!21 &2100000
Material:
  serializedVersion: 6
  m_ObjectHideFlags: 0
  m_CorrespondingSourceObject: {fileID: 0}
  m_PrefabInstance: {fileID: 0}
  m_PrefabAsset: {fileID: 0}
  m_Name: ExampleWoodenMat
  m_Shader: {fileID: -6465566751694194690, guid: 9ef6bcacc48faf04ca9eaef455e9381e, type: 3}
  m_ShaderKeywords: _NORMALMAP
  m_LightmapFlags: 4
  m_EnableInstancingVariants: 0
  m_DoubleSidedGI: 0
  m_CustomRenderQueue: -1
  stringTagMap:
    MotionVector: User
  disabledShaderPasses:
  - MOTIONVECTORS
  m_SavedProperties:
    serializedVersion: 3
    m_TexEnvs:
    - Base_Map:
        m_Texture: {fileID: 2800000, guid: 3e3f382f075e8d6498f9821e88247b9d, type: 3}
        m_Scale: {x: 1, y: 1}
        m_Offset: {x: 0, y: 0}
    - Charred_wood_normal:
        m_Texture: {fileID: 2800000, guid: 61f900fef30504b4cb8b01421af4ad75, type: 3}
        m_Scale: {x: 1, y: 1}
        m_Offset: {x: 0, y: 0}
    - Charred_wood_tex:
        m_Texture: {fileID: 2800000, guid: df6f118720ebc464e81a84967524c445, type: 3}
        m_Scale: {x: 1, y: 1}
        m_Offset: {x: 0, y: 0}
    - Fire_map:
        m_Texture: {fileID: 2800000, guid: 3f90940f545202042bfe585a031bda77, type: 3}
        m_Scale: {x: 1, y: 1}
        m_Offset: {x: 0, y: 0}
    - Normal_Map:
        m_Texture: {fileID: 2800000, guid: 67efba15392edfe4ea6cc68d3140646f, type: 3}
        m_Scale: {x: 1, y: 1}
        m_Offset: {x: 0, y: 0}
    - Texture2D_34A73F27:
        m_Texture: {fileID: 2800000, guid: 61f900fef30504b4cb8b01421af4ad75, type: 3}
        m_Scale: {x: 1, y: 1}
        m_Offset: {x: 0, y: 0}
    - Texture2D_8D8F8A2B:
        m_Texture: {fileID: 2800000, guid: e062400e89515784a83b505112eb777d, type: 3}
        m_Scale: {x: 1, y: 1}
        m_Offset: {x: 0, y: 0}
    - Texture2D_ED2D799E:
        m_Texture: {fileID: 2800000, guid: df6f118720ebc464e81a84967524c445, type: 3}
        m_Scale: {x: 1, y: 1}
        m_Offset: {x: 0, y: 0}
    - _BaseMap:
        m_Texture: {fileID: 2800000, guid: 3e3f382f075e8d6498f9821e88247b9d, type: 3}
        m_Scale: {x: 0.5, y: 0.5}
        m_Offset: {x: 0, y: 0}
    - _BumpMap:
        m_Texture: {fileID: 2800000, guid: 67efba15392edfe4ea6cc68d3140646f, type: 3}
        m_Scale: {x: 1, y: 1}
        m_Offset: {x: 0, y: 0}
    - _EmissionMap:
        m_Texture: {fileID: 0}
        m_Scale: {x: 1, y: 1}
        m_Offset: {x: 0, y: 0}
    - _MainTex:
        m_Texture: {fileID: 2800000, guid: 3e3f382f075e8d6498f9821e88247b9d, type: 3}
        m_Scale: {x: 0.5, y: 0.5}
        m_Offset: {x: 0, y: 0}
    - _MetallicGlossMap:
        m_Texture: {fileID: 0}
        m_Scale: {x: 1, y: 1}
        m_Offset: {x: 0, y: 0}
    - _NormalMap:
        m_Texture: {fileID: 2800000, guid: 67efba15392edfe4ea6cc68d3140646f, type: 3}
        m_Scale: {x: 1, y: 1}
        m_Offset: {x: 0, y: 0}
    - _OcclusionMap:
        m_Texture: {fileID: 0}
        m_Scale: {x: 1, y: 1}
        m_Offset: {x: 0, y: 0}
    - _SpecGlossMap:
        m_Texture: {fileID: 0}
        m_Scale: {x: 1, y: 1}
        m_Offset: {x: 0, y: 0}
    - unity_Lightmaps:
        m_Texture: {fileID: 0}
        m_Scale: {x: 1, y: 1}
        m_Offset: {x: 0, y: 0}
    - unity_LightmapsInd:
        m_Texture: {fileID: 0}
        m_Scale: {x: 1, y: 1}
        m_Offset: {x: 0, y: 0}
    - unity_ShadowMasks:
        m_Texture: {fileID: 0}
        m_Scale: {x: 1, y: 1}
        m_Offset: {x: 0, y: 0}
    m_Floats:
    - Charred_wood_blend: 0
    - Charred_wood_normal_strength: 5
    - Color_Blend: 0
    - Fire_bright: 0
    - Fire_max_brightness: 10
    - Fire_min_brightness: 0
    - Fire_side_multiplier: 0.3
    - Fire_softness: 0.5
    - Fire_spread: 0
    - Mat_Alpha: 1
    - Metallic: 0.22999996
    - Normal_Strength: 2
    - Smoothness: 0.32
    - Vector1_21EC2F7D: 0.3
    - Vector1_284F5650: 10
    - Vector1_9AFCEE5B: 1
    - Vector1_B5A86479: 10
    - Vector1_D12C7246: 0
    - Vector1_E65A908C: 0
    - Voronoi_move: 10
    - _AlphaClip: 0
    - _Blend: 0
    - _BumpScale: 1
    - _Cull: 2
    - _Cutoff: 0.5
    - _DstBlend: 0
    - _EnvironmentReflections: 1
    - _GlossMapScale: 0
    - _Glossiness: 0
    - _GlossyReflections: 0
    - _Metallic: 0.6029999
    - _NormalStrength: 1
    - _OcclusionStrength: 1
    - _QueueOffset: 0
    - _ReceiveShadows: 1
    - _Smoothness: 0.237
    - _SmoothnessTextureChannel: 0
    - _SpecularHighlights: 1
    - _SrcBlend: 1
    - _Surface: 0
    - _WorkflowMode: 1
    - _ZWrite: 1
    m_Colors:
    - Base_Color: {r: 0.35849056, g: 0.35849056, b: 0.35849056, a: 1}
    - Charred_tiling: {r: 0.1, g: 0.1, b: 0, a: 0}
    - Fire_color: {r: 0.9433962, g: 0.4731304, b: 0.044499785, a: 0}
    - Fire_dir: {r: 0, g: 1, b: 0, a: 0}
    - Fire_move_dir: {r: 0, g: -0.01, b: 0, a: 0}
    - Fire_origin: {r: 0, g: 0, b: 0, a: 0}
    - Fire_tile: {r: 1, g: 1, b: 0, a: 0}
    - Vector2_99D685F4: {r: 1, g: 1, b: 0, a: 0}
    - Vector3_8A2893D5: {r: 0, g: 1, b: 0, a: 0}
    - Vector3_F6B8BCCE: {r: 0, g: -0.01, b: 0, a: 0}
    - _BaseColor: {r: 1, g: 1, b: 1, a: 1}
    - _Color: {r: 1, g: 1, b: 1, a: 1}
    - _EmissionColor: {r: 0, g: 0, b: 0, a: 1}
    - _Offset: {r: 0, g: 0, b: 0, a: 0}
    - _SpecColor: {r: 0.19999996, g: 0.19999996, b: 0.19999996, a: 1}
    - _Tiling: {r: 0.5, g: 0.5, b: 0, a: 0}
  m_BuildTextureStacks: []
--- !u!114 &4993362283126292769
MonoBehaviour:
  m_ObjectHideFlags: 11
  m_CorrespondingSourceObject: {fileID: 0}
  m_PrefabInstance: {fileID: 0}
  m_PrefabAsset: {fileID: 0}
  m_GameObject: {fileID: 0}
  m_Enabled: 1
  m_EditorHideFlags: 0
  m_Script: {fileID: 11500000, guid: d0353a89b1f911e48b9e16bdc9f2e058, type: 3}
  m_Name: 
  m_EditorClassIdentifier: 
  version: 1
