%YAML 1.1
%TAG !u! tag:unity3d.com,2011:
--- !u!1001 &447249835687917977
PrefabInstance:
  m_ObjectHideFlags: 0
  serializedVersion: 2
  m_Modification:
    m_TransformParent: {fileID: 0}
    m_Modifications:
    - target: {fileID: 100000, guid: f636ee3c49cc56e47a2a60746582cfe4, type: 3}
      propertyPath: m_Name
      value: Barrel_Oil_01_B_Prefab (9)
      objectReference: {fileID: 0}
    - target: {fileID: 100000, guid: f636ee3c49cc56e47a2a60746582cfe4, type: 3}
      propertyPath: m_StaticEditorFlags
      value: 4294967295
      objectReference: {fileID: 0}
    - target: {fileID: 100002, guid: f636ee3c49cc56e47a2a60746582cfe4, type: 3}
      propertyPath: m_StaticEditorFlags
      value: 0
      objectReference: {fileID: 0}
    - target: {fileID: 100004, guid: f636ee3c49cc56e47a2a60746582cfe4, type: 3}
      propertyPath: m_StaticEditorFlags
      value: 80
      objectReference: {fileID: 0}
    - target: {fileID: 100006, guid: f636ee3c49cc56e47a2a60746582cfe4, type: 3}
      propertyPath: m_IsActive
      value: 0
      objectReference: {fileID: 0}
    - target: {fileID: 100006, guid: f636ee3c49cc56e47a2a60746582cfe4, type: 3}
      propertyPath: m_StaticEditorFlags
      value: 4294967295
      objectReference: {fileID: 0}
    - target: {fileID: 100008, guid: f636ee3c49cc56e47a2a60746582cfe4, type: 3}
      propertyPath: m_IsActive
      value: 0
      objectReference: {fileID: 0}
    - target: {fileID: 100008, guid: f636ee3c49cc56e47a2a60746582cfe4, type: 3}
      propertyPath: m_StaticEditorFlags
      value: 4294967295
      objectReference: {fileID: 0}
    - target: {fileID: 100010, guid: f636ee3c49cc56e47a2a60746582cfe4, type: 3}
      propertyPath: m_IsActive
      value: 0
      objectReference: {fileID: 0}
    - target: {fileID: 100010, guid: f636ee3c49cc56e47a2a60746582cfe4, type: 3}
      propertyPath: m_StaticEditorFlags
      value: 4294967295
      objectReference: {fileID: 0}
    - target: {fileID: 100012, guid: f636ee3c49cc56e47a2a60746582cfe4, type: 3}
      propertyPath: m_StaticEditorFlags
      value: 4294967295
      objectReference: {fileID: 0}
    - target: {fileID: 100014, guid: f636ee3c49cc56e47a2a60746582cfe4, type: 3}
      propertyPath: m_IsActive
      value: 0
      objectReference: {fileID: 0}
    - target: {fileID: 100014, guid: f636ee3c49cc56e47a2a60746582cfe4, type: 3}
      propertyPath: m_StaticEditorFlags
      value: 4294967295
      objectReference: {fileID: 0}
    - target: {fileID: 400000, guid: f636ee3c49cc56e47a2a60746582cfe4, type: 3}
      propertyPath: m_RootOrder
      value: 0
      objectReference: {fileID: 0}
    - target: {fileID: 400000, guid: f636ee3c49cc56e47a2a60746582cfe4, type: 3}
      propertyPath: m_LocalPosition.x
      value: -123.978
      objectReference: {fileID: 0}
    - target: {fileID: 400000, guid: f636ee3c49cc56e47a2a60746582cfe4, type: 3}
      propertyPath: m_LocalPosition.y
      value: -0.13
      objectReference: {fileID: 0}
    - target: {fileID: 400000, guid: f636ee3c49cc56e47a2a60746582cfe4, type: 3}
      propertyPath: m_LocalPosition.z
      value: 100.753
      objectReference: {fileID: 0}
    - target: {fileID: 400000, guid: f636ee3c49cc56e47a2a60746582cfe4, type: 3}
      propertyPath: m_LocalRotation.w
      value: 0.99993545
      objectReference: {fileID: 0}
    - target: {fileID: 400000, guid: f636ee3c49cc56e47a2a60746582cfe4, type: 3}
      propertyPath: m_LocalRotation.x
      value: -0
      objectReference: {fileID: 0}
    - target: {fileID: 400000, guid: f636ee3c49cc56e47a2a60746582cfe4, type: 3}
      propertyPath: m_LocalRotation.y
      value: -0.011366147
      objectReference: {fileID: 0}
    - target: {fileID: 400000, guid: f636ee3c49cc56e47a2a60746582cfe4, type: 3}
      propertyPath: m_LocalRotation.z
      value: -0
      objectReference: {fileID: 0}
    - target: {fileID: 400000, guid: f636ee3c49cc56e47a2a60746582cfe4, type: 3}
      propertyPath: m_LocalEulerAnglesHint.x
      value: 0
      objectReference: {fileID: 0}
    - target: {fileID: 400000, guid: f636ee3c49cc56e47a2a60746582cfe4, type: 3}
      propertyPath: m_LocalEulerAnglesHint.y
      value: -1.302
      objectReference: {fileID: 0}
    - target: {fileID: 400000, guid: f636ee3c49cc56e47a2a60746582cfe4, type: 3}
      propertyPath: m_LocalEulerAnglesHint.z
      value: 0
      objectReference: {fileID: 0}
    - target: {fileID: 20500000, guid: f636ee3c49cc56e47a2a60746582cfe4, type: 3}
      propertyPath: m_Enabled
      value: 0
      objectReference: {fileID: 0}
    m_RemovedComponents:
    - {fileID: 3300000, guid: f636ee3c49cc56e47a2a60746582cfe4, type: 3}
    - {fileID: 2300000, guid: f636ee3c49cc56e47a2a60746582cfe4, type: 3}
    - {fileID: 3300004, guid: f636ee3c49cc56e47a2a60746582cfe4, type: 3}
    - {fileID: 2300004, guid: f636ee3c49cc56e47a2a60746582cfe4, type: 3}
  m_SourcePrefab: {fileID: 100100000, guid: f636ee3c49cc56e47a2a60746582cfe4, type: 3}
--- !u!1 &447249835687821119 stripped
GameObject:
  m_CorrespondingSourceObject: {fileID: 100006, guid: f636ee3c49cc56e47a2a60746582cfe4, type: 3}
  m_PrefabInstance: {fileID: 447249835687917977}
  m_PrefabAsset: {fileID: 0}
--- !u!64 &2253051022196087750
MeshCollider:
  m_ObjectHideFlags: 0
  m_CorrespondingSourceObject: {fileID: 0}
  m_PrefabInstance: {fileID: 0}
  m_PrefabAsset: {fileID: 0}
  m_GameObject: {fileID: 447249835687821119}
  m_Material: {fileID: 0}
  m_IsTrigger: 0
  m_Enabled: 1
  serializedVersion: 4
  m_Convex: 0
  m_CookingOptions: 30
  m_Mesh: {fileID: 4300012, guid: f636ee3c49cc56e47a2a60746582cfe4, type: 3}
