%YAML 1.1
%TAG !u! tag:unity3d.com,2011:
--- !u!64 &76978565839252807
MeshCollider:
  m_ObjectHideFlags: 0
  m_CorrespondingSourceObject: {fileID: 0}
  m_PrefabInstance: {fileID: 0}
  m_PrefabAsset: {fileID: 0}
  m_GameObject: {fileID: 3962674495490921866}
  m_Material: {fileID: 0}
  m_IsTrigger: 0
  m_Enabled: 1
  serializedVersion: 3
  m_Convex: 0
  m_CookingOptions: 14
  m_Mesh: {fileID: 4300006, guid: 348b56628958a1a4ab24a35ada5e1102, type: 3}
--- !u!1001 &3962674495490954028
PrefabInstance:
  m_ObjectHideFlags: 0
  serializedVersion: 2
  m_Modification:
    m_TransformParent: {fileID: 0}
    m_Modifications:
    - target: {fileID: 100000, guid: 348b56628958a1a4ab24a35ada5e1102, type: 3}
      propertyPath: m_Name
      value: Box_Pallet_01_Prefab
      objectReference: {fileID: 0}
    - target: {fileID: 100000, guid: 348b56628958a1a4ab24a35ada5e1102, type: 3}
      propertyPath: m_StaticEditorFlags
      value: 80
      objectReference: {fileID: 0}
    - target: {fileID: 400000, guid: 348b56628958a1a4ab24a35ada5e1102, type: 3}
      propertyPath: m_LocalPosition.x
      value: -0
      objectReference: {fileID: 0}
    - target: {fileID: 400000, guid: 348b56628958a1a4ab24a35ada5e1102, type: 3}
      propertyPath: m_LocalPosition.y
      value: 0
      objectReference: {fileID: 0}
    - target: {fileID: 400000, guid: 348b56628958a1a4ab24a35ada5e1102, type: 3}
      propertyPath: m_LocalPosition.z
      value: 0
      objectReference: {fileID: 0}
    - target: {fileID: 400000, guid: 348b56628958a1a4ab24a35ada5e1102, type: 3}
      propertyPath: m_LocalRotation.x
      value: 0
      objectReference: {fileID: 0}
    - target: {fileID: 400000, guid: 348b56628958a1a4ab24a35ada5e1102, type: 3}
      propertyPath: m_LocalRotation.y
      value: -0
      objectReference: {fileID: 0}
    - target: {fileID: 400000, guid: 348b56628958a1a4ab24a35ada5e1102, type: 3}
      propertyPath: m_LocalRotation.z
      value: -0
      objectReference: {fileID: 0}
    - target: {fileID: 400000, guid: 348b56628958a1a4ab24a35ada5e1102, type: 3}
      propertyPath: m_LocalRotation.w
      value: 1
      objectReference: {fileID: 0}
    - target: {fileID: 400000, guid: 348b56628958a1a4ab24a35ada5e1102, type: 3}
      propertyPath: m_RootOrder
      value: 0
      objectReference: {fileID: 0}
    - target: {fileID: 400000, guid: 348b56628958a1a4ab24a35ada5e1102, type: 3}
      propertyPath: m_LocalEulerAnglesHint.x
      value: 0
      objectReference: {fileID: 0}
    - target: {fileID: 400000, guid: 348b56628958a1a4ab24a35ada5e1102, type: 3}
      propertyPath: m_LocalEulerAnglesHint.y
      value: 0
      objectReference: {fileID: 0}
    - target: {fileID: 400000, guid: 348b56628958a1a4ab24a35ada5e1102, type: 3}
      propertyPath: m_LocalEulerAnglesHint.z
      value: 0
      objectReference: {fileID: 0}
    - target: {fileID: 100002, guid: 348b56628958a1a4ab24a35ada5e1102, type: 3}
      propertyPath: m_StaticEditorFlags
      value: 0
      objectReference: {fileID: 0}
    - target: {fileID: 100004, guid: 348b56628958a1a4ab24a35ada5e1102, type: 3}
      propertyPath: m_StaticEditorFlags
      value: 80
      objectReference: {fileID: 0}
    m_RemovedComponents:
    - {fileID: 3300000, guid: 348b56628958a1a4ab24a35ada5e1102, type: 3}
    - {fileID: 2300000, guid: 348b56628958a1a4ab24a35ada5e1102, type: 3}
    - {fileID: 3300004, guid: 348b56628958a1a4ab24a35ada5e1102, type: 3}
    - {fileID: 2300004, guid: 348b56628958a1a4ab24a35ada5e1102, type: 3}
  m_SourcePrefab: {fileID: 100100000, guid: 348b56628958a1a4ab24a35ada5e1102, type: 3}
--- !u!1 &3962674495490921866 stripped
GameObject:
  m_CorrespondingSourceObject: {fileID: 100006, guid: 348b56628958a1a4ab24a35ada5e1102,
    type: 3}
  m_PrefabInstance: {fileID: 3962674495490954028}
  m_PrefabAsset: {fileID: 0}
