%YAML 1.1
%TAG !u! tag:unity3d.com,2011:
--- !u!1001 &3186033952405731355
PrefabInstance:
  m_ObjectHideFlags: 0
  serializedVersion: 2
  m_Modification:
    m_TransformParent: {fileID: 0}
    m_Modifications:
    - target: {fileID: 100000, guid: 025a8266afc20b34ca00f2e5296592db, type: 3}
      propertyPath: m_Name
      value: Box_Pallet_02_Prefab (1)
      objectReference: {fileID: 0}
    - target: {fileID: 100000, guid: 025a8266afc20b34ca00f2e5296592db, type: 3}
      propertyPath: m_StaticEditorFlags
      value: 4294967295
      objectReference: {fileID: 0}
    - target: {fileID: 100006, guid: 025a8266afc20b34ca00f2e5296592db, type: 3}
      propertyPath: m_IsActive
      value: 0
      objectReference: {fileID: 0}
    - target: {fileID: 100006, guid: 025a8266afc20b34ca00f2e5296592db, type: 3}
      propertyPath: m_StaticEditorFlags
      value: 4294967295
      objectReference: {fileID: 0}
    - target: {fileID: 100008, guid: 025a8266afc20b34ca00f2e5296592db, type: 3}
      propertyPath: m_IsActive
      value: 0
      objectReference: {fileID: 0}
    - target: {fileID: 100008, guid: 025a8266afc20b34ca00f2e5296592db, type: 3}
      propertyPath: m_StaticEditorFlags
      value: 4294967295
      objectReference: {fileID: 0}
    - target: {fileID: 100010, guid: 025a8266afc20b34ca00f2e5296592db, type: 3}
      propertyPath: m_IsActive
      value: 0
      objectReference: {fileID: 0}
    - target: {fileID: 100010, guid: 025a8266afc20b34ca00f2e5296592db, type: 3}
      propertyPath: m_StaticEditorFlags
      value: 4294967295
      objectReference: {fileID: 0}
    - target: {fileID: 100012, guid: 025a8266afc20b34ca00f2e5296592db, type: 3}
      propertyPath: m_IsActive
      value: 0
      objectReference: {fileID: 0}
    - target: {fileID: 100012, guid: 025a8266afc20b34ca00f2e5296592db, type: 3}
      propertyPath: m_StaticEditorFlags
      value: 4294967295
      objectReference: {fileID: 0}
    - target: {fileID: 100014, guid: 025a8266afc20b34ca00f2e5296592db, type: 3}
      propertyPath: m_StaticEditorFlags
      value: 4294967295
      objectReference: {fileID: 0}
    - target: {fileID: 100016, guid: 025a8266afc20b34ca00f2e5296592db, type: 3}
      propertyPath: m_IsActive
      value: 0
      objectReference: {fileID: 0}
    - target: {fileID: 100016, guid: 025a8266afc20b34ca00f2e5296592db, type: 3}
      propertyPath: m_StaticEditorFlags
      value: 4294967295
      objectReference: {fileID: 0}
    - target: {fileID: 400000, guid: 025a8266afc20b34ca00f2e5296592db, type: 3}
      propertyPath: m_RootOrder
      value: 0
      objectReference: {fileID: 0}
    - target: {fileID: 400000, guid: 025a8266afc20b34ca00f2e5296592db, type: 3}
      propertyPath: m_LocalPosition.x
      value: -97.2
      objectReference: {fileID: 0}
    - target: {fileID: 400000, guid: 025a8266afc20b34ca00f2e5296592db, type: 3}
      propertyPath: m_LocalPosition.y
      value: 0
      objectReference: {fileID: 0}
    - target: {fileID: 400000, guid: 025a8266afc20b34ca00f2e5296592db, type: 3}
      propertyPath: m_LocalPosition.z
      value: -129.18
      objectReference: {fileID: 0}
    - target: {fileID: 400000, guid: 025a8266afc20b34ca00f2e5296592db, type: 3}
      propertyPath: m_LocalRotation.w
      value: 0.7880648
      objectReference: {fileID: 0}
    - target: {fileID: 400000, guid: 025a8266afc20b34ca00f2e5296592db, type: 3}
      propertyPath: m_LocalRotation.x
      value: -0
      objectReference: {fileID: 0}
    - target: {fileID: 400000, guid: 025a8266afc20b34ca00f2e5296592db, type: 3}
      propertyPath: m_LocalRotation.y
      value: -0.61559236
      objectReference: {fileID: 0}
    - target: {fileID: 400000, guid: 025a8266afc20b34ca00f2e5296592db, type: 3}
      propertyPath: m_LocalRotation.z
      value: -0
      objectReference: {fileID: 0}
    - target: {fileID: 400000, guid: 025a8266afc20b34ca00f2e5296592db, type: 3}
      propertyPath: m_LocalEulerAnglesHint.x
      value: 0
      objectReference: {fileID: 0}
    - target: {fileID: 400000, guid: 025a8266afc20b34ca00f2e5296592db, type: 3}
      propertyPath: m_LocalEulerAnglesHint.y
      value: -75.99
      objectReference: {fileID: 0}
    - target: {fileID: 400000, guid: 025a8266afc20b34ca00f2e5296592db, type: 3}
      propertyPath: m_LocalEulerAnglesHint.z
      value: 0
      objectReference: {fileID: 0}
    - target: {fileID: 20500000, guid: 025a8266afc20b34ca00f2e5296592db, type: 3}
      propertyPath: m_Enabled
      value: 0
      objectReference: {fileID: 0}
    m_RemovedComponents:
    - {fileID: 3300004, guid: 025a8266afc20b34ca00f2e5296592db, type: 3}
    - {fileID: 2300004, guid: 025a8266afc20b34ca00f2e5296592db, type: 3}
  m_SourcePrefab: {fileID: 100100000, guid: 025a8266afc20b34ca00f2e5296592db, type: 3}
--- !u!1 &3186033952405831357 stripped
GameObject:
  m_CorrespondingSourceObject: {fileID: 100006, guid: 025a8266afc20b34ca00f2e5296592db, type: 3}
  m_PrefabInstance: {fileID: 3186033952405731355}
  m_PrefabAsset: {fileID: 0}
--- !u!64 &3312657109335024078
MeshCollider:
  m_ObjectHideFlags: 0
  m_CorrespondingSourceObject: {fileID: 0}
  m_PrefabInstance: {fileID: 0}
  m_PrefabAsset: {fileID: 0}
  m_GameObject: {fileID: 3186033952405831357}
  m_Material: {fileID: 0}
  m_IsTrigger: 0
  m_Enabled: 1
  serializedVersion: 4
  m_Convex: 0
  m_CookingOptions: 30
  m_Mesh: {fileID: 4300006, guid: 025a8266afc20b34ca00f2e5296592db, type: 3}
