%YAML 1.1
%TAG !u! tag:unity3d.com,2011:
--- !u!1001 &2499386501321736961
PrefabInstance:
  m_ObjectHideFlags: 0
  serializedVersion: 2
  m_Modification:
    m_TransformParent: {fileID: 0}
    m_Modifications:
    - target: {fileID: 100000, guid: 69d35325c904f5840af0e9c73d2bd514, type: 3}
      propertyPath: m_Name
      value: Cement_Pallet_01_Prefab (11)
      objectReference: {fileID: 0}
    - target: {fileID: 100000, guid: 69d35325c904f5840af0e9c73d2bd514, type: 3}
      propertyPath: m_StaticEditorFlags
      value: 4294967295
      objectReference: {fileID: 0}
    - target: {fileID: 100002, guid: 69d35325c904f5840af0e9c73d2bd514, type: 3}
      propertyPath: m_StaticEditorFlags
      value: 0
      objectReference: {fileID: 0}
    - target: {fileID: 100004, guid: 69d35325c904f5840af0e9c73d2bd514, type: 3}
      propertyPath: m_StaticEditorFlags
      value: 80
      objectReference: {fileID: 0}
    - target: {fileID: 100006, guid: 69d35325c904f5840af0e9c73d2bd514, type: 3}
      propertyPath: m_IsActive
      value: 0
      objectReference: {fileID: 0}
    - target: {fileID: 100006, guid: 69d35325c904f5840af0e9c73d2bd514, type: 3}
      propertyPath: m_StaticEditorFlags
      value: 4294967295
      objectReference: {fileID: 0}
    - target: {fileID: 100008, guid: 69d35325c904f5840af0e9c73d2bd514, type: 3}
      propertyPath: m_IsActive
      value: 0
      objectReference: {fileID: 0}
    - target: {fileID: 100008, guid: 69d35325c904f5840af0e9c73d2bd514, type: 3}
      propertyPath: m_StaticEditorFlags
      value: 4294967295
      objectReference: {fileID: 0}
    - target: {fileID: 100010, guid: 69d35325c904f5840af0e9c73d2bd514, type: 3}
      propertyPath: m_IsActive
      value: 0
      objectReference: {fileID: 0}
    - target: {fileID: 100010, guid: 69d35325c904f5840af0e9c73d2bd514, type: 3}
      propertyPath: m_StaticEditorFlags
      value: 4294967295
      objectReference: {fileID: 0}
    - target: {fileID: 100012, guid: 69d35325c904f5840af0e9c73d2bd514, type: 3}
      propertyPath: m_IsActive
      value: 1
      objectReference: {fileID: 0}
    - target: {fileID: 100012, guid: 69d35325c904f5840af0e9c73d2bd514, type: 3}
      propertyPath: m_StaticEditorFlags
      value: 4294967295
      objectReference: {fileID: 0}
    - target: {fileID: 100014, guid: 69d35325c904f5840af0e9c73d2bd514, type: 3}
      propertyPath: m_IsActive
      value: 0
      objectReference: {fileID: 0}
    - target: {fileID: 100014, guid: 69d35325c904f5840af0e9c73d2bd514, type: 3}
      propertyPath: m_StaticEditorFlags
      value: 4294967295
      objectReference: {fileID: 0}
    - target: {fileID: 100016, guid: 69d35325c904f5840af0e9c73d2bd514, type: 3}
      propertyPath: m_IsActive
      value: 0
      objectReference: {fileID: 0}
    - target: {fileID: 100016, guid: 69d35325c904f5840af0e9c73d2bd514, type: 3}
      propertyPath: m_StaticEditorFlags
      value: 4294967295
      objectReference: {fileID: 0}
    - target: {fileID: 400000, guid: 69d35325c904f5840af0e9c73d2bd514, type: 3}
      propertyPath: m_RootOrder
      value: 0
      objectReference: {fileID: 0}
    - target: {fileID: 400000, guid: 69d35325c904f5840af0e9c73d2bd514, type: 3}
      propertyPath: m_LocalPosition.x
      value: -21.738747
      objectReference: {fileID: 0}
    - target: {fileID: 400000, guid: 69d35325c904f5840af0e9c73d2bd514, type: 3}
      propertyPath: m_LocalPosition.y
      value: 0
      objectReference: {fileID: 0}
    - target: {fileID: 400000, guid: 69d35325c904f5840af0e9c73d2bd514, type: 3}
      propertyPath: m_LocalPosition.z
      value: 164.22633
      objectReference: {fileID: 0}
    - target: {fileID: 400000, guid: 69d35325c904f5840af0e9c73d2bd514, type: 3}
      propertyPath: m_LocalRotation.w
      value: -0.68962586
      objectReference: {fileID: 0}
    - target: {fileID: 400000, guid: 69d35325c904f5840af0e9c73d2bd514, type: 3}
      propertyPath: m_LocalRotation.x
      value: -0
      objectReference: {fileID: 0}
    - target: {fileID: 400000, guid: 69d35325c904f5840af0e9c73d2bd514, type: 3}
      propertyPath: m_LocalRotation.y
      value: -0.7241659
      objectReference: {fileID: 0}
    - target: {fileID: 400000, guid: 69d35325c904f5840af0e9c73d2bd514, type: 3}
      propertyPath: m_LocalRotation.z
      value: -0
      objectReference: {fileID: 0}
    - target: {fileID: 400000, guid: 69d35325c904f5840af0e9c73d2bd514, type: 3}
      propertyPath: m_LocalEulerAnglesHint.x
      value: 0
      objectReference: {fileID: 0}
    - target: {fileID: 400000, guid: 69d35325c904f5840af0e9c73d2bd514, type: 3}
      propertyPath: m_LocalEulerAnglesHint.y
      value: 92.799
      objectReference: {fileID: 0}
    - target: {fileID: 400000, guid: 69d35325c904f5840af0e9c73d2bd514, type: 3}
      propertyPath: m_LocalEulerAnglesHint.z
      value: 0
      objectReference: {fileID: 0}
    - target: {fileID: 20500000, guid: 69d35325c904f5840af0e9c73d2bd514, type: 3}
      propertyPath: m_Enabled
      value: 0
      objectReference: {fileID: 0}
    m_RemovedComponents:
    - {fileID: 3300000, guid: 69d35325c904f5840af0e9c73d2bd514, type: 3}
    - {fileID: 2300000, guid: 69d35325c904f5840af0e9c73d2bd514, type: 3}
    - {fileID: 3300004, guid: 69d35325c904f5840af0e9c73d2bd514, type: 3}
    - {fileID: 2300004, guid: 69d35325c904f5840af0e9c73d2bd514, type: 3}
  m_SourcePrefab: {fileID: 100100000, guid: 69d35325c904f5840af0e9c73d2bd514, type: 3}
--- !u!1 &2499386501321835943 stripped
GameObject:
  m_CorrespondingSourceObject: {fileID: 100006, guid: 69d35325c904f5840af0e9c73d2bd514, type: 3}
  m_PrefabInstance: {fileID: 2499386501321736961}
  m_PrefabAsset: {fileID: 0}
--- !u!64 &7128628591390089744
MeshCollider:
  m_ObjectHideFlags: 0
  m_CorrespondingSourceObject: {fileID: 0}
  m_PrefabInstance: {fileID: 0}
  m_PrefabAsset: {fileID: 0}
  m_GameObject: {fileID: 2499386501321835943}
  m_Material: {fileID: 0}
  m_IsTrigger: 0
  m_Enabled: 1
  serializedVersion: 4
  m_Convex: 0
  m_CookingOptions: 30
  m_Mesh: {fileID: 4300004, guid: 69d35325c904f5840af0e9c73d2bd514, type: 3}
