%YAML 1.1
%TAG !u! tag:unity3d.com,2011:
--- !u!64 &5751685817471489182
MeshCollider:
  m_ObjectHideFlags: 0
  m_CorrespondingSourceObject: {fileID: 0}
  m_PrefabInstance: {fileID: 0}
  m_PrefabAsset: {fileID: 0}
  m_GameObject: {fileID: 6984538914207406958}
  m_Material: {fileID: 0}
  m_IsTrigger: 0
  m_Enabled: 1
  serializedVersion: 3
  m_Convex: 0
  m_CookingOptions: 14
  m_Mesh: {fileID: 4300006, guid: 5fe1f65999b9a1040a07447cc7549398, type: 3}
--- !u!1001 &6984538914207309260
PrefabInstance:
  m_ObjectHideFlags: 0
  serializedVersion: 2
  m_Modification:
    m_TransformParent: {fileID: 0}
    m_Modifications:
    - target: {fileID: 100000, guid: 5fe1f65999b9a1040a07447cc7549398, type: 3}
      propertyPath: m_Name
      value: MooringBollard_03_Prefab
      objectReference: {fileID: 0}
    - target: {fileID: 100000, guid: 5fe1f65999b9a1040a07447cc7549398, type: 3}
      propertyPath: m_StaticEditorFlags
      value: 80
      objectReference: {fileID: 0}
    - target: {fileID: 100004, guid: 5fe1f65999b9a1040a07447cc7549398, type: 3}
      propertyPath: m_StaticEditorFlags
      value: 80
      objectReference: {fileID: 0}
    - target: {fileID: 100006, guid: 5fe1f65999b9a1040a07447cc7549398, type: 3}
      propertyPath: m_StaticEditorFlags
      value: 80
      objectReference: {fileID: 0}
    - target: {fileID: 100008, guid: 5fe1f65999b9a1040a07447cc7549398, type: 3}
      propertyPath: m_StaticEditorFlags
      value: 80
      objectReference: {fileID: 0}
    - target: {fileID: 400000, guid: 5fe1f65999b9a1040a07447cc7549398, type: 3}
      propertyPath: m_LocalPosition.x
      value: -0
      objectReference: {fileID: 0}
    - target: {fileID: 400000, guid: 5fe1f65999b9a1040a07447cc7549398, type: 3}
      propertyPath: m_LocalPosition.y
      value: 0
      objectReference: {fileID: 0}
    - target: {fileID: 400000, guid: 5fe1f65999b9a1040a07447cc7549398, type: 3}
      propertyPath: m_LocalPosition.z
      value: 0
      objectReference: {fileID: 0}
    - target: {fileID: 400000, guid: 5fe1f65999b9a1040a07447cc7549398, type: 3}
      propertyPath: m_LocalRotation.x
      value: 0
      objectReference: {fileID: 0}
    - target: {fileID: 400000, guid: 5fe1f65999b9a1040a07447cc7549398, type: 3}
      propertyPath: m_LocalRotation.y
      value: -0
      objectReference: {fileID: 0}
    - target: {fileID: 400000, guid: 5fe1f65999b9a1040a07447cc7549398, type: 3}
      propertyPath: m_LocalRotation.z
      value: -0
      objectReference: {fileID: 0}
    - target: {fileID: 400000, guid: 5fe1f65999b9a1040a07447cc7549398, type: 3}
      propertyPath: m_LocalRotation.w
      value: 1
      objectReference: {fileID: 0}
    - target: {fileID: 400000, guid: 5fe1f65999b9a1040a07447cc7549398, type: 3}
      propertyPath: m_RootOrder
      value: 0
      objectReference: {fileID: 0}
    - target: {fileID: 400000, guid: 5fe1f65999b9a1040a07447cc7549398, type: 3}
      propertyPath: m_LocalEulerAnglesHint.x
      value: 0
      objectReference: {fileID: 0}
    - target: {fileID: 400000, guid: 5fe1f65999b9a1040a07447cc7549398, type: 3}
      propertyPath: m_LocalEulerAnglesHint.y
      value: 0
      objectReference: {fileID: 0}
    - target: {fileID: 400000, guid: 5fe1f65999b9a1040a07447cc7549398, type: 3}
      propertyPath: m_LocalEulerAnglesHint.z
      value: 0
      objectReference: {fileID: 0}
    - target: {fileID: 20500000, guid: 5fe1f65999b9a1040a07447cc7549398, type: 3}
      propertyPath: m_LODs.Array.data[0].screenRelativeHeight
      value: 0.39536238
      objectReference: {fileID: 0}
    - target: {fileID: 20500000, guid: 5fe1f65999b9a1040a07447cc7549398, type: 3}
      propertyPath: m_LODs.Array.data[1].screenRelativeHeight
      value: 0.103439316
      objectReference: {fileID: 0}
    m_RemovedComponents:
    - {fileID: 3300000, guid: 5fe1f65999b9a1040a07447cc7549398, type: 3}
    - {fileID: 2300000, guid: 5fe1f65999b9a1040a07447cc7549398, type: 3}
  m_SourcePrefab: {fileID: 100100000, guid: 5fe1f65999b9a1040a07447cc7549398, type: 3}
--- !u!1 &6984538914207406958 stripped
GameObject:
  m_CorrespondingSourceObject: {fileID: 100002, guid: 5fe1f65999b9a1040a07447cc7549398,
    type: 3}
  m_PrefabInstance: {fileID: 6984538914207309260}
  m_PrefabAsset: {fileID: 0}
