%YAML 1.1
%TAG !u! tag:unity3d.com,2011:
--- !u!1001 &5424350348349740003
PrefabInstance:
  m_ObjectHideFlags: 0
  serializedVersion: 2
  m_Modification:
    m_TransformParent: {fileID: 0}
    m_Modifications:
    - target: {fileID: 100000, guid: 97f70766bc1e2154a8a14860fefebd11, type: 3}
      propertyPath: m_Name
      value: PalletTrolley_01_Prefab (2)
      objectReference: {fileID: 0}
    - target: {fileID: 100000, guid: 97f70766bc1e2154a8a14860fefebd11, type: 3}
      propertyPath: m_StaticEditorFlags
      value: 4294967295
      objectReference: {fileID: 0}
    - target: {fileID: 100002, guid: 97f70766bc1e2154a8a14860fefebd11, type: 3}
      propertyPath: m_IsActive
      value: 0
      objectReference: {fileID: 0}
    - target: {fileID: 100002, guid: 97f70766bc1e2154a8a14860fefebd11, type: 3}
      propertyPath: m_StaticEditorFlags
      value: 4294967295
      objectReference: {fileID: 0}
    - target: {fileID: 100004, guid: 97f70766bc1e2154a8a14860fefebd11, type: 3}
      propertyPath: m_IsActive
      value: 0
      objectReference: {fileID: 0}
    - target: {fileID: 100004, guid: 97f70766bc1e2154a8a14860fefebd11, type: 3}
      propertyPath: m_StaticEditorFlags
      value: 4294967295
      objectReference: {fileID: 0}
    - target: {fileID: 100006, guid: 97f70766bc1e2154a8a14860fefebd11, type: 3}
      propertyPath: m_IsActive
      value: 0
      objectReference: {fileID: 0}
    - target: {fileID: 100006, guid: 97f70766bc1e2154a8a14860fefebd11, type: 3}
      propertyPath: m_StaticEditorFlags
      value: 4294967295
      objectReference: {fileID: 0}
    - target: {fileID: 100008, guid: 97f70766bc1e2154a8a14860fefebd11, type: 3}
      propertyPath: m_IsActive
      value: 0
      objectReference: {fileID: 0}
    - target: {fileID: 100008, guid: 97f70766bc1e2154a8a14860fefebd11, type: 3}
      propertyPath: m_StaticEditorFlags
      value: 4294967295
      objectReference: {fileID: 0}
    - target: {fileID: 100010, guid: 97f70766bc1e2154a8a14860fefebd11, type: 3}
      propertyPath: m_StaticEditorFlags
      value: 4294967295
      objectReference: {fileID: 0}
    - target: {fileID: 100012, guid: 97f70766bc1e2154a8a14860fefebd11, type: 3}
      propertyPath: m_IsActive
      value: 0
      objectReference: {fileID: 0}
    - target: {fileID: 100012, guid: 97f70766bc1e2154a8a14860fefebd11, type: 3}
      propertyPath: m_StaticEditorFlags
      value: 4294967295
      objectReference: {fileID: 0}
    - target: {fileID: 400000, guid: 97f70766bc1e2154a8a14860fefebd11, type: 3}
      propertyPath: m_RootOrder
      value: 0
      objectReference: {fileID: 0}
    - target: {fileID: 400000, guid: 97f70766bc1e2154a8a14860fefebd11, type: 3}
      propertyPath: m_LocalPosition.x
      value: -77.63
      objectReference: {fileID: 0}
    - target: {fileID: 400000, guid: 97f70766bc1e2154a8a14860fefebd11, type: 3}
      propertyPath: m_LocalPosition.y
      value: 0
      objectReference: {fileID: 0}
    - target: {fileID: 400000, guid: 97f70766bc1e2154a8a14860fefebd11, type: 3}
      propertyPath: m_LocalPosition.z
      value: 97.06
      objectReference: {fileID: 0}
    - target: {fileID: 400000, guid: 97f70766bc1e2154a8a14860fefebd11, type: 3}
      propertyPath: m_LocalRotation.w
      value: 0.07776531
      objectReference: {fileID: 0}
    - target: {fileID: 400000, guid: 97f70766bc1e2154a8a14860fefebd11, type: 3}
      propertyPath: m_LocalRotation.x
      value: -0
      objectReference: {fileID: 0}
    - target: {fileID: 400000, guid: 97f70766bc1e2154a8a14860fefebd11, type: 3}
      propertyPath: m_LocalRotation.y
      value: -0.9969717
      objectReference: {fileID: 0}
    - target: {fileID: 400000, guid: 97f70766bc1e2154a8a14860fefebd11, type: 3}
      propertyPath: m_LocalRotation.z
      value: -0
      objectReference: {fileID: 0}
    - target: {fileID: 400000, guid: 97f70766bc1e2154a8a14860fefebd11, type: 3}
      propertyPath: m_LocalEulerAnglesHint.x
      value: 0
      objectReference: {fileID: 0}
    - target: {fileID: 400000, guid: 97f70766bc1e2154a8a14860fefebd11, type: 3}
      propertyPath: m_LocalEulerAnglesHint.y
      value: -171.08
      objectReference: {fileID: 0}
    - target: {fileID: 400000, guid: 97f70766bc1e2154a8a14860fefebd11, type: 3}
      propertyPath: m_LocalEulerAnglesHint.z
      value: 0
      objectReference: {fileID: 0}
    - target: {fileID: 20500000, guid: 97f70766bc1e2154a8a14860fefebd11, type: 3}
      propertyPath: m_LODs.Array.data[0].screenRelativeHeight
      value: 0.70193905
      objectReference: {fileID: 0}
    - target: {fileID: 20500000, guid: 97f70766bc1e2154a8a14860fefebd11, type: 3}
      propertyPath: m_LODs.Array.data[1].screenRelativeHeight
      value: 0.49929744
      objectReference: {fileID: 0}
    - target: {fileID: 20500000, guid: 97f70766bc1e2154a8a14860fefebd11, type: 3}
      propertyPath: m_LODs.Array.data[2].screenRelativeHeight
      value: 0.29516163
      objectReference: {fileID: 0}
    - target: {fileID: 20500000, guid: 97f70766bc1e2154a8a14860fefebd11, type: 3}
      propertyPath: m_LODs.Array.data[3].screenRelativeHeight
      value: 0.15010285
      objectReference: {fileID: 0}
    m_RemovedComponents:
    - {fileID: 3300000, guid: 97f70766bc1e2154a8a14860fefebd11, type: 3}
    - {fileID: 2300000, guid: 97f70766bc1e2154a8a14860fefebd11, type: 3}
    - {fileID: 9500000, guid: 97f70766bc1e2154a8a14860fefebd11, type: 3}
    - {fileID: 20500000, guid: 97f70766bc1e2154a8a14860fefebd11, type: 3}
  m_SourcePrefab: {fileID: 100100000, guid: 97f70766bc1e2154a8a14860fefebd11, type: 3}
--- !u!1 &5424350348349707585 stripped
GameObject:
  m_CorrespondingSourceObject: {fileID: 100002, guid: 97f70766bc1e2154a8a14860fefebd11, type: 3}
  m_PrefabInstance: {fileID: 5424350348349740003}
  m_PrefabAsset: {fileID: 0}
--- !u!64 &422868662125131764
MeshCollider:
  m_ObjectHideFlags: 0
  m_CorrespondingSourceObject: {fileID: 0}
  m_PrefabInstance: {fileID: 0}
  m_PrefabAsset: {fileID: 0}
  m_GameObject: {fileID: 5424350348349707585}
  m_Material: {fileID: 0}
  m_IsTrigger: 0
  m_Enabled: 1
  serializedVersion: 4
  m_Convex: 0
  m_CookingOptions: 30
  m_Mesh: {fileID: 4300000, guid: 97f70766bc1e2154a8a14860fefebd11, type: 3}
