%YAML 1.1
%TAG !u! tag:unity3d.com,2011:
--- !u!64 &6633750261232126660
MeshCollider:
  m_ObjectHideFlags: 0
  m_CorrespondingSourceObject: {fileID: 0}
  m_PrefabInstance: {fileID: 0}
  m_PrefabAsset: {fileID: 0}
  m_GameObject: {fileID: 6295806590755290409}
  m_Material: {fileID: 0}
  m_IsTrigger: 0
  m_Enabled: 1
  serializedVersion: 3
  m_Convex: 0
  m_CookingOptions: 14
  m_Mesh: {fileID: 4300002, guid: 905a0b3c17b03b545b1a0937731838c2, type: 3}
--- !u!1001 &6295806590755388299
PrefabInstance:
  m_ObjectHideFlags: 0
  serializedVersion: 2
  m_Modification:
    m_TransformParent: {fileID: 0}
    m_Modifications:
    - target: {fileID: 100000, guid: 905a0b3c17b03b545b1a0937731838c2, type: 3}
      propertyPath: m_Name
      value: Stack_Wood_01_Prefab
      objectReference: {fileID: 0}
    - target: {fileID: 100000, guid: 905a0b3c17b03b545b1a0937731838c2, type: 3}
      propertyPath: m_StaticEditorFlags
      value: 80
      objectReference: {fileID: 0}
    - target: {fileID: 100002, guid: 905a0b3c17b03b545b1a0937731838c2, type: 3}
      propertyPath: m_StaticEditorFlags
      value: 0
      objectReference: {fileID: 0}
    - target: {fileID: 100004, guid: 905a0b3c17b03b545b1a0937731838c2, type: 3}
      propertyPath: m_StaticEditorFlags
      value: 80
      objectReference: {fileID: 0}
    - target: {fileID: 400000, guid: 905a0b3c17b03b545b1a0937731838c2, type: 3}
      propertyPath: m_LocalPosition.x
      value: -0
      objectReference: {fileID: 0}
    - target: {fileID: 400000, guid: 905a0b3c17b03b545b1a0937731838c2, type: 3}
      propertyPath: m_LocalPosition.y
      value: 0
      objectReference: {fileID: 0}
    - target: {fileID: 400000, guid: 905a0b3c17b03b545b1a0937731838c2, type: 3}
      propertyPath: m_LocalPosition.z
      value: 0
      objectReference: {fileID: 0}
    - target: {fileID: 400000, guid: 905a0b3c17b03b545b1a0937731838c2, type: 3}
      propertyPath: m_LocalRotation.x
      value: 0
      objectReference: {fileID: 0}
    - target: {fileID: 400000, guid: 905a0b3c17b03b545b1a0937731838c2, type: 3}
      propertyPath: m_LocalRotation.y
      value: -0
      objectReference: {fileID: 0}
    - target: {fileID: 400000, guid: 905a0b3c17b03b545b1a0937731838c2, type: 3}
      propertyPath: m_LocalRotation.z
      value: -0
      objectReference: {fileID: 0}
    - target: {fileID: 400000, guid: 905a0b3c17b03b545b1a0937731838c2, type: 3}
      propertyPath: m_LocalRotation.w
      value: 1
      objectReference: {fileID: 0}
    - target: {fileID: 400000, guid: 905a0b3c17b03b545b1a0937731838c2, type: 3}
      propertyPath: m_RootOrder
      value: 0
      objectReference: {fileID: 0}
    - target: {fileID: 400000, guid: 905a0b3c17b03b545b1a0937731838c2, type: 3}
      propertyPath: m_LocalEulerAnglesHint.x
      value: 0
      objectReference: {fileID: 0}
    - target: {fileID: 400000, guid: 905a0b3c17b03b545b1a0937731838c2, type: 3}
      propertyPath: m_LocalEulerAnglesHint.y
      value: 0
      objectReference: {fileID: 0}
    - target: {fileID: 400000, guid: 905a0b3c17b03b545b1a0937731838c2, type: 3}
      propertyPath: m_LocalEulerAnglesHint.z
      value: 0
      objectReference: {fileID: 0}
    m_RemovedComponents:
    - {fileID: 3300000, guid: 905a0b3c17b03b545b1a0937731838c2, type: 3}
    - {fileID: 2300000, guid: 905a0b3c17b03b545b1a0937731838c2, type: 3}
  m_SourcePrefab: {fileID: 100100000, guid: 905a0b3c17b03b545b1a0937731838c2, type: 3}
--- !u!1 &6295806590755290409 stripped
GameObject:
  m_CorrespondingSourceObject: {fileID: 100002, guid: 905a0b3c17b03b545b1a0937731838c2,
    type: 3}
  m_PrefabInstance: {fileID: 6295806590755388299}
  m_PrefabAsset: {fileID: 0}
