%YAML 1.1
%TAG !u! tag:unity3d.com,2011:
--- !u!1001 &1917260708773259300
PrefabInstance:
  m_ObjectHideFlags: 0
  serializedVersion: 2
  m_Modification:
    m_TransformParent: {fileID: 0}
    m_Modifications:
    - target: {fileID: 100000, guid: a99a29dce8356574384c414a82eaf40b, type: 3}
      propertyPath: m_Name
      value: Stack_Wood_02_Prefab (1)
      objectReference: {fileID: 0}
    - target: {fileID: 100000, guid: a99a29dce8356574384c414a82eaf40b, type: 3}
      propertyPath: m_StaticEditorFlags
      value: 4294967295
      objectReference: {fileID: 0}
    - target: {fileID: 100002, guid: a99a29dce8356574384c414a82eaf40b, type: 3}
      propertyPath: m_IsActive
      value: 0
      objectReference: {fileID: 0}
    - target: {fileID: 100002, guid: a99a29dce8356574384c414a82eaf40b, type: 3}
      propertyPath: m_StaticEditorFlags
      value: 4294967295
      objectReference: {fileID: 0}
    - target: {fileID: 100004, guid: a99a29dce8356574384c414a82eaf40b, type: 3}
      propertyPath: m_IsActive
      value: 0
      objectReference: {fileID: 0}
    - target: {fileID: 100004, guid: a99a29dce8356574384c414a82eaf40b, type: 3}
      propertyPath: m_StaticEditorFlags
      value: 4294967295
      objectReference: {fileID: 0}
    - target: {fileID: 100006, guid: a99a29dce8356574384c414a82eaf40b, type: 3}
      propertyPath: m_IsActive
      value: 0
      objectReference: {fileID: 0}
    - target: {fileID: 100006, guid: a99a29dce8356574384c414a82eaf40b, type: 3}
      propertyPath: m_StaticEditorFlags
      value: 4294967295
      objectReference: {fileID: 0}
    - target: {fileID: 100008, guid: a99a29dce8356574384c414a82eaf40b, type: 3}
      propertyPath: m_IsActive
      value: 0
      objectReference: {fileID: 0}
    - target: {fileID: 100008, guid: a99a29dce8356574384c414a82eaf40b, type: 3}
      propertyPath: m_StaticEditorFlags
      value: 4294967295
      objectReference: {fileID: 0}
    - target: {fileID: 100010, guid: a99a29dce8356574384c414a82eaf40b, type: 3}
      propertyPath: m_StaticEditorFlags
      value: 4294967295
      objectReference: {fileID: 0}
    - target: {fileID: 100012, guid: a99a29dce8356574384c414a82eaf40b, type: 3}
      propertyPath: m_IsActive
      value: 0
      objectReference: {fileID: 0}
    - target: {fileID: 100012, guid: a99a29dce8356574384c414a82eaf40b, type: 3}
      propertyPath: m_StaticEditorFlags
      value: 4294967295
      objectReference: {fileID: 0}
    - target: {fileID: 400000, guid: a99a29dce8356574384c414a82eaf40b, type: 3}
      propertyPath: m_RootOrder
      value: 0
      objectReference: {fileID: 0}
    - target: {fileID: 400000, guid: a99a29dce8356574384c414a82eaf40b, type: 3}
      propertyPath: m_LocalPosition.x
      value: -74.0275
      objectReference: {fileID: 0}
    - target: {fileID: 400000, guid: a99a29dce8356574384c414a82eaf40b, type: 3}
      propertyPath: m_LocalPosition.y
      value: 0
      objectReference: {fileID: 0}
    - target: {fileID: 400000, guid: a99a29dce8356574384c414a82eaf40b, type: 3}
      propertyPath: m_LocalPosition.z
      value: 98.625
      objectReference: {fileID: 0}
    - target: {fileID: 400000, guid: a99a29dce8356574384c414a82eaf40b, type: 3}
      propertyPath: m_LocalRotation.w
      value: 0.70710886
      objectReference: {fileID: 0}
    - target: {fileID: 400000, guid: a99a29dce8356574384c414a82eaf40b, type: 3}
      propertyPath: m_LocalRotation.x
      value: -0
      objectReference: {fileID: 0}
    - target: {fileID: 400000, guid: a99a29dce8356574384c414a82eaf40b, type: 3}
      propertyPath: m_LocalRotation.y
      value: -0.7071048
      objectReference: {fileID: 0}
    - target: {fileID: 400000, guid: a99a29dce8356574384c414a82eaf40b, type: 3}
      propertyPath: m_LocalRotation.z
      value: -0
      objectReference: {fileID: 0}
    - target: {fileID: 400000, guid: a99a29dce8356574384c414a82eaf40b, type: 3}
      propertyPath: m_LocalEulerAnglesHint.x
      value: 0
      objectReference: {fileID: 0}
    - target: {fileID: 400000, guid: a99a29dce8356574384c414a82eaf40b, type: 3}
      propertyPath: m_LocalEulerAnglesHint.y
      value: -90
      objectReference: {fileID: 0}
    - target: {fileID: 400000, guid: a99a29dce8356574384c414a82eaf40b, type: 3}
      propertyPath: m_LocalEulerAnglesHint.z
      value: 0
      objectReference: {fileID: 0}
    - target: {fileID: 20500000, guid: a99a29dce8356574384c414a82eaf40b, type: 3}
      propertyPath: m_Enabled
      value: 0
      objectReference: {fileID: 0}
    m_RemovedComponents:
    - {fileID: 3300000, guid: a99a29dce8356574384c414a82eaf40b, type: 3}
    - {fileID: 2300000, guid: a99a29dce8356574384c414a82eaf40b, type: 3}
  m_SourcePrefab: {fileID: 100100000, guid: a99a29dce8356574384c414a82eaf40b, type: 3}
--- !u!1 &1917260708773359238 stripped
GameObject:
  m_CorrespondingSourceObject: {fileID: 100002, guid: a99a29dce8356574384c414a82eaf40b, type: 3}
  m_PrefabInstance: {fileID: 1917260708773259300}
  m_PrefabAsset: {fileID: 0}
--- !u!64 &2978590195472651348
MeshCollider:
  m_ObjectHideFlags: 0
  m_CorrespondingSourceObject: {fileID: 0}
  m_PrefabInstance: {fileID: 0}
  m_PrefabAsset: {fileID: 0}
  m_GameObject: {fileID: 1917260708773359238}
  m_Material: {fileID: 0}
  m_IsTrigger: 0
  m_Enabled: 1
  serializedVersion: 4
  m_Convex: 0
  m_CookingOptions: 30
  m_Mesh: {fileID: 4300002, guid: a99a29dce8356574384c414a82eaf40b, type: 3}
