%YAML 1.1
%TAG !u! tag:unity3d.com,2011:
--- !u!64 &3663468469662441098
MeshCollider:
  m_ObjectHideFlags: 0
  m_CorrespondingSourceObject: {fileID: 0}
  m_PrefabInstance: {fileID: 0}
  m_PrefabAsset: {fileID: 0}
  m_GameObject: {fileID: 7100179065299492553}
  m_Material: {fileID: 0}
  m_IsTrigger: 0
  m_Enabled: 1
  serializedVersion: 3
  m_Convex: 0
  m_CookingOptions: 14
  m_Mesh: {fileID: 4300030, guid: b8846bcc22dbecf4cb4cef983be79fe6, type: 3}
--- !u!1001 &7100179065299458057
PrefabInstance:
  m_ObjectHideFlags: 0
  serializedVersion: 2
  m_Modification:
    m_TransformParent: {fileID: 0}
    m_Modifications:
    - target: {fileID: 100002, guid: b8846bcc22dbecf4cb4cef983be79fe6, type: 3}
      propertyPath: m_Name
      value: GantryCrane_02_Structure_01 Prefab
      objectReference: {fileID: 0}
    - target: {fileID: 100002, guid: b8846bcc22dbecf4cb4cef983be79fe6, type: 3}
      propertyPath: m_StaticEditorFlags
      value: 82
      objectReference: {fileID: 0}
    - target: {fileID: 100010, guid: b8846bcc22dbecf4cb4cef983be79fe6, type: 3}
      propertyPath: m_StaticEditorFlags
      value: 82
      objectReference: {fileID: 0}
    - target: {fileID: 100012, guid: b8846bcc22dbecf4cb4cef983be79fe6, type: 3}
      propertyPath: m_StaticEditorFlags
      value: 82
      objectReference: {fileID: 0}
    - target: {fileID: 100014, guid: b8846bcc22dbecf4cb4cef983be79fe6, type: 3}
      propertyPath: m_StaticEditorFlags
      value: 82
      objectReference: {fileID: 0}
    - target: {fileID: 100018, guid: b8846bcc22dbecf4cb4cef983be79fe6, type: 3}
      propertyPath: m_StaticEditorFlags
      value: 82
      objectReference: {fileID: 0}
    - target: {fileID: 100024, guid: b8846bcc22dbecf4cb4cef983be79fe6, type: 3}
      propertyPath: m_StaticEditorFlags
      value: 82
      objectReference: {fileID: 0}
    - target: {fileID: 100006, guid: b8846bcc22dbecf4cb4cef983be79fe6, type: 3}
      propertyPath: m_StaticEditorFlags
      value: 82
      objectReference: {fileID: 0}
    - target: {fileID: 100008, guid: b8846bcc22dbecf4cb4cef983be79fe6, type: 3}
      propertyPath: m_StaticEditorFlags
      value: 82
      objectReference: {fileID: 0}
    - target: {fileID: 100016, guid: b8846bcc22dbecf4cb4cef983be79fe6, type: 3}
      propertyPath: m_StaticEditorFlags
      value: 82
      objectReference: {fileID: 0}
    - target: {fileID: 100020, guid: b8846bcc22dbecf4cb4cef983be79fe6, type: 3}
      propertyPath: m_StaticEditorFlags
      value: 82
      objectReference: {fileID: 0}
    - target: {fileID: 100022, guid: b8846bcc22dbecf4cb4cef983be79fe6, type: 3}
      propertyPath: m_StaticEditorFlags
      value: 82
      objectReference: {fileID: 0}
    - target: {fileID: 100026, guid: b8846bcc22dbecf4cb4cef983be79fe6, type: 3}
      propertyPath: m_StaticEditorFlags
      value: 82
      objectReference: {fileID: 0}
    - target: {fileID: 400002, guid: b8846bcc22dbecf4cb4cef983be79fe6, type: 3}
      propertyPath: m_LocalPosition.x
      value: 0
      objectReference: {fileID: 0}
    - target: {fileID: 400002, guid: b8846bcc22dbecf4cb4cef983be79fe6, type: 3}
      propertyPath: m_LocalPosition.y
      value: 0
      objectReference: {fileID: 0}
    - target: {fileID: 400002, guid: b8846bcc22dbecf4cb4cef983be79fe6, type: 3}
      propertyPath: m_LocalPosition.z
      value: 0
      objectReference: {fileID: 0}
    - target: {fileID: 400002, guid: b8846bcc22dbecf4cb4cef983be79fe6, type: 3}
      propertyPath: m_LocalRotation.x
      value: 0
      objectReference: {fileID: 0}
    - target: {fileID: 400002, guid: b8846bcc22dbecf4cb4cef983be79fe6, type: 3}
      propertyPath: m_LocalRotation.y
      value: 0
      objectReference: {fileID: 0}
    - target: {fileID: 400002, guid: b8846bcc22dbecf4cb4cef983be79fe6, type: 3}
      propertyPath: m_LocalRotation.z
      value: 0
      objectReference: {fileID: 0}
    - target: {fileID: 400002, guid: b8846bcc22dbecf4cb4cef983be79fe6, type: 3}
      propertyPath: m_LocalRotation.w
      value: 1
      objectReference: {fileID: 0}
    - target: {fileID: 400002, guid: b8846bcc22dbecf4cb4cef983be79fe6, type: 3}
      propertyPath: m_RootOrder
      value: 0
      objectReference: {fileID: 0}
    - target: {fileID: 400002, guid: b8846bcc22dbecf4cb4cef983be79fe6, type: 3}
      propertyPath: m_LocalEulerAnglesHint.x
      value: 0
      objectReference: {fileID: 0}
    - target: {fileID: 400002, guid: b8846bcc22dbecf4cb4cef983be79fe6, type: 3}
      propertyPath: m_LocalEulerAnglesHint.y
      value: 0
      objectReference: {fileID: 0}
    - target: {fileID: 400002, guid: b8846bcc22dbecf4cb4cef983be79fe6, type: 3}
      propertyPath: m_LocalEulerAnglesHint.z
      value: 0
      objectReference: {fileID: 0}
    - target: {fileID: 20500000, guid: b8846bcc22dbecf4cb4cef983be79fe6, type: 3}
      propertyPath: m_LODs.Array.data[0].screenRelativeHeight
      value: 0.99024737
      objectReference: {fileID: 0}
    - target: {fileID: 20500000, guid: b8846bcc22dbecf4cb4cef983be79fe6, type: 3}
      propertyPath: m_LODs.Array.data[1].screenRelativeHeight
      value: 0.9216108
      objectReference: {fileID: 0}
    - target: {fileID: 20500000, guid: b8846bcc22dbecf4cb4cef983be79fe6, type: 3}
      propertyPath: m_LODs.Array.data[2].screenRelativeHeight
      value: 0.71926486
      objectReference: {fileID: 0}
    - target: {fileID: 20500000, guid: b8846bcc22dbecf4cb4cef983be79fe6, type: 3}
      propertyPath: m_LODs.Array.data[3].screenRelativeHeight
      value: 0.2971735
      objectReference: {fileID: 0}
    - target: {fileID: 20500000, guid: b8846bcc22dbecf4cb4cef983be79fe6, type: 3}
      propertyPath: m_LODs.Array.data[4].screenRelativeHeight
      value: 0.1479689
      objectReference: {fileID: 0}
    m_RemovedComponents:
    - {fileID: 3300028, guid: b8846bcc22dbecf4cb4cef983be79fe6, type: 3}
    - {fileID: 2300028, guid: b8846bcc22dbecf4cb4cef983be79fe6, type: 3}
    - {fileID: 3300030, guid: b8846bcc22dbecf4cb4cef983be79fe6, type: 3}
    - {fileID: 2300030, guid: b8846bcc22dbecf4cb4cef983be79fe6, type: 3}
  m_SourcePrefab: {fileID: 100100000, guid: b8846bcc22dbecf4cb4cef983be79fe6, type: 3}
--- !u!1 &7100179065299492553 stripped
GameObject:
  m_CorrespondingSourceObject: {fileID: 100032, guid: b8846bcc22dbecf4cb4cef983be79fe6,
    type: 3}
  m_PrefabInstance: {fileID: 7100179065299458057}
  m_PrefabAsset: {fileID: 0}
