%YAML 1.1
%TAG !u! tag:unity3d.com,2011:
--- !u!64 &8911255665965478734
MeshCollider:
  m_ObjectHideFlags: 0
  m_CorrespondingSourceObject: {fileID: 0}
  m_PrefabInstance: {fileID: 0}
  m_PrefabAsset: {fileID: 0}
  m_GameObject: {fileID: 1508486141926629466}
  m_Material: {fileID: 0}
  m_IsTrigger: 0
  m_Enabled: 1
  serializedVersion: 3
  m_Convex: 0
  m_CookingOptions: 14
  m_Mesh: {fileID: 4300032, guid: 956463bb47a1f8b4ab6e932dee475dfd, type: 3}
--- !u!1001 &1508486141926663832
PrefabInstance:
  m_ObjectHideFlags: 0
  serializedVersion: 2
  m_Modification:
    m_TransformParent: {fileID: 0}
    m_Modifications:
    - target: {fileID: 100002, guid: 956463bb47a1f8b4ab6e932dee475dfd, type: 3}
      propertyPath: m_Name
      value: GantryCrane_02_Traction_02 Prefab
      objectReference: {fileID: 0}
    - target: {fileID: 100002, guid: 956463bb47a1f8b4ab6e932dee475dfd, type: 3}
      propertyPath: m_StaticEditorFlags
      value: 82
      objectReference: {fileID: 0}
    - target: {fileID: 100010, guid: 956463bb47a1f8b4ab6e932dee475dfd, type: 3}
      propertyPath: m_StaticEditorFlags
      value: 82
      objectReference: {fileID: 0}
    - target: {fileID: 100012, guid: 956463bb47a1f8b4ab6e932dee475dfd, type: 3}
      propertyPath: m_StaticEditorFlags
      value: 82
      objectReference: {fileID: 0}
    - target: {fileID: 100016, guid: 956463bb47a1f8b4ab6e932dee475dfd, type: 3}
      propertyPath: m_StaticEditorFlags
      value: 82
      objectReference: {fileID: 0}
    - target: {fileID: 100020, guid: 956463bb47a1f8b4ab6e932dee475dfd, type: 3}
      propertyPath: m_StaticEditorFlags
      value: 82
      objectReference: {fileID: 0}
    - target: {fileID: 100024, guid: 956463bb47a1f8b4ab6e932dee475dfd, type: 3}
      propertyPath: m_StaticEditorFlags
      value: 82
      objectReference: {fileID: 0}
    - target: {fileID: 100028, guid: 956463bb47a1f8b4ab6e932dee475dfd, type: 3}
      propertyPath: m_StaticEditorFlags
      value: 82
      objectReference: {fileID: 0}
    - target: {fileID: 100032, guid: 956463bb47a1f8b4ab6e932dee475dfd, type: 3}
      propertyPath: m_StaticEditorFlags
      value: 82
      objectReference: {fileID: 0}
    - target: {fileID: 100006, guid: 956463bb47a1f8b4ab6e932dee475dfd, type: 3}
      propertyPath: m_StaticEditorFlags
      value: 82
      objectReference: {fileID: 0}
    - target: {fileID: 100008, guid: 956463bb47a1f8b4ab6e932dee475dfd, type: 3}
      propertyPath: m_StaticEditorFlags
      value: 82
      objectReference: {fileID: 0}
    - target: {fileID: 100014, guid: 956463bb47a1f8b4ab6e932dee475dfd, type: 3}
      propertyPath: m_StaticEditorFlags
      value: 82
      objectReference: {fileID: 0}
    - target: {fileID: 100018, guid: 956463bb47a1f8b4ab6e932dee475dfd, type: 3}
      propertyPath: m_StaticEditorFlags
      value: 82
      objectReference: {fileID: 0}
    - target: {fileID: 100022, guid: 956463bb47a1f8b4ab6e932dee475dfd, type: 3}
      propertyPath: m_StaticEditorFlags
      value: 82
      objectReference: {fileID: 0}
    - target: {fileID: 100026, guid: 956463bb47a1f8b4ab6e932dee475dfd, type: 3}
      propertyPath: m_StaticEditorFlags
      value: 82
      objectReference: {fileID: 0}
    - target: {fileID: 100030, guid: 956463bb47a1f8b4ab6e932dee475dfd, type: 3}
      propertyPath: m_StaticEditorFlags
      value: 82
      objectReference: {fileID: 0}
    - target: {fileID: 400002, guid: 956463bb47a1f8b4ab6e932dee475dfd, type: 3}
      propertyPath: m_LocalPosition.x
      value: 0
      objectReference: {fileID: 0}
    - target: {fileID: 400002, guid: 956463bb47a1f8b4ab6e932dee475dfd, type: 3}
      propertyPath: m_LocalPosition.y
      value: 0
      objectReference: {fileID: 0}
    - target: {fileID: 400002, guid: 956463bb47a1f8b4ab6e932dee475dfd, type: 3}
      propertyPath: m_LocalPosition.z
      value: 0
      objectReference: {fileID: 0}
    - target: {fileID: 400002, guid: 956463bb47a1f8b4ab6e932dee475dfd, type: 3}
      propertyPath: m_LocalRotation.x
      value: 0
      objectReference: {fileID: 0}
    - target: {fileID: 400002, guid: 956463bb47a1f8b4ab6e932dee475dfd, type: 3}
      propertyPath: m_LocalRotation.y
      value: 0
      objectReference: {fileID: 0}
    - target: {fileID: 400002, guid: 956463bb47a1f8b4ab6e932dee475dfd, type: 3}
      propertyPath: m_LocalRotation.z
      value: 0
      objectReference: {fileID: 0}
    - target: {fileID: 400002, guid: 956463bb47a1f8b4ab6e932dee475dfd, type: 3}
      propertyPath: m_LocalRotation.w
      value: 1
      objectReference: {fileID: 0}
    - target: {fileID: 400002, guid: 956463bb47a1f8b4ab6e932dee475dfd, type: 3}
      propertyPath: m_RootOrder
      value: 0
      objectReference: {fileID: 0}
    - target: {fileID: 400002, guid: 956463bb47a1f8b4ab6e932dee475dfd, type: 3}
      propertyPath: m_LocalEulerAnglesHint.x
      value: 0
      objectReference: {fileID: 0}
    - target: {fileID: 400002, guid: 956463bb47a1f8b4ab6e932dee475dfd, type: 3}
      propertyPath: m_LocalEulerAnglesHint.y
      value: 0
      objectReference: {fileID: 0}
    - target: {fileID: 400002, guid: 956463bb47a1f8b4ab6e932dee475dfd, type: 3}
      propertyPath: m_LocalEulerAnglesHint.z
      value: 0
      objectReference: {fileID: 0}
    - target: {fileID: 20500000, guid: 956463bb47a1f8b4ab6e932dee475dfd, type: 3}
      propertyPath: m_LODs.Array.data[0].screenRelativeHeight
      value: 0.98588544
      objectReference: {fileID: 0}
    - target: {fileID: 20500000, guid: 956463bb47a1f8b4ab6e932dee475dfd, type: 3}
      propertyPath: m_LODs.Array.data[1].screenRelativeHeight
      value: 0.749351
      objectReference: {fileID: 0}
    - target: {fileID: 20500000, guid: 956463bb47a1f8b4ab6e932dee475dfd, type: 3}
      propertyPath: m_LODs.Array.data[2].screenRelativeHeight
      value: 0.5007361
      objectReference: {fileID: 0}
    - target: {fileID: 20500000, guid: 956463bb47a1f8b4ab6e932dee475dfd, type: 3}
      propertyPath: m_LODs.Array.data[3].screenRelativeHeight
      value: 0.3521904
      objectReference: {fileID: 0}
    - target: {fileID: 20500000, guid: 956463bb47a1f8b4ab6e932dee475dfd, type: 3}
      propertyPath: m_LODs.Array.data[4].screenRelativeHeight
      value: 0.19913849
      objectReference: {fileID: 0}
    - target: {fileID: 20500000, guid: 956463bb47a1f8b4ab6e932dee475dfd, type: 3}
      propertyPath: m_LODs.Array.data[5].screenRelativeHeight
      value: 0.11305432
      objectReference: {fileID: 0}
    - target: {fileID: 20500000, guid: 956463bb47a1f8b4ab6e932dee475dfd, type: 3}
      propertyPath: m_LODs.Array.data[6].screenRelativeHeight
      value: 0.008310556
      objectReference: {fileID: 0}
    m_RemovedComponents:
    - {fileID: 3300032, guid: 956463bb47a1f8b4ab6e932dee475dfd, type: 3}
    - {fileID: 2300032, guid: 956463bb47a1f8b4ab6e932dee475dfd, type: 3}
  m_SourcePrefab: {fileID: 100100000, guid: 956463bb47a1f8b4ab6e932dee475dfd, type: 3}
--- !u!1 &1508486141926629466 stripped
GameObject:
  m_CorrespondingSourceObject: {fileID: 100034, guid: 956463bb47a1f8b4ab6e932dee475dfd,
    type: 3}
  m_PrefabInstance: {fileID: 1508486141926663832}
  m_PrefabAsset: {fileID: 0}
