%YAML 1.1
%TAG !u! tag:unity3d.com,2011:
--- !u!205 &2567238015655495300
LODGroup:
  m_ObjectHideFlags: 0
  m_CorrespondingSourceObject: {fileID: 0}
  m_PrefabInstance: {fileID: 0}
  m_PrefabAsset: {fileID: 0}
  m_GameObject: {fileID: 3572720708910910308}
  serializedVersion: 2
  m_LocalReferencePoint: {x: -0.000000059604645, y: 0.013301492, z: 0}
  m_Size: 1.2761073
  m_FadeMode: 0
  m_AnimateCrossFading: 0
  m_LastLODIsBillboard: 0
  m_LODs:
  - screenRelativeHeight: 0.030449437
    fadeTransitionWidth: 0
    renderers:
    - renderer: {fileID: 3572720708913173926}
  m_Enabled: 1
--- !u!64 &6007026087826989234
MeshCollider:
  m_ObjectHideFlags: 0
  m_CorrespondingSourceObject: {fileID: 0}
  m_PrefabInstance: {fileID: 0}
  m_PrefabAsset: {fileID: 0}
  m_GameObject: {fileID: 3572720708910910310}
  m_Material: {fileID: 0}
  m_IsTrigger: 0
  m_Enabled: 1
  serializedVersion: 3
  m_Convex: 0
  m_CookingOptions: 14
  m_Mesh: {fileID: 4300002, guid: 7099022f55b7cb444a7264b1b9704e49, type: 3}
--- !u!1001 &3572720708910878148
PrefabInstance:
  m_ObjectHideFlags: 0
  serializedVersion: 2
  m_Modification:
    m_TransformParent: {fileID: 0}
    m_Modifications:
    - target: {fileID: 100000, guid: 7099022f55b7cb444a7264b1b9704e49, type: 3}
      propertyPath: m_Name
      value: Pallet_Plank_04_Prefab_snaps017
      objectReference: {fileID: 0}
    - target: {fileID: 100000, guid: 7099022f55b7cb444a7264b1b9704e49, type: 3}
      propertyPath: m_StaticEditorFlags
      value: 80
      objectReference: {fileID: 0}
    - target: {fileID: 100002, guid: 7099022f55b7cb444a7264b1b9704e49, type: 3}
      propertyPath: m_StaticEditorFlags
      value: 0
      objectReference: {fileID: 0}
    - target: {fileID: 100004, guid: 7099022f55b7cb444a7264b1b9704e49, type: 3}
      propertyPath: m_StaticEditorFlags
      value: 80
      objectReference: {fileID: 0}
    - target: {fileID: 400000, guid: 7099022f55b7cb444a7264b1b9704e49, type: 3}
      propertyPath: m_LocalPosition.x
      value: -0
      objectReference: {fileID: 0}
    - target: {fileID: 400000, guid: 7099022f55b7cb444a7264b1b9704e49, type: 3}
      propertyPath: m_LocalPosition.y
      value: 0
      objectReference: {fileID: 0}
    - target: {fileID: 400000, guid: 7099022f55b7cb444a7264b1b9704e49, type: 3}
      propertyPath: m_LocalPosition.z
      value: 0
      objectReference: {fileID: 0}
    - target: {fileID: 400000, guid: 7099022f55b7cb444a7264b1b9704e49, type: 3}
      propertyPath: m_LocalRotation.x
      value: 0
      objectReference: {fileID: 0}
    - target: {fileID: 400000, guid: 7099022f55b7cb444a7264b1b9704e49, type: 3}
      propertyPath: m_LocalRotation.y
      value: -0
      objectReference: {fileID: 0}
    - target: {fileID: 400000, guid: 7099022f55b7cb444a7264b1b9704e49, type: 3}
      propertyPath: m_LocalRotation.z
      value: -0
      objectReference: {fileID: 0}
    - target: {fileID: 400000, guid: 7099022f55b7cb444a7264b1b9704e49, type: 3}
      propertyPath: m_LocalRotation.w
      value: 1
      objectReference: {fileID: 0}
    - target: {fileID: 400000, guid: 7099022f55b7cb444a7264b1b9704e49, type: 3}
      propertyPath: m_RootOrder
      value: 0
      objectReference: {fileID: 0}
    - target: {fileID: 400000, guid: 7099022f55b7cb444a7264b1b9704e49, type: 3}
      propertyPath: m_LocalEulerAnglesHint.x
      value: 0
      objectReference: {fileID: 0}
    - target: {fileID: 400000, guid: 7099022f55b7cb444a7264b1b9704e49, type: 3}
      propertyPath: m_LocalEulerAnglesHint.y
      value: 0
      objectReference: {fileID: 0}
    - target: {fileID: 400000, guid: 7099022f55b7cb444a7264b1b9704e49, type: 3}
      propertyPath: m_LocalEulerAnglesHint.z
      value: 0
      objectReference: {fileID: 0}
    m_RemovedComponents:
    - {fileID: 3300000, guid: 7099022f55b7cb444a7264b1b9704e49, type: 3}
    - {fileID: 2300000, guid: 7099022f55b7cb444a7264b1b9704e49, type: 3}
  m_SourcePrefab: {fileID: 100100000, guid: 7099022f55b7cb444a7264b1b9704e49, type: 3}
--- !u!1 &3572720708910910308 stripped
GameObject:
  m_CorrespondingSourceObject: {fileID: 100000, guid: 7099022f55b7cb444a7264b1b9704e49,
    type: 3}
  m_PrefabInstance: {fileID: 3572720708910878148}
  m_PrefabAsset: {fileID: 0}
--- !u!1 &3572720708910910310 stripped
GameObject:
  m_CorrespondingSourceObject: {fileID: 100002, guid: 7099022f55b7cb444a7264b1b9704e49,
    type: 3}
  m_PrefabInstance: {fileID: 3572720708910878148}
  m_PrefabAsset: {fileID: 0}
--- !u!23 &3572720708913173926 stripped
MeshRenderer:
  m_CorrespondingSourceObject: {fileID: 2300002, guid: 7099022f55b7cb444a7264b1b9704e49,
    type: 3}
  m_PrefabInstance: {fileID: 3572720708910878148}
  m_PrefabAsset: {fileID: 0}
