%YAML 1.1
%TAG !u! tag:unity3d.com,2011:
--- !u!205 &9203704917855534845
LODGroup:
  m_ObjectHideFlags: 0
  m_CorrespondingSourceObject: {fileID: 0}
  m_PrefabInstance: {fileID: 0}
  m_PrefabAsset: {fileID: 0}
  m_GameObject: {fileID: 2004495828189506708}
  serializedVersion: 2
  m_LocalReferencePoint: {x: 0, y: 0.013301492, z: 0.00000014901161}
  m_Size: 1.2761074
  m_FadeMode: 0
  m_AnimateCrossFading: 0
  m_LastLODIsBillboard: 0
  m_LODs:
  - screenRelativeHeight: 0.031625025
    fadeTransitionWidth: 0
    renderers:
    - renderer: {fileID: 2004495828187509334}
  m_Enabled: 1
--- !u!64 &313896759282331648
MeshCollider:
  m_ObjectHideFlags: 0
  m_CorrespondingSourceObject: {fileID: 0}
  m_PrefabInstance: {fileID: 0}
  m_PrefabAsset: {fileID: 0}
  m_GameObject: {fileID: 2004495828189506710}
  m_Material: {fileID: 0}
  m_IsTrigger: 0
  m_Enabled: 1
  serializedVersion: 3
  m_Convex: 0
  m_CookingOptions: 14
  m_Mesh: {fileID: 4300002, guid: 705881afc8f9b534cbf0b73179dcf12a, type: 3}
--- !u!1001 &2004495828189538868
PrefabInstance:
  m_ObjectHideFlags: 0
  serializedVersion: 2
  m_Modification:
    m_TransformParent: {fileID: 0}
    m_Modifications:
    - target: {fileID: 100000, guid: 705881afc8f9b534cbf0b73179dcf12a, type: 3}
      propertyPath: m_Name
      value: Pallet_Plank_03_Prefab_snaps017
      objectReference: {fileID: 0}
    - target: {fileID: 100000, guid: 705881afc8f9b534cbf0b73179dcf12a, type: 3}
      propertyPath: m_StaticEditorFlags
      value: 80
      objectReference: {fileID: 0}
    - target: {fileID: 100002, guid: 705881afc8f9b534cbf0b73179dcf12a, type: 3}
      propertyPath: m_StaticEditorFlags
      value: 0
      objectReference: {fileID: 0}
    - target: {fileID: 100004, guid: 705881afc8f9b534cbf0b73179dcf12a, type: 3}
      propertyPath: m_StaticEditorFlags
      value: 80
      objectReference: {fileID: 0}
    - target: {fileID: 400000, guid: 705881afc8f9b534cbf0b73179dcf12a, type: 3}
      propertyPath: m_LocalPosition.x
      value: -0
      objectReference: {fileID: 0}
    - target: {fileID: 400000, guid: 705881afc8f9b534cbf0b73179dcf12a, type: 3}
      propertyPath: m_LocalPosition.y
      value: 0
      objectReference: {fileID: 0}
    - target: {fileID: 400000, guid: 705881afc8f9b534cbf0b73179dcf12a, type: 3}
      propertyPath: m_LocalPosition.z
      value: 0
      objectReference: {fileID: 0}
    - target: {fileID: 400000, guid: 705881afc8f9b534cbf0b73179dcf12a, type: 3}
      propertyPath: m_LocalRotation.x
      value: 0
      objectReference: {fileID: 0}
    - target: {fileID: 400000, guid: 705881afc8f9b534cbf0b73179dcf12a, type: 3}
      propertyPath: m_LocalRotation.y
      value: -0
      objectReference: {fileID: 0}
    - target: {fileID: 400000, guid: 705881afc8f9b534cbf0b73179dcf12a, type: 3}
      propertyPath: m_LocalRotation.z
      value: -0
      objectReference: {fileID: 0}
    - target: {fileID: 400000, guid: 705881afc8f9b534cbf0b73179dcf12a, type: 3}
      propertyPath: m_LocalRotation.w
      value: 1
      objectReference: {fileID: 0}
    - target: {fileID: 400000, guid: 705881afc8f9b534cbf0b73179dcf12a, type: 3}
      propertyPath: m_RootOrder
      value: 0
      objectReference: {fileID: 0}
    - target: {fileID: 400000, guid: 705881afc8f9b534cbf0b73179dcf12a, type: 3}
      propertyPath: m_LocalEulerAnglesHint.x
      value: 0
      objectReference: {fileID: 0}
    - target: {fileID: 400000, guid: 705881afc8f9b534cbf0b73179dcf12a, type: 3}
      propertyPath: m_LocalEulerAnglesHint.y
      value: 0
      objectReference: {fileID: 0}
    - target: {fileID: 400000, guid: 705881afc8f9b534cbf0b73179dcf12a, type: 3}
      propertyPath: m_LocalEulerAnglesHint.z
      value: 0
      objectReference: {fileID: 0}
    m_RemovedComponents:
    - {fileID: 3300000, guid: 705881afc8f9b534cbf0b73179dcf12a, type: 3}
    - {fileID: 2300000, guid: 705881afc8f9b534cbf0b73179dcf12a, type: 3}
  m_SourcePrefab: {fileID: 100100000, guid: 705881afc8f9b534cbf0b73179dcf12a, type: 3}
--- !u!1 &2004495828189506708 stripped
GameObject:
  m_CorrespondingSourceObject: {fileID: 100000, guid: 705881afc8f9b534cbf0b73179dcf12a,
    type: 3}
  m_PrefabInstance: {fileID: 2004495828189538868}
  m_PrefabAsset: {fileID: 0}
--- !u!1 &2004495828189506710 stripped
GameObject:
  m_CorrespondingSourceObject: {fileID: 100002, guid: 705881afc8f9b534cbf0b73179dcf12a,
    type: 3}
  m_PrefabInstance: {fileID: 2004495828189538868}
  m_PrefabAsset: {fileID: 0}
--- !u!23 &2004495828187509334 stripped
MeshRenderer:
  m_CorrespondingSourceObject: {fileID: 2300002, guid: 705881afc8f9b534cbf0b73179dcf12a,
    type: 3}
  m_PrefabInstance: {fileID: 2004495828189538868}
  m_PrefabAsset: {fileID: 0}
